109,N
403,N
691,N
982,N
1297,N
1607,N
1904,N
2195,N
2483,N
2775,N
3066,N
3367,N
3685,N
3990,N
4283,N
4572,N
4859,N
5157,N
5458,N
5761,N
6077,N
6373,N
6659,N
6945,N
7235,N
7543,N
7849,N
8153,N
8467,N
8757,N
9036,N
9325,N
9624,N
9933,N
10238,N
10536,N
10839,N
11125,N
11408,N
11703,N
12011,N
12324,N
12626,N
12920,N
13216,N
13504,N
13791,N
14090,N
14401,N
14711,N
15006,N
15294,N
15592,N
15883,N
16177,N
16485,N
16796,N
17100,N
17387,N
17673,N
17973,N
18268,N
18566,N
18871,N
19178,N
19473,N
19758,N
20049,N
20352,N
20655,N
20958,N
21262,N
21561,N
21849,N
22136,N
22427,N
22738,N
23043,N
23344,N
23640,N
23937,N
24227,N
24515,N
24818,N
25131,N
25435,N
25730,N
26018,N
26310,N
26601,N
26892,N
27204,N
27516,N
27814,N
28107,N
28394,N
28691,N
28979,N
29267,N
29570,N
29870,N
30151,N
30429,N
30707,N
30989,N
31278,N
31575,N
31870,N
32171,N
32456,N
32724,N
33000,N
33286,N
33584,N
33873,N
34046,N
34368,N
34661,N
34943,N
35231,N
35529,N
35842,N
36147,N
36445,N
36749,N
37037,N
37319,N
37614,N
37917,N
38231,N
38530,N
38814,N
39105,N
39390,N
39672,N
39967,N
40270,N
40578,N
40869,N
41147,N
41437,N
41723,N
42003,N
42304,N
42605,N
42906,N
43193,N
43471,N
43757,N
44045,N
44340,N
44640,N
44935,N
45233,N
45511,N
45789,N
46079,N
46371,N
46669,N
46967,N
47258,N
47550,N
47831,N
48106,N
48394,N
48698,N
48995,N
49284,N
49571,N
49848,N
50134,N
50409,N
50691,N
51002,N
51303,N
51588,N
51873,N
52151,N
52432,N
52714,N
53001,N
53307,N
53604,N
53883,N
54164,N
54441,N
54723,N
55009,N
55305,N
55607,N
55901,N
56183,N
56460,N
56733,N
57024,N
57319,N
57612,N
57912,N
58206,N
58481,N
58756,N
59034,N
59327,N
59628,N
59923,N
60214,N
60504,N
60782,N
61053,N
61338,N
61636,N
61937,N
62232,N
62520,N
62820,N
63108,N
63393,N
63693,N
64004,N
64316,N
64613,N
64901,N
65197,N
65488,N
65775,N
66079,N
66390,N
66696,N
66984,N
67274,N
67572,N
67866,N
68167,N
68472,N
68782,N
69077,N
69360,N
69650,N
69948,N
70248,N
70551,N
70855,N
71158,N
71450,N
71736,N
72030,N
72337,N
72641,N
72943,N
73243,N
73536,N
73826,N
74112,N
74412,N
74724,N
75027,N
75328,N
75620,N
75914,N
76203,N
76494,N
76804,N
77113,N
77413,N
77708,N
77995,N
78288,N
78579,N
78877,N
79193,N
79502,N
79798,N
80087,N
80374,N
80672,N
80970,N
81272,N
81586,N
81888,N
82172,N
82460,N
82750,N
83055,N
83360,N
83663,N
83976,N
84272,N
84552,N
84842,N
85137,N
85445,N
85751,N
86049,N
86352,N
86643,N
86927,N
87221,N
87525,N
87840,N
88144,N
88436,N
88734,N
89022,N
89307,N
89605,N
89912,N
90228,N
90523,N
90808,N
91107,N
91400,N
91691,N
91997,N
92304,N
92614,N
92902,N
93184,N
93482,N
93776,N
94072,N
94379,N
94686,N
94985,N
95273,N
95560,N
95862,N
96165,N
96466,N
96769,N
97070,N
97363,N
97646,N
97934,N
98243,N
98552,N
98850,N
99148,N
99446,N
99737,N
100022,N
100322,N
100634,N
100940,N
101236,N
101527,N
101818,N
102108,N
102397,N
102705,N
103019,N
103321,N
103615,N
103903,N
104197,N
104489,N
104789,N
105100,N
105408,N
105703,N
105990,N
106275,N
106572,N
106874,N
107178,N
107490,N
107796,N
108082,N
108367,N
108657,N
108958,N
109261,N
109564,N
109875,N
110169,N
110451,N
110742,N
111036,N
111348,N
111655,N
111956,N
112258,N
112548,N
112831,N
113124,N
113423,N
113738,N
114044,N
114335,N
114633,N
114925,N
115210,N
115512,N
115821,N
116133,N
116431,N
116715,N
117012,N
117302,N
117593,N
117900,N
118207,N
118515,N
118806,N
119089,N
119388,N
119686,N
119985,N
120292,N
120597,N
120897,N
121182,N
121465,N
121766,N
122069,N
122373,N
122678,N
122976,N
123276,N
123559,N
123847,N
124157,N
124462,N
124762,N
125061,N
125351,N
125641,N
125928,N
126222,N
126540,N
126847,N
127143,N
127437,N
127728,N
128019,N
128311,N
128615,N
128929,N
129233,N
129522,N
129809,N
130100,N
130395,N
130694,N
131004,N
131319,N
131617,N
131901,N
132186,N
132481,N
132781,N
133083,N
133393,N
133700,N
133986,N
134270,N
134559,N
134862,N
135170,N
135472,N
135780,N
136077,N
136359,N
136646,N
136938,N
137248,N
137557,N
137858,N
138158,N
138450,N
138735,N
139028,N
139330,N
139647,N
139952,N
140244,N
140541,N
140831,N
141114,N
141411,N
141718,N
142030,N
142330,N
142616,N
142914,N
143205,N
143499,N
143806,N
144112,N
144422,N
144713,N
144994,N
145292,N
145585,N
145885,N
146195,N
146500,N
146805,N
147092,N
147374,N
147676,N
147980,N
148281,N
148588,N
148886,N
149181,N
149463,N
149748,N
150060,N
150369,N
150670,N
150972,N
151265,N
151557,N
151842,N
152136,N
152451,N
152758,N
153055,N
153347,N
153634,N
153927,N
154221,N
154522,N
154842,N
155147,N
155436,N
155723,N
156012,N
156311,N
156609,N
156914,N
157229,N
157526,N
157807,N
158093,N
158387,N
158689,N
158995,N
159304,N
159611,N
159899,N
160181,N
160469,N
160773,N
161077,N
161381,N
161688,N
161984,N
162269,N
162556,N
162851,N
163164,N
163473,N
163771,N
164072,N
164363,N
164647,N
164936,N
165236,N
165551,N
165855,N
166147,N
166447,N
166739,N
167024,N
167325,N
167630,N
167943,N
168241,N
168525,N
168821,N
169112,N
169402,N
169708,N
170015,N
170326,N
170618,N
170902,N
171200,N
171497,N
171795,N
172103,N
172407,N
172709,N
172994,N
173278,N
173579,N
173881,N
174182,N
174489,N
174789,N
175084,N
175370,N
175656,N
175965,N
176270,N
176570,N
176872,N
177163,N
177454,N
177741,N
178036,N
178353,N
178661,N
178959,N
179254,N
179544,N
179836,N
180127,N
180428,N
180744,N
181050,N
181338,N
181624,N
181917,N
182210,N
182510,N
182822,N
183136,N
183434,N
183718,N
184005,N
184298,N
184596,N
184899,N
185208,N
185515,N
185803,N
186088,N
186378,N
186680,N
186988,N
187292,N
187600,N
187897,N
188179,N
188466,N
188757,N
189068,N
189376,N
189675,N
189978,N
190272,N
190554,N
190846,N
191148,N
191462,N
191766,N
192059,N
192355,N
192645,N
192928,N
193226,N
193533,N
193846,N
194145,N
194433,N
194731,N
195022,N
195314,N
195620,N
195926,N
196237,N
196527,N
196808,N
197104,N
197401,N
197698,N
198006,N
198311,N
198615,N
198901,N
199185,N
199488,N
199788,N
200089,N
200393,N
200694,N
200987,N
201272,N
201560,N
201868,N
202175,N
202476,N
202776,N
203073,N
203364,N
203651,N
203946,N
204258,N
204564,N
204862,N
205152,N
205445,N
205739,N
206028,N
206335,N
206652,N
206954,N
207246,N
207534,N
207734,N
208037,N
208333,N
208637,N
208953,N
209254,N
209540,N
209828,N
210120,N
210420,N
210724,N
211032,N
211343,N
211637,N
211919,N
212204,N
212502,N
212806,N
213110,N
213418,N
213722,N
214011,N
214294,N
214584,N
214893,N
215202,N
215502,N
215807,N
216101,N
216384,N
216671,N
216968,N
217279,N
217587,N
217885,N
218184,N
218475,N
218760,N
219057,N
219361,N
219673,N
219979,N
220268,N
220559,N
220850,N
221138,N
221442,N
221750,N
222064,N
222360,N
222644,N
222941,N
223235,N
223530,N
223836,N
224142,N
224446,N
224732,N
225013,N
225314,N
225612,N
225916,N
226225,N
226528,N
226824,N
227108,N
227393,N
227699,N
228002,N
228305,N
228607,N
228902,N
229195,N
229481,N
229769,N
230085,N
230396,N
230691,N
230988,N
231280,N
231572,N
231857,N
232157,N
232474,N
232779,N
233071,N
233361,N
233652,N
233945,N
234240,N
234550,N
234864,N
235164,N
235452,N
235735,N
236028,N
236324,N
236627,N
236935,N
237246,N
237538,N
237823,N
238111,N
238411,N
238719,N
239021,N
239331,N
239632,N
239916,N
240199,N
240489,N
240794,N
241102,N
241404,N
241711,N
242005,N
242289,N
242580,N
242878,N
243192,N
243497,N
243795,N
244093,N
244381,N
244666,N
244961,N
245267,N
245580,N
245886,N
246175,N
246472,N
246764,N
247051,N
247355,N
247661,N
247972,N
248266,N
248548,N
248848,N
249140,N
249435,N
249745,N
250053,N
250357,N
250645,N
250929,N
251228,N
251526,N
251827,N
252132,N
252435,N
252732,N
253015,N
253300,N
253607,N
253914,N
254218,N
254520,N
254817,N
255110,N
255394,N
255685,N
255997,N
256303,N
256599,N
256895,N
257187,N
257479,N
257769,N
258068,N
258386,N
258690,N
258984,N
259273,N
259564,N
259857,N
260149,N
260457,N
260770,N
261071,N
261360,N
261647,N
261943,N
262241,N
262541,N
262852,N
263161,N
263452,N
263737,N
264023,N
264322,N
264623,N
264924,N
265238,N
265539,N
265825,N
266115,N
266404,N
266711,N
267016,N
267317,N
267625,N
267916,N
268199,N
268488,N
268783,N
269097,N
269405,N
269703,N
270004,N
270295,N
270579,N
270876,N
271179,N
271493,N
271797,N
272085,N
272382,N
272670,N
272955,N
273259,N
273568,N
273879,N
274176,N
274463,N
274759,N
275049,N
275342,N
275649,N
275956,N
276263,N
276549,N
276833,N
277132,N
277430,N
277734,N
278041,N
278349,N
278644,N
278928,N
279215,N
279520,N
279825,N
280122,N
280426,N
280725,N
281016,N
281301,N
281595,N
281907,N
282216,N
282514,N
282812,N
283105,N
283392,N
283679,N
283982,N
284295,N
284599,N
284895,N
285185,N
285480,N
285771,N
286065,N
286379,N
286688,N
286988,N
287277,N
287562,N
287856,N
288153,N
288451,N
288765,N
289073,N
289364,N
289653,N
289941,N
290241,N
290542,N
290843,N
291158,N
291456,N
291738,N
292026,N
292317,N
292622,N
292926,N
293229,N
293541,N
293833,N
294117,N
294407,N
294703,N
295016,N
295320,N
295616,N
295920,N
296208,N
296489,N
296783,N
297089,N
297403,N
297706,N
297999,N
298299,N
298585,N
298871,N
299172,N
299481,N
299788,N
300083,N
300371,N
300666,N
300956,N
301249,N
301559,N
301872,N
302174,N
302463,N
302753,N
303047,N
303342,N
303643,N
303949,N
304259,N
304553,N
304835,N
305130,N
305430,N
305731,N
306037,N
306341,N
306642,N
306929,N
307211,N
307511,N
307814,N
308117,N
308424,N
308720,N
309017,N
309305,N
309590,N
309900,N
310211,N
310513,N
310812,N
311103,N
311396,N
311684,N
311973,N
312290,N
312600,N
312898,N
313191,N
313481,N
313777,N
314068,N
314369,N
314688,N
314993,N
315281,N
315569,N
315855,N
316152,N
316450,N
316754,N
317072,N
317370,N
317655,N
317943,N
318236,N
318540,N
318845,N
319149,N
319458,N
319748,N
320027,N
320315,N
320616,N
320928,N
321234,N
321538,N
321839,N
322125,N
322404,N
322698,N
323009,N
323316,N
323617,N
323915,N
324207,N
324491,N
324782,N
325084,N
325401,N
325706,N
326000,N
326295,N
326585,N
326871,N
327169,N
327476,N
327789,N
328088,N
328372,N
328667,N
328962,N
329256,N
329563,N
329871,N
330180,N
330470,N
330751,N
331049,N
331345,N
331645,N
331952,N
332256,N
332556,N
332842,N
333125,N
333429,N
333733,N
334035,N
334341,N
334637,N
334931,N
335218,N
335504,N
335812,N
336120,N
336421,N
336721,N
337015,N
337310,N
337598,N
337893,N
338210,N
338515,N
338809,N
339100,N
339389,N
339680,N
339972,N
340276,N
340592,N
340896,N
341188,N
341477,N
341771,N
342063,N
342363,N
342672,N
342984,N
343280,N
343564,N
343850,N
344147,N
344448,N
344752,N
345063,N
345372,N
345659,N
345944,N
346231,N
346536,N
346841,N
347142,N
347452,N
347748,N
348031,N
348317,N
348612,N
348925,N
349232,N
349531,N
349836,N
350126,N
350408,N
350699,N
351003,N
351315,N
351618,N
351912,N
352208,N
352499,N
352786,N
353087,N
353395,N
353710,N
354007,N
354292,N
354588,N
354879,N
355169,N
355474,N
355781,N
356089,N
356378,N
356664,N
356962,N
357257,N
357556,N
357864,N
358168,N
358469,N
358754,N
359040,N
359339,N
359640,N
359941,N
360246,N
360550,N
360844,N
361129,N
361420,N
361728,N
362035,N
362333,N
362632,N
362929,N
363216,N
363501,N
363800,N
364113,N
364416,N
364717,N
365011,N
365305,N
365593,N
365882,N
366193,N
366502,N
366803,N
367098,N
367384,N
367677,N
367969,N
368266,N
368581,N
368892,N
369186,N
369477,N
369763,N
370061,N
370358,N
370660,N
370976,N
371278,N
371560,N
371848,N
372139,N
372440,N
372745,N
373049,N
373365,N
373657,N
373939,N
374227,N
374522,N
374833,N
375136,N
375435,N
375742,N
376030,N
376314,N
376606,N
376910,N
377227,N
377529,N
377823,N
378122,N
378410,N
378693,N
378991,N
379300,N
379611,N
379907,N
380197,N
380496,N
380786,N
381077,N
381384,N
381694,N
381999,N
382288,N
382576,N
382872,N
383164,N
383462,N
383769,N
384077,N
384376,N
384664,N
384954,N
385252,N
385551,N
385857,N
386158,N
386464,N
386754,N
387036,N
387331,N
387634,N
387936,N
388241,N
388544,N
388840,N
389130,N
389413,N
389717,N
390025,N
390326,N
390630,N
390924,N
391216,N
391501,N
391789,N
392102,N
392414,N
392715,N
393013,N
393303,N
393595,N
393885,N
394180,N
394498,N
394806,N
395097,N
395385,N
395672,N
395970,N
396264,N
396569,N
396888,N
397191,N
397475,N
397761,N
398051,N
398350,N
398652,N
398958,N
399270,N
399563,N
399843,N
400130,N
400429,N
400738,N
401047,N
401350,N
401653,N
401940,N
402222,N
402512,N
402818,N
403128,N
403430,N
403731,N
404027,N
404312,N
404600,N
404898,N
405210,N
405518,N
405815,N
406112,N
406401,N
406686,N
406981,N
407285,N
407599,N
407903,N
408192,N
408488,N
408779,N
409069,N
409375,N
409683,N
409992,N
410289,N
410570,N
410865,N
411159,N
411456,N
411764,N
412070,N
412377,N
412665,N
412947,N
413248,N
413548,N
413852,N
414158,N
414458,N
414753,N
415035,N
415320,N
415627,N
415934,N
416238,N
416543,N
416837,N
417131,N
417417,N
417707,N
418020,N
418327,N
418625,N
418920,N
419210,N
419502,N
419793,N
420091,N
420411,N
420715,N
421007,N
421296,N
421587,N
421878,N
422175,N
422483,N
422796,N
423092,N
423380,N
423667,N
423962,N
424260,N
424562,N
424876,N
425183,N
425472,N
425760,N
426046,N
426345,N
426649,N
426950,N
427261,N
427562,N
427846,N
428134,N
428426,N
428734,N
429041,N
429340,N
429650,N
429941,N
430223,N
430512,N
430811,N
431122,N
431425,N
431722,N
432024,N
432312,N
432598,N
432894,N
433201,N
433515,N
433816,N
434105,N
434402,N
434688,N
434976,N
435279,N
435588,N
435901,N
436196,N
436483,N
436781,N
437070,N
437364,N
437671,N
437979,N
438280,N
438566,N
438854,N
439151,N
439448,N
439749,N
440058,N
440365,N
440659,N
440945,N
441236,N
441537,N
441841,N
442145,N
442446,N
442745,N
443033,N
443318,N
443615,N
443926,N
444231,N
444535,N
444830,N
445127,N
445414,N
445699,N
446008,N
446318,N
446619,N
446917,N
447206,N
447499,N
447788,N
448082,N
448399,N
448710,N
449006,N
449299,N
449585,N
449879,N
450173,N
450472,N
450789,N
451094,N
451384,N
451670,N
451960,N
452261,N
452563,N
452867,N
453184,N
453479,N
453761,N
454045,N
454337,N
454643,N
454946,N
455250,N
455558,N
455848,N
456130,N
456421,N
456723,N
457033,N
457338,N
457639,N
457937,N
458221,N
458506,N
458800,N
459111,N
459420,N
459721,N
460020,N
460312,N
460598,N
460891,N
461193,N
461507,N
461809,N
462102,N
462397,N
462686,N
462973,N
463274,N
463582,N
463895,N
464193,N
464478,N
464774,N
465067,N
465359,N
465666,N
465971,N
466278,N
466569,N
466849,N
467149,N
467446,N
467747,N
468056,N
468361,N
468662,N
468949,N
469231,N
469535,N
469837,N
470137,N
470439,N
470739,N
471031,N
471316,N
471607,N
471917,N
472224,N
472526,N
472824,N
473118,N
473409,N
473695,N
473993,N
474307,N
474612,N
474911,N
475200,N
475492,N
475785,N
476077,N
476387,N
476702,N
477003,N
477292,N
477579,N
477873,N
478165,N
478464,N
478777,N
479087,N
479380,N
479668,N
479958,N
480254,N
480555,N
480859,N
481172,N
481473,N
481758,N
482044,N
482335,N
482638,N
482941,N
483244,N
483556,N
483849,N
484134,N
484423,N
484720,N
485032,N
485336,N
485634,N
485940,N
486226,N
486507,N
486798,N
487103,N
487416,N
487719,N
488015,N
488313,N
488601,N
488884,N
489182,N
489495,N
489803,N
490100,N
490389,N
490683,N
490971,N
491265,N
491568,N
491884,N
492189,N
492479,N
492768,N
493062,N
493354,N
493655,N
493962,N
494271,N
494567,N
494846,N
495141,N
495439,N
495739,N
496048,N
496354,N
496656,N
496943,N
497225,N
497524,N
497825,N
498129,N
498434,N
498734,N
499029,N
499317,N
499602,N
499910,N
500219,N
500522,N
500823,N
501114,N
501408,N
501693,N
501984,N
502299,N
502606,N
502903,N
503196,N
503487,N
503781,N
504072,N
504373,N
504691,N
504994,N
505286,N
505574,N
505863,N
506157,N
506454,N
506762,N
507074,N
507375,N
507662,N
507948,N
508152,N
508454,N
508755,N
509057,N
509373,N
509668,N
509949,N
510235,N
510530,N
510837,N
511141,N
511449,N
511757,N
512045,N
512329,N
512617,N
512921,N
513229,N
513530,N
513834,N
514129,N
514413,N
514699,N
514996,N
515308,N
515618,N
515919,N
516216,N
516508,N
516792,N
517085,N
517391,N
517703,N
518007,N
518296,N
518592,N
518881,N
519169,N
519473,N
519782,N
520093,N
520390,N
520674,N
520970,N
521260,N
521554,N
521862,N
522167,N
522474,N
522760,N
523044,N
523345,N
523643,N
523945,N
524251,N
524557,N
524854,N
525138,N
525423,N
525725,N
526031,N
526329,N
526631,N
526933,N
527224,N
527508,N
527805,N
528114,N
528421,N
528722,N
529019,N
529312,N
529599,N
529884,N
530189,N
530499,N
530801,N
531102,N
531393,N
531687,N
531979,N
532272,N
532584,N
532895,N
533192,N
533485,N
533772,N
534066,N
534360,N
534658,N
534974,N
535283,N
535572,N
535861,N
536151,N
536448,N
536748,N
537051,N
537365,N
537661,N
537945,N
538233,N
538524,N
538829,N
539135,N
539441,N
539752,N
540043,N
540325,N
540613,N
540913,N
541223,N
541526,N
541827,N
542128,N
542416,N
542697,N
542991,N
543302,N
543612,N
543914,N
544213,N
544509,N
544792,N
545080,N
545381,N
545694,N
545999,N
546293,N
546587,N
546879,N
547165,N
547466,N
547775,N
548088,N
548388,N
548673,N
548968,N
549258,N
549552,N
549857,N
550162,N
550473,N
550764,N
551046,N
551346,N
551642,N
551940,N
552249,N
552552,N
552852,N
553139,N
553421,N
553723,N
554023,N
554324,N
554629,N
554930,N
555225,N
555510,N
555803,N
556108,N
556415,N
556717,N
557015,N
557312,N
557600,N
557885,N
558184,N
558495,N
558801,N
559102,N
559394,N
559689,N
559979,N
560265,N
560576,N
560887,N
561187,N
561482,N
561770,N
562061,N
562352,N
562648,N
562965,N
563275,N
563568,N
563859,N
564049,N
564345,N
564640,N
564942,N
565255,N
565561,N
565851,N
566137,N
566424,N
566726,N
567030,N
567334,N
567649,N
567948,N
568230,N
568518,N
568807,N
569114,N
569419,N
569719,N
570030,N
570318,N
570601,N
570894,N
571193,N
571507,N
571811,N
572111,N
572410,N
572698,N
572980,N
573274,N
573581,N
573895,N
574194,N
574487,N
574785,N
575074,N
575361,N
575664,N
575977,N
576285,N
576577,N
576868,N
577162,N
577450,N
577747,N
578052,N
578364,N
578665,N
578951,N
579244,N
579540,N
579833,N
580140,N
580447,N
580753,N
581044,N
581328,N
581622,N
581920,N
582222,N
582529,N
582834,N
583137,N
583423,N
583707,N
584009,N
584315,N
584616,N
584919,N
585216,N
585510,N
585793,N
586080,N
586391,N
586699,N
587000,N
587300,N
587592,N
587884,N
588171,N
588468,N
588781,N
589087,N
589383,N
589673,N
589965,N
590256,N
590550,N
590856,N
591173,N
591474,N
591765,N
592052,N
592345,N
592638,N
592936,N
593250,N
593558,N
593850,N
594140,N
594426,N
594724,N
595022,N
595326,N
595643,N
595944,N
596229,N
596517,N
596805,N
597108,N
597413,N
597714,N
598026,N
598320,N
598602,N
598893,N
599190,N
599502,N
599808,N
600107,N
600412,N
600697,N
600977,N
601269,N
601574,N
601884,N
602188,N
602486,N
602783,N
603069,N
603357,N
603655,N
603969,N
604277,N
604572,N
604865,N
605159,N
605445,N
605737,N
606043,N
606358,N
606663,N
606951,N
607244,N
607539,N
607830,N
608134,N
608440,N
608750,N
609044,N
609326,N
609621,N
609918,N
610209,N
610518,N
610825,N
611129,N
611415,N
611698,N
611999,N
612300,N
612602,N
612909,N
613208,N
613503,N
613787,N
614072,N
614382,N
614688,N
614992,N
615295,N
615588,N
615882,N
616167,N
616458,N
616774,N
617080,N
617376,N
617669,N
617960,N
618251,N
618542,N
618847,N
619163,N
619465,N
619759,N
620047,N
620340,N
620630,N
620925,N
621238,N
621547,N
621844,N
622135,N
622421,N
622721,N
623017,N
623317,N
623634,N
623940,N
624227,N
624514,N
624800,N
625101,N
625402,N
625703,N
626020,N
626318,N
626600,N
626888,N
627182,N
627489,N
627794,N
628096,N
628403,N
628691,N
628972,N
629260,N
629561,N
629873,N
630180,N
630481,N
630779,N
631066,N
631352,N
631646,N
631957,N
632268,N
632566,N
632861,N
633155,N
633439,N
633730,N
634033,N
634347,N
634654,N
634945,N
635240,N
635530,N
635818,N
636121,N
636428,N
636739,N
637036,N
637320,N
637615,N
637907,N
638205,N
638513,N
638821,N
639130,N
639418,N
639700,N
639999,N
640297,N
640597,N
640905,N
641208,N
641506,N
641788,N
642074,N
642383,N
642688,N
642989,N
643294,N
643591,N
643882,N
644165,N
644456,N
644769,N
645075,N
645373,N
645672,N
645964,N
646255,N
646546,N
646847,N
647160,N
647466,N
647762,N
648049,N
648344,N
648634,N
648924,N
649237,N
649547,N
649845,N
