12,N
308,N
608,N
894,N
1181,N
1460,N
1742,N
2055,N
2353,N
2644,N
2935,N
3224,N
3508,N
3790,N
4095,N
4401,N
4696,N
4990,N
5275,N
5557,N
5844,N
6136,N
6444,N
6738,N
7034,N
7325,N
7608,N
7896,N
8176,N
8487,N
8788,N
9081,N
9372,N
9662,N
9946,N
10225,N
10526,N
10832,N
11128,N
11422,N
11712,N
12000,N
12280,N
12568,N
12878,N
13179,N
13473,N
13761,N
14053,N
14332,N
14612,N
14923,N
15227,N
15517,N
15805,N
16098,N
16384,N
16664,N
16960,N
17267,N
17565,N
17863,N
18151,N
18439,N
18717,N
19001,N
19312,N
19610,N
19904,N
20177,N
20480,N
20772,N
21050,N
21355,N
21660,N
21953,N
22244,N
22356,N
22476,|
22916,|
23096,N
23391,N
23695,N
23990,N
24293,N
24582,N
24866,N
25151,N
25432,N
25741,N
26041,N
26333,N
26627,N
26919,N
27171,N
27468,N
27772,N
28077,N
28372,N
28669,N
28956,N
29244,N
29507,N
29798,N
30118,N
30416,N
30712,N
31006,N
31296,N
31573,N
31854,N
32161,N
32435,N
32723,N
33034,N
33326,N
33611,N
33889,N
34187,N
34491,N
34788,N
35084,N
35348,N
35652,N
35932,N
36217,N
36523,N
36821,N
37116,N
37408,N
37702,N
37966,N
38261,N
38566,N
38864,N
39158,N
39455,N
39747,N
40032,N
40291,N
40594,N
40905,N
41203,N
41504,N
41795,N
42088,N
42231,N
42365,N
42643,N
42939,N
43233,N
43541,N
43838,N
44132,N
44257,|
44692,N
44994,N
45298,N
45590,N
45890,N
46168,N
46447,N
46734,N
47028,N
47333,N
47526,N
47631,N
47815,|
48365,N
48516,N
48800,N
49080,N
49382,N
49668,N
49922,N
50004,N
50234,N
50530,|
50797,|
50954,N
51091,N
51385,N
51689,N
51985,N
52288,N
52579,N
52858,N
53077,|
53428,|
53716,N
53869,N
54027,N
54285,N
54554,N
54775,N
54868,N
55161,N
55443,N
55745,N
56045,N
56324,N
56637,N
56881,N
57220,N
57479,|
57740,N
58087,N
58383,N
58656,N
58938,N
59253,N
59531,N
59810,N
60114,N
60414,N
60706,N
61004,N
61112,N
61204,N
61299,N
61583,N
61844,N
62116,N
62436,N
62732,N
63033,N
63325,N
63616,N
63897,N
64181,N
64480,N
64778,N
65046,N
65324,N
65615,N
65834,N
65933,N
66201,N
66501,N
66802,N
66938,N
67092,N
67391,N
67687,N
67972,N
68253,N
68544,N
68841,N
69137,N
69443,N
69693,N
69983,N
70266,N
70550,N
70857,N
71158,N
71450,N
71749,N
72048,N
72333,N
72611,N
72903,N
73204,N
73499,N
73801,N
74097,N
74388,N
74663,N
74930,|
75205,|
75542,N
75835,N
76133,N
76415,N
76687,N
76956,N
77244,N
77535,N
77826,N
78121,N
78414,N
78696,N
78972,N
79249,N
79543,N
79834,N
80124,N
80418,N
80709,N
80987,N
81255,N
81541,N
81832,N
82122,N
82630,N
82924,N
83202,N
83481,N
83781,N
84074,N
84370,N
84669,N
84969,N
85252,N
85529,N
85823,N
86119,N
86416,N
86714,N
87013,N
87304,N
87581,N
87869,N
88165,N
88459,N
88762,N
89061,N
89358,N
89637,N
89912,N
90212,N
90505,N
90795,N
91093,N
91394,N
91680,N
91956,N
92255,N
92496,N
92811,N
93113,N
93410,N
93707,N
93927,N
94264,N
94559,N
94854,N
95154,N
95455,N
95757,N
96041,N
96317,N
96615,N
96906,N
97199,N
97498,N
97798,N
98087,N
98364,N
98653,N
98883,|
99546,N
99845,N
100104,N
100338,N
100611,N
100891,N
101176,N
101465,N
101755,N
102050,N
102338,N
102606,N
102881,N
103164,N
103454,N
103740,N
104036,N
104328,N
104602,N
105162,N
105438,N
105731,N
106027,N
106318,N
106613,N
106887,N
107163,N
107460,N
107751,N
108046,N
108348,N
108670,N
108935,N
109212,N
109500,N
109800,N
109943,N
110094,N
110277,|
110691,N
110765,|
110938,N
111155,|
111455,|
112444,N
112592,N
112687,|
113406,N
113571,|
113898,N
114183,N
114458,N
114653,|
116205,N
116528,N
116830,N
117132,N
117426,N
117540,N
117704,|
117992,N
118135,N
118284,N
118483,N
118574,N
118878,N
119177,N
119478,N
119756,N
120038,N
120332,N
120619,N
120917,N
121219,N
121523,N
121810,N
122085,N
122380,N
122669,N
122957,N
123257,N
123564,N
123857,N
124138,N
124428,N
124716,N
125005,N
125307,N
125608,N
125911,N
126193,N
126472,N
126766,N
127053,N
127348,N
127650,N
127957,N
128246,N
128523,N
128817,N
129093,N
129368,N
129655,N
129938,N
130225,N
130491,N
130759,N
131046,N
131318,N
131599,N
131890,N
132191,N
132476,N
132749,N
133036,N
133322,N
133610,N
133906,N
134205,N
134513,N
134794,N
135073,N
135374,N
135664,N
135959,N
136263,N
136568,N
136856,N
137036,|
137388,|
138001,N
138300,N
138606,N
138904,N
139183,N
139471,N
139762,N
140049,N
140348,N
140651,N
140954,N
141238,N
141519,N
141808,N
142093,N
142384,N
142682,N
142991,N
143279,N
143549,N
143844,N
144130,N
144420,N
144720,N
145035,N
145333,N
145616,N
145905,N
146192,N
146478,N
146778,N
147079,N
147385,N
147671,N
147953,N
148244,N
148524,N
148818,N
149121,N
149429,N
149720,N
149998,N
150293,N
150578,N
150862,N
151160,N
151468,N
151727,N
151983,N
152273,N
152565,N
152849,N
153143,N
153442,N
153752,N
154051,N
154333,N
154626,N
154909,N
155196,N
155496,N
155808,N
156106,N
156385,N
156679,N
156963,N
157242,N
157539,N
157843,N
158145,N
158433,N
158689,N
158976,N
159265,N
159568,N
159872,N
160183,N
160472,N
160753,N
161045,N
161328,N
161611,N
161909,N
162219,N
162520,N
162802,N
163093,N
163382,N
163663,N
163918,N
164212,N
164526,N
164820,N
165105,N
165400,N
165679,N
165967,N
166265,N
166575,N
166874,N
167154,N
167448,N
167733,N
168013,N
168307,N
168614,N
168915,N
169204,N
169491,N
169777,N
170060,N
170355,N
170616,N
170898,N
171202,N
171488,N
171778,N
172058,N
172344,N
172640,N
172950,N
173251,N
173534,N
173830,N
174112,N
174391,N
174685,N
174987,N
175296,N
175585,N
175873,N
176161,N
176440,N
176731,N
177031,N
177340,N
177634,N
177918,N
178173,N
178451,N
178728,N
179029,N
179345,N
179649,N
179934,N
180229,N
180517,N
180793,N
181084,N
181384,N
181689,N
181981,N
182271,N
182559,N
182837,N
183125,N
183423,N
183734,N
183995,N
184268,N
184573,N
184861,N
185139,N
185429,N
185736,N
186041,N
186335,N
186627,N
186912,N
187191,N
187482,N
187780,N
188087,N
188382,N
188670,N
188963,N
189239,N
189523,N
189806,N
190066,N
190374,N
190678,N
190974,N
191258,N
191537,N
191825,N
192126,N
192433,N
192727,N
193018,N
193310,N
193585,N
193872,N
194170,N
194481,N
194777,N
195036,N
195335,N
195630,N
195909,N
196197,N
196502,N
196805,N
197096,N
197392,N
197677,N
197955,N
198245,N
198541,N
198850,N
199148,N
199403,N
199698,N
199990,N
200272,N
200563,N
200877,N
201175,N
201465,N
201764,N
202045,N
202319,N
202607,N
202912,N
203216,N
203508,N
203808,N
204067,N
204327,N
204621,N
204925,N
205233,N
205527,N
205822,N
206116,N
206394,N
206677,N
206967,N
207275,N
207577,N
207867,N
208168,N
208453,N
208725,N
208986,N
209269,N
209585,N
209886,N
210188,N
210478,N
210754,N
211041,N
211330,N
211637,N
211933,N
212229,N
212525,N
212803,N
213081,N
213369,N
213653,N
213938,N
214252,N
214557,N
214841,N
215117,N
215398,N
215695,N
216003,N
216298,N
216598,N
216888,N
217164,N
217431,N
217701,N
218026,N
218326,N
218619,N
218920,N
219201,N
219478,N
219763,N
220065,N
220369,N
220661,N
220967,N
221243,N
221528,N
221815,N
222108,N
222414,N
222710,N
223011,N
223307,N
223584,N
223867,N
224155,N
224461,N
224732,N
225026,N
225347,N
225632,N
225906,N
226189,N
226489,N
226790,N
227087,N
227393,N
227681,N
227959,N
228243,N
228529,N
228815,N
229105,N
229412,N
229720,N
230000,N
230278,N
230566,N
230869,N
231170,N
231466,N
231772,N
232056,N
232327,N
232609,N
232906,N
233184,N
233472,N
233791,N
234089,N
234366,N
234649,N
234936,N
235236,N
235535,N
235836,N
236134,N
236413,N
236697,N
236979,N
237266,N
237571,N
237875,N
238186,N
238474,N
238745,N
239027,N
239325,N
239623,N
239918,N
240228,N
240522,N
240785,N
241069,N
241364,N
241664,N
241959,N
242264,N
242565,N
242844,N
243128,N
243413,N
243711,N
244009,N
244283,N
244600,N
244896,N
245172,N
245452,N
245749,N
246048,N
246344,N
246656,N
246951,N
247225,N
247507,N
247765,N
248072,N
248374,N
248678,N
248979,N
249261,N
249543,N
249828,N
250128,N
250423,N
250718,N
251029,N
251312,N
251559,N
251857,N
252147,N
252444,N
252740,N
253047,N
253349,N
253629,N
253912,N
254197,N
254494,N
254788,N
255074,N
255396,N
255682,N
255963,N
256245,N
256537,N
256833,N
257129,N
257442,N
257736,N
258012,N
258283,N
258581,N
258877,N
259174,N
259485,N
259783,N
260065,N
260346,N
260627,N
260924,N
261213,N
261472,N
261801,N
262089,N
262368,N
262652,N
262944,N
263235,N
263532,N
263837,N
264125,N
264416,N
264695,N
264984,N
265278,N
265571,N
265882,N
266185,N
266471,N
266753,N
267035,N
267314,N
267607,N
267921,N
268227,N
268515,N
268800,N
269083,N
269376,N
269664,N
269958,N
270276,N
270572,N
270850,N
271096,N
271392,N
271688,N
271980,N
272292,N
272593,N
272880,N
273162,N
273444,N
273735,N
274028,N
274330,N
274640,N
274931,N
275188,N
275476,N
275780,N
276068,N
276360,N
276674,N
276971,N
277250,N
277534,N
277821,N
278109,N
278392,N
278702,N
279016,N
279302,N
279588,N
279871,N
280158,N
280446,N
280750,N
281056,N
281344,N
281631,N
281922,N
282214,N
282501,N
282792,N
283108,N
283409,N
283689,N
283972,N
284256,N
284544,N
284835,N
285150,N
285454,N
285744,N
286029,N
286311,N
286599,N
286883,N
287178,N
287495,N
287787,N
288076,N
288360,N
288648,N
288933,N
289224,N
289539,N
289839,N
290108,N
290395,N
290697,N
290984,N
291267,N
291581,N
291887,N
292173,N
292457,N
292740,N
293026,N
293280,N
293596,N
293905,N
294199,N
294493,N
294777,N
295066,N
295345,N
295636,N
295949,N
296245,N
296509,N
296810,N
297102,N
297386,N
297670,N
297981,N
298287,N
298577,N
298863,N
299150,N
299421,N
299714,N
300018,N
300328,N
300622,N
300915,N
301200,N
301487,N
301768,N
302056,N
302367,N
302665,N
302960,N
303244,N
303536,N
303818,N
304101,N
304413,N
304713,N
305005,N
305294,N
305584,N
305870,N
306151,N
306454,N
306760,N
307051,N
307348,N
307633,N
307921,N
308200,N
308490,N
308799,N
309095,N
309394,N
309669,N
309972,N
310257,N
310537,N
310847,N
311149,N
311440,N
311730,N
312022,N
312287,N
312572,N
312883,N
313191,N
313485,N
313785,N
314071,N
314358,N
314637,N
314927,N
315220,N
315531,N
315828,N
316119,N
316410,N
316689,N
316968,N
317278,N
317580,N
317860,N
318155,N
318456,N
318741,N
319020,N
319319,N
319624,N
319920,N
320214,N
320504,N
320792,N
321070,N
321362,N
321666,N
321962,N
322262,N
322554,N
322845,N
323122,N
323404,N
323706,N
324006,N
324300,N
324596,N
324891,N
325172,N
325449,N
325752,N
326053,N
326347,N
326642,N
326938,N
327224,N
327501,N
327790,N
328094,N
328391,N
328690,N
328984,N
329276,N
329551,N
329838,N
330139,N
330435,N
330733,N
331032,N
331325,N
331605,N
331881,N
332182,N
332472,N
332770,N
333071,N
333346,N
333648,N
333926,N
334221,N
334516,N
334799,N
335102,N
335409,N
335701,N
335979,N
336262,N
336561,N
336855,N
337154,N
337438,N
337743,N
338033,N
338309,N
338607,N
338901,N
339198,N
339496,N
339795,N
340080,N
340351,N
340654,N
340950,N
341247,N
341548,N
341847,N
342138,N
342416,N
342701,N
342988,N
343292,N
343594,N
343892,N
344193,N
344472,N
344748,N
345048,N
345341,N
345635,N
345938,N
346239,N
346523,N
346800,N
347095,N
347388,N
347682,N
347982,N
348280,N
348575,N
348854,N
349138,N
349433,N
349727,N
350022,N
350325,N
350630,N
350909,N
351189,N
351482,N
351772,N
352067,N
352361,N
352662,N
352958,N
353232,N
353529,N
353820,N
354109,N
354408,N
354715,N
354982,N
355272,N
355565,N
355854,N
356147,N
356449,N
356748,N
357051,N
357330,N
357605,N
357889,N
358190,N
358491,N
358793,N
359100,N
359382,N
359659,N
359954,N
360240,N
360531,N
360798,N
361119,N
361416,N
361692,N
361984,N
362274,N
362559,N
362860,N
363161,N
363449,N
363741,N
364031,N
364320,N
364605,N
364906,N
365207,N
365518,N
365806,N
366078,N
366371,N
366660,N
366947,N
367249,N
367557,N
367849,N
368130,N
368424,N
368708,N
368994,N
369292,N
369599,N
369900,N
370185,N
370470,N
370758,N
371040,N
371341,N
371644,N
371951,N
372237,N
372519,N
372813,N
373097,N
373382,N
373686,N
373997,N
374291,N
374568,N
374867,N
375150,N
375432,N
375713,N
376032,N
376334,N
376619,N
376911,N
377196,N
377480,N
377778,N
378079,N
378367,N
378661,N
378955,N
379247,N
379525,N
379814,N
380117,N
380426,N
380723,N
381004,N
381275,N
381574,N
381853,N
382149,N
382458,N
382758,N
383041,N
383335,N
383622,N
383880,N
384182,N
384493,N
384798,N
385091,N
385380,N
385667,N
385947,N
386240,N
386533,N
386847,N
387143,N
387425,N
387720,N
388001,N
388279,N
388577,N
388888,N
389186,N
389474,N
389772,N
390057,N
390332,N
390620,N
390925,N
391226,N
391519,N
391814,N
392100,N
392378,N
392669,N
392967,N
393276,N
393571,N
393863,N
394154,N
394433,N
394717,N
395009,N
395323,N
395623,N
395898,N
396209,N
396488,N
396763,N
397056,N
397361,N
397663,N
397957,N
398255,N
398537,N
398815,N
399102,N
399400,N
399708,N
400002,N
400298,N
400589,N
400867,N
401136,N
401448,N
401759,N
402057,N
402346,N
402644,N
402926,N
403200,N
403488,N
403799,N
404080,N
404385,N
404693,N
404978,N
405253,N
405539,N
405835,N
406140,N
406436,N
406734,N
407019,N
407301,N
407585,N
407877,N
408187,N
408485,N
408780,N
409078,N
409349,N
409624,N
409923,N
410230,N
410532,N
410825,N
411129,N
411414,N
411684,N
411967,N
412269,N
412573,N
412867,N
413173,N
413461,N
413736,N
414020,N
414311,N
414615,N
414913,N
415212,N
415508,N
415787,N
416071,N
416357,N
416658,N
416962,N
417257,N
417563,N
417846,N
418120,N
418405,N
418693,N
418992,N
419299,N
419610,N
419900,N
420172,N
420451,N
420748,N
421047,N
421322,N
421645,N
421943,N
422220,N
422503,N
422787,N
423088,N
423389,N
423687,N
423989,N
424250,N
424545,N
424830,N
425131,N
425429,N
425724,N
426037,N
426322,N
426594,N
426861,N
427166,N
427467,N
427764,N
428075,N
428370,N
428649,N
428931,N
429216,N
429510,N
429808,N
430116,N
430419,N
430700,N
430983,N
431267,N
431564,N
431860,N
432157,N
432468,N
432759,N
433034,N
433315,N
433611,N
433905,N
434200,N
434517,N
434812,N
435087,N
435368,N
435655,N
435950,N
436245,N
436553,N
436857,N
437142,N
437423,N
437707,N
438000,N
438294,N
438595,N
438903,N
439190,N
439472,N
439754,N
440048,N
440342,N
440637,N
440945,N
441243,N
441523,N
441802,N
442094,N
442384,N
442676,N
442990,N
443290,N
443550,N
443850,N
444133,N
444424,N
444717,N
445022,N
445329,N
445618,N
445905,N
446167,N
446473,N
446761,N
447058,N
447372,N
447666,N
447948,N
448230,N
448521,N
448809,N
449091,N
449417,N
449718,N
449999,N
450279,N
450567,N
450852,N
451140,N
451453,N
451740,N
452046,N
452334,N
452615,N
452903,N
453192,N
453493,N
453802,N
454095,N
454382,N
454667,N
454959,N
455242,N
455535,N
455851,N
456146,N
456432,N
456713,N
457004,N
457291,N
457577,N
457890,N
458192,N
458480,N
458765,N
459050,N
459337,N
459622,N
459929,N
460236,N
460531,N
460826,N
461108,N
461396,N
461678,N
461971,N
462286,N
462583,N
462871,N
463157,N
463448,N
463728,N
464016,N
464332,N
464635,N
464924,N
465211,N
465496,N
465781,N
466040,N
466363,N
466669,N
466963,N
467256,N
467541,N
467827,N
468109,N
468405,N
468685,N
468996,N
469295,N
469581,N
469871,N
470151,N
470435,N
470748,N
471047,N
471335,N
471599,N
471907,N
472189,N
472468,N
472776,N
473077,N
473371,N
473664,N
473952,N
474221,N
474502,N
474811,N
475116,N
475413,N
475713,N
476002,N
476290,N
476568,N
476847,N
477161,N
477459,N
477757,N
478048,N
478341,N
478620,N
478898,N
479203,N
479500,N
479798,N
480095,N
480390,N
480671,N
480948,N
481251,N
481550,N
481844,N
482141,N
482433,N
482721,N
483000,N
483288,N
483592,N
483889,N
484190,N
484487,N
484777,N
485057,N
485339,N
485639,N
485935,N
486232,N
486528,N
486825,N
487107,N
487382,N
487683,N
487981,N
488275,N
488560,N
488873,N
489158,N
489436,N
489730,N
490028,N
490324,N
490625,N
490893,N
491200,N
491479,N
491761,N
492064,N
492358,N
492657,N
492957,N
493256,N
493533,N
493786,N
494101,N
494400,N
494693,N
494991,N
495291,N
495577,N
495852,N
496149,N
496446,N
496714,N
497032,N
497330,N
497621,N
497902,N
498187,N
498479,N
498773,N
499075,N
499362,N
499668,N
499956,N
500234,N
500531,N
500822,N
501116,N
501418,N
501722,N
502006,N
502279,N
502576,N
502865,N
503156,N
503457,N
503764,N
504056,N
504333,N
504622,N
504916,N
505205,N
505506,N
505809,N
506105,N
506385,N
506671,N
506956,N
507246,N
507552,N
507852,N
508159,N
508440,N
508719,N
509014,N
509298,N
509587,N
509894,N
510201,N
510489,N
510767,N
511062,N
511347,N
511633,N
511926,N
512234,N
512539,N
512819,N
513109,N
513399,N
513683,N
513981,N
514284,N
514561,N
514863,N
515147,N
515436,N
515717,N
516015,N
516318,N
516626,N
516915,N
517185,N
517461,N
517758,N
518043,N
518342,N
518653,N
518950,N
519232,N
519526,N
519811,N
520080,N
520380,N
520697,N
521001,N
521287,N
521575,N
521865,N
522144,N
522439,N
522743,N
523048,N
523339,N
523626,N
523918,N
524199,N
524485,N
524785,N
525096,N
525384,N
525673,N
525969,N
526251,N
526529,N
526825,N
527134,N
527435,N
527721,N
528005,N
528303,N
528584,N
528875,N
529174,N
529485,N
529776,N
530063,N
530346,N
530628,N
530919,N
531220,N
531527,N
531821,N
532113,N
532403,N
532670,N
532957,N
533259,N
533570,N
533868,N
534155,N
534452,N
534734,N
535009,N
535277,N
535604,N
535906,N
536197,N
536495,N
536782,N
537058,N
537343,N
537641,N
537915,N
538222,N
538515,N
538809,N
539086,N
539371,N
539666,N
539974,N
540271,N
540543,N
540840,N
541133,N
541411,N
541696,N
542003,N
542308,N
542599,N
542904,N
543188,N
543447,N
543745,N
544046,N
544353,N
544648,N
544949,N
545239,N
545514,N
545799,N
546084,N
546394,N
546693,N
546991,N
547286,N
547564,N
547848,N
548137,N
548444,N
548742,N
549037,N
549341,N
549624,N
549899,N
550181,N
550483,N
550788,N
551081,N
551389,N
551681,N
551953,N
552237,N
552531,N
552830,N
553127,N
553435,N
553729,N
554007,N
554291,N
554577,N
554880,N
555172,N
555474,N
555780,N
556060,N
556338,N
556625,N
556924,N
557224,N
557500,N
557827,N
558115,N
558389,N
558668,N
558963,N
559267,N
559562,N
559872,N
560140,N
560435,N
560714,N
561001,N
561298,N
561594,N
561901,N
562199,N
562480,N
562765,N
563017,N
563329,N
563626,N
563924,N
564232,N
564520,N
564800,N
565082,N
565377,N
565671,N
565939,N
566270,N
566567,N
566842,N
567121,N
567412,N
567707,N
567999,N
568310,N
568607,N
568894,N
569176,N
569460,N
569749,N
570041,N
570348,N
570652,N
570940,N
571213,N
571506,N
571801,N
572093,N
572390,N
572702,N
572995,N
573276,N
573556,N
573843,N
574141,N
574435,N
574750,N
575047,N
575328,N
575610,N
575895,N
576180,N
576477,N
576788,N
577092,N
577378,N
577663,N
577947,N
578236,N
578508,N
578814,N
579136,N
579430,N
579720,N
580002,N
580296,N
580581,N
580872,N
581170,N
581478,N
581767,N
582049,N
582343,N
582627,N
582915,N
583233,N
583536,N
583822,N
584077,N
584368,N
584662,N
584947,N
585252,N
585559,N
585852,N
586142,N
586426,N
586714,N
586974,N
587274,N
587598,N
587894,N
588185,N
588468,N
588761,N
589045,N
589329,N
589644,N
589925,N
590207,N
590509,N
590799,N
591083,N
591365,N
591676,N
591978,N
592269,N
592559,N
592836,N
593132,N
593411,N
593711,N
594019,N
594315,N
594612,N
594897,N
595187,N
595463,N
595755,N
596065,N
596362,N
596658,N
596946,N
597237,N
597516,N
597789,N
598108,N
598411,N
598700,N
598992,N
599286,N
599567,N
599846,N
600153,N
600448,N
600746,N
601042,N
601331,N
601616,N
601896,N
602192,N
602496,N
602784,N
603084,N
603384,N
603675,N
603952,N
604238,N
604542,N
604837,N
605137,N
605431,N
605701,N
605997,N
606277,N
606580,N
606879,N
607175,N
607473,N
607771,N
608052,N
608329,N
608617,N
608924,N
609224,N
609520,N
609817,N
610105,N
610381,N
610672,N
610973,N
611270,N
611572,N
611856,N
612158,N
612436,N
612721,N
613021,N
613313,N
613616,N
613915,N
614212,N
614493,N
614755,N
615060,N
615365,N
615659,N
615957,N
616260,N
616545,N
616821,N
617118,N
617410,N
617702,N
618003,N
618304,N
618598,N
618875,N
619164,N
619458,N
619752,N
620045,N
620335,N
620647,N
620927,N
621209,N
621501,N
621786,N
622093,N
622395,N
622688,N
622967,N
623256,N
623552,N
623841,N
624135,N
624437,N
624745,N
625032,N
625291,N
625586,N
625893,N
626178,N
626479,N
626787,N
627081,N
627358,N
627650,N
627939,N
628213,N
628521,N
628828,N
629127,N
629407,N
629693,N
629981,N
630266,N
630569,N
630870,N
631161,N
631447,N
631742,N
632033,N
632316,N
632606,N
632907,N
633220,N
633514,N
633792,N
634088,N
634355,N
634637,N
634952,N
635260,N
635560,N
635844,N
636134,N
636418,N
636700,N
636996,N
637291,N
637600,N
637893,N
638182,N
638469,N
638749,N
639046,N
639350,N
639658,N
639950,N
640231,N
640525,N
640807,N
641089,N
641389,N
641703,N
642000,N
642283,N
642574,N
642855,N
643141,N
643437,N
643745,N
644046,N
644332,N
644628,N
644913,N
645185,N
645480,N
645782,N
646089,N
646384,N
646675,N
646963,N
647241,N
647532,N
647824,N
648141,N
648436,N
648723,N
649015,N
649293,N
649572,N
649869,N
