343,N
716,N
1077,N
1440,N
1820,N
2189,N
2562,N
2910,N
3226,N
3563,N
3921,N
4272,N
4604,N
4939,N
5246,N
5550,N
5854,N
6166,N
6463,N
6748,N
7036,N
7327,N
7608,N
7888,N
8173,N
8466,N
8749,N
8996,N
9262,N
9508,N
9760,N
10030,N
10306,N
10574,N
10875,N
11235,N
11579,N
11926,N
12277,N
12640,N
12993,N
13311,N
13608,N
13909,N
14219,N
14556,N
14894,N
15222,N
15553,N
15892,N
16236,N
16597,N
16989,N
17346,N
17692,N
18017,N
18325,N
18636,N
18956,N
19266,N
19570,N
19860,N
20128,N
20399,N
20681,N
20979,N
21290,N
21627,N
22000,N
22356,N
22681,N
23008,N
23355,N
23710,N
24039,N
24353,N
24674,N
25001,N
25328,N
25687,N
26060,N
26425,N
26778,N
27128,N
27462,N
27801,N
28152,N
28492,N
28793,N
29097,N
29356,|
29703,N
30015,N
30325,N
30620,N
30911,N
31182,N
31454,N
31679,N
31980,N
32327,N
32659,N
32855,N
33024,N
33467,N
33644,N
33803,N
34296,N
34656,N
34848,N
35271,N
35459,N
35620,N
36092,N
36281,N
36747,N
36942,N
37107,N
37572,N
37904,N
38085,N
38251,N
38746,N
38929,N
39097,N
39583,N
39894,N
40077,N
40238,N
40706,N
41024,N
41213,N
41377,N
41828,N
41996,N
42431,N
42617,N
42777,N
43266,N
43452,N
43897,N
44078,N
44499,N
44685,N
44850,N
45341,N
45537,N
45968,N
46148,N
46305,N
46768,N
46948,N
47403,N
47609,N
47768,N
48217,N
48394,N
48551,N
49000,N
49185,N
49357,N
49827,N
50014,N
50416,N
50602,N
50756,N
51204,N
51392,N
51841,N
52032,N
52196,N
52654,N
53267,N
53569,N
53865,N
54236,N
54707,N
54877,N
55044,N
55551,N
55732,N
56219,N
56540,N
56834,N
57167,N
57486,N
57859,N
58336,N
58520,N
58984,N
59318,N
59761,N
59939,N
60424,N
60623,N
61075,N
61259,N
61721,N
62091,N
62480,N
62814,N
63121,N
63491,N
63684,N
63847,N
64030,N
64560,N
64748,N
65280,N
65697,N
66096,N
66476,N
66876,N
67293,N
67693,N
68086,N
68455,N
68861,N
69261,N
69627,N
69955,N
70272,N
70609,N
70989,N
71398,N
71807,N
72184,N
72550,N
72936,N
73328,N
73721,N
74078,N
74399,N
74735,N
75129,N
75505,N
75898,N
76280,N
76661,N
77016,N
77391,N
77763,N
78147,N
78492,N
78847,N
79252,N
79641,N
80025,N
80365,N
80677,N
81010,N
81382,N
81795,N
82204,N
82577,N
82935,N
83298,N
83654,N
84025,N
84426,N
84828,N
85203,N
85591,N
86001,N
86371,N
86747,N
87123,N
87499,N
87880,N
88289,N
88703,N
89087,N
89421,N
89734,N
90049,N
90390,N
90768,N
91125,N
91446,N
91745,N
92038,N
92336,N
92650,N
93005,N
93384,N
93705,N
94025,N
94366,N
94707,N
95031,N
95371,N
95707,N
95895,N
95989,N
96326,N
96653,N
97000,N
97321,N
97610,N
97900,N
98208,N
98505,N
98810,N
99125,N
99462,N
99798,N
100109,N
100433,N
100780,N
101140,N
101508,N
101874,N
102220,N
102550,N
102901,N
103293,N
103658,N
104033,N
104400,N
104769,N
105114,N
105493,N
105889,N
106279,N
106622,N
106969,N
107356,N
107767,N
108144,N
108528,N
108912,N
109280,N
109659,N
110055,N
110422,N
110778,N
111126,N
111460,N
111823,N
112218,N
112607,N
112946,N
113295,N
113662,N
114049,N
114394,N
114729,N
115073,N
115419,N
115754,N
116112,N
116522,N
116899,N
117269,N
117644,N
117981,N
118354,N
118750,N
119131,N
119475,N
119841,N
120214,N
120594,N
120996,N
121392,N
121761,N
122111,N
122460,N
122800,N
123129,N
123476,N
123875,N
124239,N
124635,N
125022,N
125407,N
125780,N
126107,N
126444,N
126802,N
127158,N
127555,N
127947,N
128301,N
128668,N
129040,N
129439,N
129810,N
130175,N
130530,N
130863,N
131224,N
131623,N
132002,N
132373,N
132713,N
133069,N
133456,N
133825,N
134198,N
134559,N
134895,N
135242,N
135606,N
135969,N
136345,N
136715,N
137051,N
137396,N
137748,N
138090,N
138452,N
138809,N
139163,N
139520,N
139866,N
140227,N
140564,N
140911,N
141270,N
141631,N
141965,N
142327,N
142704,N
143061,N
143389,N
143700,N
144026,N
144347,N
144671,N
144981,N
145306,N
145679,N
146056,N
146445,N
146815,N
147184,N
147529,N
147865,N
148183,N
148512,N
148879,N
149292,N
149679,N
150024,N
150376,N
150771,N
151170,N
151564,N
151923,N
152280,N
152656,N
153045,N
153422,N
153778,N
154080,N
154372,N
154675,N
154996,N
155311,N
155625,N
155933,N
156218,N
156491,N
156764,N
157041,N
157332,N
157608,N
157887,N
158139,N
158426,N
158682,N
158930,N
159192,N
159476,N
159777,N
160112,N
160474,N
160645,N
161067,N
161238,N
161385,N
161741,N
162066,N
162416,N
162770,N
162946,N
163361,N
163699,N
164059,N
164406,N
164727,N
165053,N
165394,N
165744,N
166091,N
166411,N
166716,N
167021,N
167352,N
167687,N
168031,N
168392,N
168761,N
169104,N
169429,N
169749,N
170083,N
170457,N
170816,N
171148,N
171475,N
171821,N
172192,N
172554,N
172899,N
173249,N
173591,N
173910,N
174203,N
174548,N
174855,N
175177,N
175481,N
175774,N
176062,N
176352,N
176691,N
177006,N
177320,N
177608,N
177879,N
178177,N
178487,N
178824,N
179169,N
179493,N
179801,N
180114,N
180433,N
180772,N
181132,N
181492,N
181822,N
182137,N
182455,N
182775,N
183096,N
183426,N
183768,N
184108,N
184422,N
184743,N
185083,N
185445,N
185797,N
186140,N
186487,N
186813,N
187140,N
187500,N
187844,N
188201,N
188541,N
188863,N
189189,N
189505,N
189825,N
190143,N
190473,N
190778,N
191097,N
191442,N
191805,N
192172,N
192541,N
192895,N
193224,N
193558,N
193903,N
194246,N
194597,N
194947,N
195273,N
195595,N
195954,N
196314,N
196677,N
197041,N
197391,N
197726,N
198060,N
198403,N
198755,N
199126,N
199476,N
199794,N
200128,N
200485,N
200847,N
201207,N
201540,N
201851,N
202159,N
202470,N
202769,N
203075,N
203380,N
203674,N
203963,N
204255,N
204569,N
204908,N
205285,N
205658,N
206002,N
206351,N
206695,N
207058,N
207452,N
207822,N
208174,N
208522,N
208881,N
209241,N
209605,N
209962,N
210296,N
210635,N
210980,N
211344,N
211706,N
212070,N
212413,N
212747,N
213106,N
213464,N
213818,N
214176,N
214515,N
214809,N
214960,N
215122,N
215469,N
215833,N
216194,N
216526,N
216841,N
217151,N
217477,N
217803,N
218127,N
218455,N
218785,N
219113,N
219442,N
219780,N
220134,N
220509,N
220869,N
221217,N
221589,N
221980,N
222382,N
222764,N
223129,N
223488,N
223834,N
224195,N
224555,N
224889,N
225220,N
225540,N
225848,N
226166,N
226488,N
226812,N
227121,N
227412,N
227710,N
228005,N
228329,N
228669,N
228996,N
229323,N
229661,N
229980,N
230279,N
230586,N
230917,N
231257,N
231602,N
231935,N
232237,N
232557,N
232901,N
233250,N
233588,N
233914,N
234235,N
234560,N
234883,N
235220,N
235568,N
235925,N
236259,N
236585,N
236900,N
237227,N
237573,N
237924,N
238236,N
238556,N
238887,N
239247,N
239607,N
239952,N
240271,N
240565,N
240854,N
241163,N
241505,N
241857,N
242222,N
242590,N
242952,N
243295,N
243652,N
244012,N
244346,N
244689,N
245022,N
245359,N
245714,N
246064,N
246406,N
246740,N
247036,N
247332,N
247628,N
247942,N
248247,N
248554,N
248852,N
249153,N
249448,N
249733,N
250010,N
250344,N
250622,N
250926,N
251227,N
251510,N
251804,N
252109,N
252465,N
252819,N
253153,N
253463,N
253752,N
254055,N
254349,N
254661,N
254987,N
255298,N
255606,N
255910,N
256094,N
256189,N
256499,N
256784,N
257103,N
257394,N
257574,N
257950,N
258130,N
258218,N
258523,N
258706,N
259118,N
259409,N
259592,N
259982,N
260159,N
260587,N
260879,N
261170,N
261471,N
261660,N
261755,N
262037,N
262305,N
262568,N
262738,N
262898,N
263218,N
263323,N
263637,N
263815,N
264203,N
264378,N
264750,N
265032,N
265327,N
265514,N
265923,N
266203,N
266380,N
266538,N
266931,N
267101,N
267484,N
267752,N
267941,N
268108,N
268498,N
268661,N
268993,N
269179,N
269518,N
269708,N
270035,N
270213,N
270539,N
270710,N
271018,N
271182,N
271506,N
271679,N
272039,N
272208,N
272572,N
272736,N
273073,N
273230,N
273584,N
273756,N
274124,N
274297,N
274676,N
274836,N
275183,N
275345,N
275679,N
275865,N
276195,N
276362,N
276710,N
276877,N
277217,N
277373,N
277710,N
277867,N
278224,N
278394,N
278761,N
278927,N
279261,N
279413,N
279732,N
279890,N
280220,N
280384,N
280719,N
280881,N
281215,N
281372,N
281699,N
281854,N
282194,N
282349,N
282705,N
282876,N
283219,N
283385,N
283704,N
283857,N
284174,N
284338,N
284681,N
284849,N
285192,N
285352,N
285684,N
285833,N
286160,N
286318,N
286654,N
286815,N
287173,N
287340,N
287712,N
287866,N
288222,N
288374,N
288736,N
288899,N
289287,N
289459,N
289822,N
289980,N
290310,N
290468,N
290808,N
290972,N
291231,N
291309,N
291491,N
291835,N
291997,N
292329,N
292488,N
292827,N
292987,N
293355,N
293524,N
293913,N
294081,N
294434,N
294602,N
294939,N
295122,N
295456,N
295641,N
295996,N
296165,N
296526,N
296685,N
297046,N
297210,N
297602,N
297772,N
298198,N
298367,N
298784,N
298945,N
299357,N
299521,N
299987,N
300158,N
300600,N
300768,N
301203,N
301369,N
301818,N
301991,N
302433,N
302612,N
303024,N
303186,N
303566,N
303733,N
304150,N
304324,N
304773,N
304947,N
305371,N
305533,N
305964,N
306141,N
306589,N
306766,N
307178,N
307367,N
307741,N
307917,N
308334,N
308510,N
308952,N
309135,N
309561,N
309724,N
310127,N
310317,N
310713,N
310903,N
311305,N
311484,N
311864,N
312196,N
312630,N
312804,N
313207,N
313384,N
313563,N
313986,N
314538,N
314708,N
315107,N
315305,N
315684,N
315868,N
316212,N
316378,N
316742,N
316921,N
317307,N
317484,N
317866,N
318038,N
318429,N
318593,N
318989,N
319160,N
319575,N
319769,N
320157,N
320322,N
320681,N
320940,N
321143,N
321309,N
321749,N
321928,N
322321,N
322501,N
322877,N
323045,N
323464,N
323663,N
324058,N
324341,N
324608,N
324870,N
325053,N
325204,N
325614,N
325901,N
326183,N
326454,N
326637,N
327017,N
327142,N
327570,N
327776,N
328149,N
328429,N
328612,N
328776,N
329200,N
329381,N
329759,N
329969,N
330359,N
330641,N
330938,N
331232,N
331541,N
331718,N
331811,N
332165,N
332505,N
332829,N
333156,N
333507,N
333828,N
334158,N
334506,N
334845,N
335169,N
335488,N
335788,N
336099,N
336413,N
336741,N
337059,N
337353,N
337645,N
337938,N
338226,N
338543,N
338865,N
339178,N
339496,N
339810,N
340114,N
340429,N
340772,N
341106,N
341447,N
341790,N
342102,N
342422,N
342763,N
343102,N
343440,N
343763,N
344061,N
344398,N
344696,N
345014,N
345348,N
345673,N
346002,N
346314,N
346607,N
346890,N
347160,N
347448,N
347744,N
347944,N
348103,N
348506,N
348687,N
349039,N
349236,N
349580,N
349766,N
350114,N
350303,N
350649,N
350896,N
351075,N
351226,N
351644,N
351831,N
352234,N
352506,N
352771,N
352950,N
353097,N
353537,N
353735,N
354148,N
354341,N
354740,N
355005,N
355265,N
355529,N
355802,N
356106,N
356416,N
357005,N
357293,N
357565,N
357867,N
358206,N
358824,N
359127,N
359410,N
360194,N
360387,N
360809,N
361106,N
361378,N
361708,N
362137,N
362324,N
362769,N
363067,N
363357,N
363637,N
363914,N
364189,N
364474,N
364779,N
365076,N
365367,N
365666,N
365960,N
366238,N
366513,N
366807,N
367122,N
367433,N
367724,N
368006,N
368293,N
368585,N
368888,N
369193,N
369495,N
369785,N
370081,N
370391,N
370695,N
371010,N
371339,N
371657,N
371982,N
372296,N
372586,N
372914,N
373270,N
373620,N
373932,N
374237,N
374518,N
374808,N
375121,N
375464,N
375794,N
376152,N
376508,N
376834,N
377181,N
377541,N
377754,N
378238,N
378435,N
378848,N
379146,N
379444,N
379783,N
379979,N
380140,N
380616,N
380795,N
381237,N
381414,N
381573,N
382046,N
382241,N
382713,N
382883,N
383316,N
383491,N
383954,N
384133,N
384643,N
384814,N
385275,N
385448,N
385919,N
386090,N
386601,N
386778,N
387269,N
387441,N
387900,N
388092,N
388583,N
388770,N
389244,N
389591,N
389912,N
390100,N
390266,N
390771,N
390964,N
391448,N
391645,N
391800,N
392247,N
392437,N
392903,N
393104,N
393565,N
393895,N
394076,N
394517,N
394860,N
395067,N
395237,N
395706,N
395901,N
396334,N
396508,N
396969,N
397166,N
397640,N
397987,N
398173,N
398337,N
398808,N
399485,N
399861,N
400203,N
400558,N
401227,N
401615,N
401973,N
402350,N
402996,N
403345,N
404230,N
404428,N
404866,N
405055,N
405498,N
405724,N
406188,N
406529,N
406727,N
406896,N
407340,N
407526,N
407985,N
408318,N
408516,N
408686,N
409130,N
409304,N
409751,N
409944,N
410401,N
410583,N
411039,N
411208,N
411638,N
411821,N
412268,N
412446,N
412929,N
413099,N
413538,N
413706,N
414171,N
414354,N
414845,N
415027,N
415482,N
415650,N
416115,N
416303,N
416773,N
416958,N
417424,N
417597,N
418046,N
418216,N
418692,N
418879,N
419360,N
419534,N
419988,N
420153,N
420614,N
420801,N
421282,N
421455,N
421917,N
422091,N
422532,N
422700,N
423189,N
423364,N
423837,N
424015,N
424464,N
424633,N
425125,N
425308,N
425792,N
425969,N
426406,N
426587,N
427032,N
427211,N
427673,N
428021,N
428368,N
428558,N
428649,N
428988,N
429324,N
429682,N
430026,N
430224,N
430317,N
430668,N
431015,N
431361,N
431721,N
432084,N
432441,N
432786,N
433149,N
433345,N
433819,N
434219,N
434593,N
434959,N
435325,N
435518,N
435997,N
436385,N
436589,N
437046,N
437417,N
437609,N
438083,N
438288,N
438746,N
439400,N
439589,N
439756,N
440240,N
440440,N
440919,N
441109,N
441560,N
441732,N
442195,N
442394,N
442873,N
443055,N
443527,N
443709,N
444155,N
444334,N
444815,N
445177,N
445380,N
445810,N
445981,N
446439,N
446643,N
447077,N
447278,N
447672,N
447860,N
448286,N
448616,N
448816,N
449280,N
449489,N
449952,N
450121,N
450563,N
450755,N
451225,N
451585,N
451784,N
452229,N
452578,N
452769,N
453254,N
453452,N
453946,N
454140,N
454596,N
454787,N
455260,N
455452,N
455950,N
456146,N
456600,N
456771,N
457248,N
457442,N
457932,N
458127,N
458592,N
458777,N
458868,N
459209,N
459534,N
459886,N
460087,N
460574,N
460927,N
461262,N
461637,N
462046,N
462427,N
462817,N
463202,N
463585,N
463955,N
464350,N
464744,N
465126,N
465496,N
465870,N
466286,N
466692,N
467077,N
467443,N
467834,N
468238,N
468616,N
469002,N
469371,N
469750,N
470130,N
470514,N
470915,N
471272,N
471622,N
472009,N
472395,N
472768,N
473151,N
473520,N
473884,N
474229,N
474587,N
474978,N
475396,N
475802,N
476201,N
476600,N
477001,N
477408,N
477801,N
478178,N
478539,N
478937,N
479340,N
479732,N
480148,N
480516,N
480882,N
481268,N
481676,N
482090,N
482456,N
482846,N
483238,N
483647,N
484016,N
484379,N
484746,N
485106,N
485443,N
485804,N
486194,N
486567,N
486912,N
487273,N
487623,N
488026,N
488395,N
488769,N
489149,N
489506,N
489894,N
490288,N
490650,N
490998,N
491357,N
491717,N
492096,N
492489,N
492873,N
493233,N
493572,N
493920,N
494280,N
494656,N
495046,N
495403,N
495763,N
496142,N
496528,N
496920,N
497304,N
497663,N
498007,N
498345,N
498701,N
499055,N
499421,N
499784,N
500124,N
500489,N
500884,N
501261,N
501637,N
501998,N
502343,N
502711,N
503112,N
503515,N
503911,N
504285,N
504693,N
505100,N
505509,N
505907,N
506275,N
506648,N
507030,N
507429,N
507851,N
508234,N
508624,N
509008,N
509406,N
509819,N
510209,N
510594,N
510945,N
511340,N
511740,N
512116,N
512466,N
512780,N
513089,N
513393,N
513494,N
513713,N
514028,N
514306,N
514627,N
514920,N
515222,N
515523,N
515834,N
516138,N
516444,N
516771,N
516960,N
517385,N
517699,N
517896,N
518354,N
518704,N
518891,N
519319,N
519510,N
519939,N
520145,N
520583,N
520777,N
520949,N
521402,N
521575,N
522029,N
522216,N
522683,N
522888,N
523332,N
523924,N
524585,N
524779,N
525246,N
525423,N
525878,N
526048,N
526509,N
526696,N
527172,N
527357,N
527790,N
527959,N
528373,N
528548,N
529010,N
529197,N
529664,N
529832,N
530277,N
530446,N
530915,N
531101,N
531582,N
531762,N
532215,N
532382,N
532801,N
533438,N
533622,N
534063,N
534231,N
534626,N
535248,N
535431,N
535895,N
536072,N
536509,N
536701,N
537150,N
537345,N
537814,N
538008,N
538449,N
538626,N
539055,N
539245,N
539693,N
540027,N
540220,N
540344,N
540861,N
541035,N
541480,N
541801,N
541997,N
542095,N
542652,N
542828,N
543266,N
543440,N
543897,N
544103,N
544563,N
544751,N
544838,N
545187,N
545365,N
545779,N
545977,N
546149,N
546600,N
546804,N
547260,N
547428,N
547854,N
548034,N
548497,N
548680,N
549125,N
549298,N
549729,N
549904,N
550348,N
550536,N
550984,N
551163,N
551589,N
551759,N
552188,N
552374,N
552830,N
553016,N
553484,N
553670,N
554106,N
554280,N
554750,N
554937,N
555417,N
555595,N
556026,N
556206,N
556669,N
556858,N
557328,N
557512,N
557965,N
558163,N
558585,N
558768,N
559240,N
559443,N
559915,N
560098,N
560265,N
560722,N
560910,N
561372,N
561573,N
561745,N
562222,N
562401,N
562870,N
563057,N
563229,N
563750,N
564136,N
564489,N
564679,N
564837,N
565330,N
565746,N
565949,N
566114,N
566611,N
566791,N
566954,N
567448,N
567841,N
568188,N
568554,N
568751,N
568917,N
569383,N
569778,N
570188,N
570586,N
570969,N
571382,N
571762,N
572118,N
572488,N
572890,N
573251,N
573641,N
574060,N
574471,N
574884,N
575302,N
575728,N
576176,N
576609,N
577050,N
577449,N
577849,N
578231,N
578647,N
579095,N
579519,N
579865,N
580218,N
580595,N
580942,N
581282,N
581494,N
581665,N
582126,N
582471,N
582827,N
583174,N
583381,N
583553,N
584057,N
584451,N
584856,N
585065,N
585242,N
585769,N
586176,N
586368,N
586531,N
587062,N
587501,N
587704,N
587876,N
588385,N
588822,N
589015,N
589189,N
589749,N
589941,N
590106,N
590610,N
591013,N
591206,N
591300,N
591916,N
592343,N
592531,N
592692,N
593205,N
593637,N
593840,N
593944,N
594541,N
594958,N
595146,N
595238,N
595836,N
596295,N
596491,N
596660,N
597165,N
597355,N
597516,N
598052,N
598514,N
598712,N
598880,N
599380,N
599558,N
599718,N
600268,N
600699,N
600898,N
601057,N
601563,N
601975,N
602176,N
602351,N
602893,N
603289,N
603480,N
603639,N
604138,N
604561,N
604764,N
604937,N
605445,N
605825,N
606015,N
606182,N
606689,N
607124,N
607321,N
607496,N
607984,N
608172,N
608335,N
608845,N
609038,N
609209,N
609700,N
609885,N
610309,N
610665,N
611155,N
611516,N
611981,N
612622,N
613009,N
613508,N
614163,N
614503,N
615151,N
615519,N
616203,N
616556,N
616919,N
617439,N
617868,N
618552,N
618929,N
619442,N
619868,N
620077,N
620261,N
620767,N
621137,N
621334,N
621510,N
622053,N
622467,N
622836,N
623032,N
623210,N
623716,N
624123,N
624332,N
624508,N
625009,N
625362,N
625550,N
626008,N
626226,N
626666,N
626975,N
627310,N
627621,N
627821,N
627996,N
628484,N
628685,N
629109,N
629397,N
629673,N
629963,N
630249,N
630560,N
630763,N
630930,N
631392,N
631572,N
631973,N
632295,N
632500,N
632671,N
633122,N
633308,N
633695,N
633875,N
634035,N
634461,N
634653,N
635066,N
635247,N
635648,N
635829,N
636219,N
636388,N
636831,N
637016,N
637464,N
637642,N
638070,N
638237,N
638653,N
638840,N
639292,N
639472,N
639890,N
640073,N
640241,N
640683,N
640860,N
641300,N
641608,N
641798,N
641971,N
642391,N
642558,N
642961,N
643149,N
643552,N
643753,N
644096,N
644350,N
644590,N
644750,N
645179,N
645376,N
645792,N
645988,N
646161,N
646608,N
646907,N
647215,N
647561,N
647770,N
648256,N
648613,N
648960,N
649153,N
649320,N
649783,N
