117,N
374,N
638,N
886,N
1142,N
1385,N
1640,N
1884,N
2138,N
2385,N
2622,N
2871,N
3120,N
3370,N
3614,N
3864,N
4111,N
4360,N
4617,N
4863,N
5112,N
5352,N
5609,N
5858,N
6101,N
6353,N
6602,N
6854,N
7109,N
7370,N
7625,N
7880,N
8142,N
8398,N
8650,N
8901,N
9160,N
9416,N
9670,N
9933,N
10187,N
10439,N
10695,N
10954,N
11212,N
11457,N
11723,N
11969,N
12224,N
12483,N
12738,N
12990,N
13241,N
13504,N
13755,N
14005,N
14250,N
14498,N
14750,N
14992,N
15252,N
15502,N
15751,N
16006,N
16260,N
16520,N
16770,N
17027,N
17274,N
17528,N
17783,N
18042,N
18287,N
18539,N
18793,N
19043,N
19297,N
19545,N
19800,N
20049,N
20305,N
20568,N
20825,N
21080,N
21338,N
21593,N
21851,N
22103,N
22359,N
22602,N
22857,N
23108,N
23365,N
23613,N
23859,N
24117,N
24362,N
24618,N
24864,N
25116,N
25366,N
25619,N
25871,N
26117,N
26364,N
26610,N
26860,N
27108,N
27354,N
27602,N
27850,N
28099,N
28346,N
28601,N
28850,N
29101,N
29353,N
29602,N
29858,N
30102,N
30354,N
30600,N
30849,N
31098,N
31347,N
31592,N
31840,N
32088,N
32337,N
32587,N
32831,N
33075,N
33326,N
33574,N
33823,N
34072,N
34315,N
34559,N
34809,N
35052,N
35296,N
35539,N
35783,N
36027,N
36275,N
36527,N
36776,N
37024,N
37273,N
37526,N
37777,N
38023,N
38277,N
38530,N
38778,N
39034,N
39288,N
39540,N
39784,N
40042,N
40294,N
40545,N
40797,N
41050,N
41302,N
41548,N
41809,N
42057,N
42306,N
42562,N
42814,N
43068,N
43311,N
43566,N
43811,N
44061,N
44309,N
44558,N
44806,N
45052,N
45310,N
45560,N
45809,N
46058,N
46313,N
46562,N
46816,N
47078,N
47331,N
47583,N
47841,N
48102,N
48357,N
48603,N
48864,N
49116,N
49370,N
49631,N
49889,N
50139,N
50393,N
50658,N
50913,N
51172,N
51430,N
51686,N
51942,N
52199,N
52461,N
52716,N
52970,N
53230,N
53487,N
53739,N
53983,N
54235,N
54481,N
54729,N
54985,N
55236,N
55483,N
55734,N
55987,N
56236,N
56490,N
56739,N
56994,N
57244,N
57496,N
57754,N
58003,N
58255,N
58509,N
58762,N
59016,N
59265,N
59520,N
59772,N
60024,N
60277,N
60529,N
60778,N
61026,N
61282,N
61531,N
61782,N
62028,N
62279,N
62532,N
62784,N
63040,N
63289,N
63544,N
63799,N
64063,N
64322,N
64575,N
64835,N
65092,N
65346,N
65605,N
65863,N
66118,N
66372,N
66637,N
66894,N
67153,N
67412,N
67671,N
67935,N
68193,N
68458,N
68715,N
68975,N
69241,N
69504,N
69764,N
70020,N
70276,N
70531,N
70788,N
71048,N
71302,N
71548,N
71810,N
72060,N
72318,N
72569,N
72827,N
73083,N
73335,N
73596,N
73846,N
74097,N
74347,N
74602,N
74850,N
75090,N
75345,N
75593,N
75840,N
76094,N
76352,N
76609,N
76861,N
77128,N
77384,N
77640,N
77890,N
78146,N
78402,N
78656,N
78918,N
79167,N
79413,N
79674,N
79927,N
80181,N
80427,N
80686,N
80940,N
81197,N
81459,N
81720,N
81969,N
82225,N
82486,N
82742,N
82992,N
83249,N
83501,N
83758,N
84012,N
84275,N
84525,N
84781,N
85048,N
85310,N
85572,N
85830,N
86090,N
86344,N
86607,N
86875,N
87139,N
87396,N
87664,N
87922,N
88183,N
88438,N
88698,N
88953,N
89209,N
89474,N
89728,N
89986,N
90240,N
90503,N
90755,N
91008,N
91259,N
91509,N
91758,N
92009,N
92256,N
92504,N
92749,N
93004,N
93250,N
93501,N
93743,N
93993,N
94234,N
94481,N
94725,N
94971,N
95213,N
95455,N
95704,N
95946,N
96195,N
96434,N
96680,N
96925,N
97171,N
97415,N
97664,N
97903,N
98146,N
98397,N
98641,N
98891,N
99132,N
99380,N
99635,N
99887,N
100142,N
100391,N
100643,N
100891,N
101147,N
101403,N
101652,N
101910,N
102159,N
102417,N
102666,N
102925,N
103177,N
103427,N
103684,N
103936,N
104188,N
104429,N
104679,N
104923,N
105168,N
105420,N
105664,N
105911,N
106152,N
106403,N
106649,N
106891,N
107135,N
107379,N
107624,N
107865,N
108118,N
108360,N
108602,N
108848,N
109100,N
109345,N
109584,N
109835,N
110078,N
110321,N
110569,N
110822,N
111070,N
111315,N
111577,N
111828,N
112084,N
112330,N
112589,N
112841,N
113098,N
113358,N
113613,N
113865,N
114123,N
114382,N
114641,N
114889,N
115147,N
115397,N
115652,N
115913,N
116168,N
116421,N
116672,N
116937,N
117192,N
117445,N
117701,N
117956,N
118210,N
118473,N
118738,N
118993,N
119251,N
119519,N
119781,N
120034,N
120296,N
120547,N
120804,N
121059,N
121321,N
121576,N
121833,N
122089,N
122344,N
122596,N
122836,N
123096,N
123339,N
123588,N
123840,N
124093,N
124343,N
124595,N
124852,N
125101,N
125355,N
125601,N
125846,N
126096,N
126341,N
126596,N
126837,N
127084,N
127333,N
127585,N
127836,N
128087,N
128341,N
128583,N
128838,N
129087,N
129345,N
129591,N
129840,N
130094,N
130346,N
130596,N
130844,N
131096,N
131348,N
131599,N
131855,N
132106,N
132362,N
132611,N
132869,N
133119,N
133368,N
133620,N
133862,N
134114,N
134361,N
134613,N
134859,N
135104,N
135354,N
135606,N
135854,N
136102,N
136349,N
136598,N
136849,N
137102,N
137353,N
137606,N
137856,N
138109,N
138358,N
138612,N
138853,N
139105,N
139353,N
139599,N
139848,N
140098,N
140344,N
140590,N
140846,N
141096,N
141342,N
141595,N
141843,N
142089,N
142338,N
142593,N
142839,N
143080,N
143330,N
143580,N
143830,N
144072,N
144327,N
144577,N
144828,N
145084,N
145339,N
145593,N
145846,N
146112,N
146372,N
146628,N
146886,N
147144,N
147397,N
147658,N
147912,N
148166,N
148415,N
148680,N
148935,N
149191,N
149442,N
149701,N
149957,N
150215,N
150481,N
150741,N
150996,N
151262,N
151521,N
151782,N
152032,N
152292,N
152548,N
152806,N
153071,N
153327,N
153583,N
153842,N
154102,N
154358,N
154608,N
154869,N
155124,N
155377,N
155640,N
155894,N
156152,N
156407,N
156669,N
156918,N
157167,N
157419,N
157670,N
157913,N
158167,N
158416,N
158665,N
158911,N
159170,N
159420,N
159670,N
159909,N
160165,N
160412,N
160659,N
160911,N
161163,N
161414,N
161664,N
161921,N
162174,N
162429,N
162680,N
162933,N
163188,N
163446,N
163704,N
163956,N
164212,N
164471,N
164730,N
164987,N
165237,N
165495,N
165741,N
165996,N
166254,N
166507,N
166762,N
167011,N
167273,N
167524,N
167779,N
168029,N
168280,N
168532,N
168787,N
169044,N
169296,N
169550,N
169803,N
170060,N
170317,N
170571,N
170829,N
171084,N
171340,N
171599,N
171854,N
172116,N
172372,N
172642,N
172901,N
173159,N
173418,N
173673,N
173933,N
174188,N
174449,N
174701,N
174956,N
175215,N
175473,N
175726,N
175978,N
176236,N
176491,N
176747,N
177011,N
177264,N
177520,N
177782,N
178040,N
178298,N
178548,N
178803,N
179058,N
179313,N
179572,N
179827,N
180081,N
180340,N
180602,N
180860,N
181113,N
181371,N
181627,N
181885,N
182148,N
182408,N
182668,N
182922,N
183190,N
183449,N
183705,N
183969,N
184228,N
184490,N
184756,N
185026,N
185293,N
185558,N
185831,N
186098,N
186355,N
186625,N
186889,N
187148,N
187416,N
187675,N
187934,N
188192,N
188460,N
188722,N
188978,N
189246,N
189505,N
189765,N
190030,N
190293,N
190554,N
190813,N
191082,N
191340,N
191595,N
191856,N
192110,N
192370,N
192630,N
192887,N
193139,N
193396,N
193656,N
193912,N
194164,N
194410,N
194665,N
194911,N
195156,N
195409,N
195656,N
195892,N
196141,N
196393,N
196644,N
196883,N
197139,N
197381,N
197630,N
197882,N
198137,N
198384,N
198632,N
198888,N
199140,N
199391,N
199634,N
199882,N
200130,N
200380,N
200631,N
200884,N
201132,N
201385,N
201646,N
201898,N
202153,N
202405,N
202657,N
202906,N
203157,N
203409,N
203656,N
203904,N
204152,N
204404,N
204651,N
204899,N
205151,N
205399,N
205649,N
205901,N
206155,N
206401,N
206652,N
206902,N
207148,N
207399,N
207636,N
207888,N
208136,N
208378,N
208632,N
208878,N
209125,N
209375,N
209628,N
209879,N
210131,N
210378,N
210627,N
210875,N
211128,N
211378,N
211622,N
211867,N
212112,N
212361,N
212609,N
212846,N
213093,N
213336,N
213579,N
213827,N
214075,N
214321,N
214567,N
214815,N
215067,N
215319,N
215559,N
215811,N
216056,N
216305,N
216556,N
216805,N
217054,N
217300,N
217554,N
217804,N
218053,N
218301,N
218546,N
218796,N
219047,N
219305,N
219558,N
219807,N
220068,N
220321,N
220578,N
220818,N
221076,N
221322,N
221573,N
221825,N
222078,N
222332,N
222582,N
222843,N
223098,N
223347,N
223602,N
223857,N
224107,N
224362,N
224618,N
224872,N
225120,N
225382,N
225634,N
225884,N
226132,N
226385,N
226634,N
226881,N
227141,N
227392,N
227637,N
227892,N
228149,N
228407,N
228653,N
228914,N
229164,N
229419,N
229679,N
229936,N
230184,N
230435,N
230698,N
230952,N
231205,N
231454,N
231709,N
231957,N
232212,N
232466,N
232717,N
232963,N
233217,N
233472,N
233721,N
233967,N
234222,N
234469,N
234714,N
234963,N
235217,N
235460,N
235708,N
235966,N
236210,N
236464,N
236710,N
236965,N
237210,N
237465,N
237715,N
237963,N
238212,N
238463,N
238719,N
238965,N
239210,N
239460,N
239708,N
239957,N
240208,N
240464,N
240712,N
240962,N
241219,N
241472,N
241727,N
241972,N
242228,N
242473,N
242721,N
242971,N
243217,N
243459,N
243706,N
243958,N
244205,N
244456,N
244699,N
244951,N
245205,N
245461,N
245717,N
245968,N
246218,N
246470,N
246725,N
246976,N
247225,N
247473,N
247722,N
247968,N
248219,N
248473,N
248718,N
248969,N
249225,N
249481,N
249739,N
249994,N
250250,N
250511,N
250764,N
251022,N
251271,N
251528,N
251780,N
252037,N
252297,N
252554,N
252824,N
253092,N
253365,N
253593,N
253937,N
254231,N
254532,N
254817,N
255086,N
255355,N
255619,N
255878,N
256139,N
256392,N
256651,N
256897,N
257162,N
257414,N
257669,N
257916,N
258170,N
258421,N
258672,N
258929,N
259177,N
259425,N
259674,N
259924,N
260175,N
260414,N
260663,N
260911,N
261158,N
261408,N
261660,N
261912,N
262155,N
262414,N
262665,N
262917,N
263163,N
263415,N
263664,N
263913,N
264165,N
264419,N
264660,N
264905,N
265157,N
265399,N
265638,N
265886,N
266125,N
266370,N
266617,N
266871,N
267117,N
267360,N
267615,N
267864,N
268112,N
268356,N
268610,N
268861,N
269112,N
269366,N
269626,N
269873,N
270125,N
270384,N
270638,N
270886,N
271138,N
271385,N
271634,N
271882,N
272131,N
272376,N
272622,N
272871,N
273123,N
273368,N
273609,N
273861,N
274101,N
274346,N
274596,N
274844,N
275089,N
275338,N
275589,N
275839,N
276085,N
276329,N
276578,N
276820,N
277063,N
277312,N
277559,N
277799,N
278040,N
278294,N
278486,N
278783,N
279022,N
279274,N
279518,N
279773,N
280028,N
280282,N
280536,N
280790,N
281053,N
281310,N
281562,N
281817,N
282066,N
282316,N
282570,N
282817,N
283068,N
283319,N
283578,N
283828,N
284085,N
284334,N
284590,N
284841,N
285091,N
285349,N
285594,N
285843,N
286092,N
286343,N
286589,N
286835,N
287081,N
287328,N
287575,N
287798,N
288075,N
288320,N
288567,N
288816,N
289066,N
289315,N
289552,N
289800,N
290040,N
290282,N
290524,N
290771,N
291007,N
291246,N
291491,N
291732,N
291974,N
292211,N
292454,N
292696,N
292939,N
293190,N
293435,N
293678,N
293920,N
294173,N
294417,N
294664,N
294903,N
295145,N
295384,N
295622,N
295865,N
296106,N
296340,N
296577,N
296820,N
297062,N
297301,N
297534,N
297772,N
298015,N
298251,N
298495,N
298737,N
298973,N
299166,|
299415,N
299700,N
299940,N
300180,N
300421,N
300663,N
300902,N
301153,N
301395,N
301635,N
301877,N
302129,N
302368,N
302606,N
302849,N
303090,N
303330,N
303569,N
303813,N
304050,N
304288,N
304528,N
304775,N
305016,N
305256,N
305497,N
305742,N
305988,N
306230,N
306478,N
306723,N
306963,N
307207,N
307457,N
307702,N
307938,N
308186,N
308428,N
308670,N
308917,N
309167,N
309407,N
309649,N
309897,N
310144,N
310392,N
310631,N
310882,N
311126,N
311370,N
311619,N
311871,N
312062,N
312360,N
312612,N
312863,N
313109,N
313351,N
313600,N
313845,N
314093,N
314348,N
314592,N
314842,N
315088,N
315343,N
315588,N
315832,N
316080,N
316329,N
316572,N
316820,N
317074,N
317321,N
317572,N
317827,N
318083,N
318334,N
318587,N
318843,N
319100,N
319355,N
319617,N
319872,N
320129,N
320384,N
320649,N
320901,N
321156,N
321411,N
321666,N
321922,N
322176,N
322435,N
322685,N
322937,N
323198,N
323451,N
323712,N
323963,N
324219,N
324471,N
324727,N
324984,N
325236,N
325486,N
325741,N
325994,N
326252,N
326500,N
326756,N
327008,N
327267,N
327529,N
327789,N
328046,N
328303,N
328560,N
328821,N
329072,N
329327,N
329574,N
329829,N
330085,N
330342,N
330600,N
330853,N
331116,N
331368,N
331625,N
331875,N
332130,N
332382,N
332640,N
332895,N
333150,N
333406,N
333665,N
333919,N
334176,N
334428,N
334686,N
334943,N
335200,N
335458,N
335714,N
335968,N
336224,N
336480,N
336740,N
336987,N
337247,N
337500,N
337758,N
338014,N
338275,N
338524,N
338772,N
339031,N
339286,N
339535,N
339782,N
340034,N
340288,N
340543,N
340798,N
341051,N
341300,N
341554,N
341807,N
342063,N
342308,N
342562,N
342814,N
343064,N
343320,N
343574,N
343822,N
344074,N
344331,N
344586,N
344835,N
345095,N
345347,N
345603,N
345856,N
346118,N
346369,N
346621,N
346877,N
347131,N
347386,N
347632,N
347891,N
348142,N
348392,N
348648,N
348902,N
349150,N
349402,N
349658,N
349910,N
350158,N
350408,N
350660,N
350909,N
351163,N
351419,N
351668,N
351916,N
352175,N
352427,N
352683,N
352932,N
353197,N
353457,N
353720,N
353987,N
354247,N
354509,N
354777,N
355045,N
355307,N
355563,N
355828,N
356086,N
356344,N
356610,N
356871,N
357129,N
357391,N
357661,N
357924,N
358178,N
358443,N
358700,N
358960,N
359222,N
359477,N
359731,N
359986,N
360243,N
360488,N
360739,N
360989,N
361237,N
361488,N
361742,N
362003,N
362256,N
362511,N
362773,N
363030,N
363290,N
363540,N
363796,N
364046,N
364301,N
364556,N
364798,N
365047,N
365299,N
365550,N
365802,N
366048,N
366304,N
366552,N
366804,N
367057,N
367309,N
367560,N
367809,N
368070,N
368316,N
368571,N
368819,N
369072,N
369330,N
369589,N
369848,N
370104,N
370362,N
370632,N
370888,N
371150,N
371403,N
371657,N
371913,N
372168,N
372426,N
372679,N
372931,N
373185,N
373440,N
373700,N
373949,N
374210,N
374471,N
374733,N
374999,N
375261,N
375526,N
375790,N
376056,N
376322,N
376579,N
376842,N
377103,N
377364,N
377626,N
377885,N
378143,N
378400,N
378661,N
378919,N
379174,N
379427,N
379685,N
379938,N
380192,N
380448,N
380699,N
380949,N
381205,N
381455,N
381705,N
381951,N
382203,N
382452,N
382703,N
382958,N
383210,N
383460,N
383714,N
383973,N
384228,N
384477,N
384729,N
384983,N
385239,N
385494,N
385753,N
386008,N
386257,N
386522,N
386777,N
387035,N
387281,N
387540,N
387793,N
388045,N
388306,N
388558,N
388804,N
389062,N
389318,N
389573,N
389820,N
390077,N
390326,N
390577,N
390833,N
391090,N
391344,N
391592,N
391860,N
392115,N
392373,N
392633,N
392891,N
393146,N
393402,N
393664,N
393919,N
394170,N
394433,N
394685,N
394943,N
395191,N
395447,N
395696,N
395952,N
396213,N
396468,N
396717,N
396976,N
397234,N
397489,N
397737,N
397996,N
398245,N
398496,N
398749,N
399005,N
399257,N
399505,N
399771,N
400020,N
400277,N
400533,N
400789,N
401046,N
401311,N
401579,N
401836,N
402098,N
402371,N
402631,N
402895,N
403155,N
403412,N
403671,N
403933,N
404199,N
404459,N
404719,N
404990,N
405251,N
405513,N
405775,N
406035,N
406292,N
406560,N
406823,N
407081,N
407340,N
407606,N
407864,N
408125,N
408390,N
408646,N
408907,N
409172,N
409438,N
409700,N
409962,N
410236,N
410492,N
410754,N
411013,N
411270,N
411528,N
411788,N
412050,N
412307,N
412564,N
412826,N
413086,N
413343,N
413598,N
413856,N
414117,N
414380,N
414647,N
414903,N
415164,N
415430,N
415688,N
415948,N
416200,N
416457,N
416712,N
416971,N
417231,N
417489,N
417744,N
418003,N
418267,N
418532,N
418789,N
419052,N
419312,N
419576,N
419839,N
420098,N
420356,N
420612,N
420872,N
421131,N
421384,N
421645,N
421903,N
422162,N
422423,N
422689,N
422950,N
423204,N
423471,N
423730,N
423988,N
424246,N
424505,N
424763,N
425022,N
425288,N
425546,N
425807,N
426072,N
426334,N
426596,N
426855,N
427120,N
427380,N
427644,N
427910,N
428171,N
428430,N
428695,N
428956,N
429216,N
429474,N
429736,N
429998,N
430260,N
430530,N
430792,N
431050,N
431319,N
431581,N
431843,N
432102,N
432364,N
432624,N
432887,N
433152,N
433410,N
433665,N
433934,N
434197,N
434464,N
434724,N
434992,N
435259,N
435524,N
435796,N
436059,N
436319,N
436586,N
436850,N
437112,N
437374,N
437638,N
437897,N
438156,N
438424,N
438683,N
438938,N
439207,N
439466,N
439730,N
439989,N
440253,N
440510,N
440770,N
441036,N
441292,N
441552,N
441814,N
442079,N
442333,N
442591,N
442855,N
443114,N
443379,N
443645,N
443906,N
444165,N
444434,N
444696,N
444957,N
445213,N
445474,N
445732,N
445992,N
446256,N
446511,N
446764,N
447029,N
447286,N
447546,N
447801,N
448062,N
448321,N
448583,N
448852,N
449109,N
449366,N
449630,N
449893,N
450154,N
450410,N
450675,N
450935,N
451198,N
451467,N
451732,N
451996,N
452267,N
452534,N
452804,N
453064,N
453332,N
453593,N
453853,N
454117,N
454375,N
454631,N
454893,N
455152,N
455410,N
455664,N
455926,N
456182,N
456444,N
456709,N
456968,N
457229,N
457488,N
457756,N
458014,N
458267,N
458531,N
458787,N
459049,N
459310,N
459569,N
459827,N
460083,N
460351,N
460606,N
460865,N
461120,N
461376,N
461637,N
461897,N
462156,N
462414,N
462671,N
462936,N
463192,N
463452,N
463706,N
463964,N
464223,N
464482,N
464747,N
465003,N
465264,N
465526,N
465791,N
466057,N
466311,N
466576,N
466836,N
467100,N
467364,N
467626,N
467882,N
468143,N
468403,N
468664,N
468916,N
469178,N
469440,N
469698,N
469966,N
470229,N
470493,N
470759,N
471027,N
471293,N
471551,N
471819,N
472082,N
472346,N
472614,N
472883,N
473148,N
473417,N
473689,N
473956,N
474219,N
474492,N
474761,N
475030,N
475308,N
475574,N
475838,N
476113,N
476376,N
476641,N
476902,N
477166,N
477426,N
477691,N
477956,N
478220,N
478477,N
478752,N
479022,N
479284,N
479553,N
479817,N
480079,N
480345,N
480609,N
480869,N
481126,N
481393,N
481654,N
481910,N
482172,N
482430,N
482688,N
482949,N
483215,N
483476,N
483731,N
483997,N
484255,N
484512,N
484772,N
485029,N
485287,N
485549,N
485816,N
486072,N
486330,N
486600,N
486865,N
487129,N
487392,N
487659,N
487918,N
488186,N
488449,N
488706,N
488964,N
489231,N
489489,N
489740,N
489995,N
490251,N
490506,N
490761,N
491027,N
491282,N
491544,N
491810,N
492072,N
492332,N
492585,N
492847,N
493104,N
493366,N
493631,N
493890,N
494146,N
494414,N
494676,N
494944,N
495203,N
495469,N
495732,N
496001,N
496272,N
496534,N
496793,N
497058,N
497324,N
497583,N
497843,N
498102,N
498357,N
498614,N
498878,N
499139,N
499396,N
499657,N
499922,N
500185,N
500442,N
500710,N
500966,N
501227,N
501492,N
501754,N
502020,N
502281,N
502547,N
502811,N
503070,N
503336,N
503595,N
503856,N
504124,N
504386,N
504651,N
504914,N
505182,N
505449,N
505709,N
505980,N
506239,N
506507,N
506775,N
507037,N
507302,N
507567,N
507836,N
508104,N
508365,N
508631,N
508899,N
509167,N
509436,N
509704,N
509967,N
510234,N
510503,N
510774,N
511033,N
511299,N
511560,N
511825,N
512093,N
512355,N
512617,N
512883,N
513150,N
513416,N
513672,N
513936,N
514195,N
514459,N
514719,N
514980,N
515241,N
515501,N
515765,N
516025,N
516279,N
516540,N
516800,N
517058,N
517323,N
517584,N
517846,N
518112,N
518377,N
518643,N
518900,N
519162,N
519427,N
519686,N
519951,N
520210,N
520469,N
520731,N
520993,N
521257,N
521506,N
521768,N
522026,N
522288,N
522550,N
522812,N
523070,N
523331,N
523598,N
523860,N
524114,N
524379,N
524641,N
524902,N
525172,N
525439,N
525704,N
525969,N
526244,N
526514,N
526775,N
527047,N
527312,N
527579,N
527849,N
528116,N
528376,N
528643,N
528909,N
529173,N
529428,N
529694,N
529956,N
530214,N
530484,N
530748,N
531012,N
531279,N
531547,N
531818,N
532076,N
532345,N
532610,N
532872,N
533141,N
533406,N
533670,N
533940,N
534210,N
534475,N
534738,N
535010,N
535277,N
535543,N
535817,N
536080,N
536344,N
536612,N
536875,N
537139,N
537394,N
537660,N
537915,N
538180,N
538446,N
538704,N
538966,N
539234,N
539505,N
539771,N
540032,N
540300,N
540560,N
540827,N
541099,N
541359,N
541623,N
541896,N
542163,N
542436,N
542703,N
542971,N
543240,N
543516,N
543794,N
544058,N
544326,N
544601,N
544867,N
545138,N
545404,N
545665,N
545931,N
546195,N
546461,N
546725,N
546985,N
547262,N
547525,N
547790,N
548060,N
548320,N
548587,N
548857,N
549122,N
549389,N
549658,N
549926,N
550192,N
550453,N
550719,N
550986,N
551252,N
551524,N
551789,N
552057,N
552326,N
552597,N
552861,N
553117,N
553382,N
553640,N
553903,N
554167,N
554426,N
554684,N
554950,N
555215,N
555481,N
555742,N
556007,N
556271,N
556538,N
556806,N
557070,N
557335,N
557600,N
557868,N
558132,N
558390,N
558655,N
558914,N
559178,N
559446,N
559706,N
559968,N
560235,N
560500,N
560765,N
561024,N
561288,N
561550,N
561813,N
562078,N
562337,N
562596,N
562860,N
563121,N
563383,N
563639,N
563898,N
564162,N
564420,N
564684,N
564942,N
565200,N
565462,N
565720,N
565983,N
566234,N
566497,N
566754,N
567012,N
567269,N
567528,N
567785,N
568043,N
568305,N
568565,N
568817,N
569078,N
569337,N
569595,N
569858,N
570119,N
570381,N
570635,N
570902,N
571163,N
571421,N
571677,N
571935,N
572193,N
572448,N
572712,N
572966,N
573221,N
573481,N
573741,N
574001,N
574256,N
574515,N
574773,N
575031,N
575296,N
575556,N
575813,N
576078,N
576336,N
576599,N
576850,N
577116,N
577372,N
577629,N
577892,N
578147,N
578403,N
578661,N
578925,N
579181,N
579433,N
579695,N
579951,N
580206,N
580470,N
580726,N
580984,N
581243,N
581509,N
581769,N
582022,N
582288,N
582549,N
582811,N
583075,N
583340,N
583599,N
583861,N
584130,N
584389,N
584644,N
584904,N
585163,N
585415,N
585678,N
585933,N
586188,N
586446,N
586711,N
586971,N
587226,N
587493,N
587750,N
588012,N
588276,N
588541,N
588799,N
589062,N
589332,N
589594,N
589851,N
590116,N
590377,N
590636,N
590904,N
591166,N
591425,N
591689,N
591955,N
592212,N
592466,N
592727,N
592983,N
593237,N
593499,N
593755,N
594014,N
594271,N
594539,N
594798,N
595053,N
595319,N
595577,N
595840,N
596108,N
596373,N
596635,N
596894,N
597167,N
597423,N
597682,N
597943,N
598199,N
598461,N
598723,N
598988,N
599246,N
599508,N
599780,N
600041,N
600301,N
600565,N
600824,N
601083,N
601347,N
601609,N
601864,N
602122,N
602388,N
602647,N
602905,N
603167,N
603425,N
603685,N
603949,N
604214,N
604473,N
604731,N
605000,N
605256,N
605520,N
605775,N
606031,N
606289,N
606545,N
606807,N
607062,N
607321,N
607582,N
607840,N
608102,N
608357,N
608617,N
608877,N
609137,N
609399,N
609656,N
609913,N
610171,N
610428,N
610684,N
610932,N
611188,N
611443,N
611700,N
611961,N
612219,N
612481,N
612739,N
613004,N
613267,N
613522,N
613783,N
614040,N
614300,N
614560,N
614821,N
615079,N
615334,N
615601,N
615859,N
616120,N
616379,N
616638,N
616900,N
617160,N
617427,N
617687,N
617943,N
618209,N
618471,N
618731,N
618990,N
619250,N
619510,N
619776,N
620042,N
620307,N
620569,N
620842,N
621112,N
621377,N
621647,N
621913,N
622176,N
622443,N
622712,N
622977,N
623239,N
623513,N
623779,N
624036,N
624305,N
624568,N
624832,N
625098,N
625359,N
625624,N
625886,N
626157,N
626417,N
626669,N
626936,N
627192,N
627451,N
627710,N
627970,N
628224,N
628482,N
628743,N
629005,N
629257,N
629523,N
629783,N
630040,N
630308,N
630570,N
630834,N
631093,N
631361,N
631626,N
631881,N
632148,N
632406,N
632667,N
632930,N
633194,N
633452,N
633712,N
633979,N
634241,N
634497,N
634762,N
635023,N
635285,N
635551,N
635816,N
636075,N
636336,N
636605,N
636866,N
637122,N
637387,N
637649,N
637908,N
638175,N
638441,N
638698,N
638963,N
639230,N
639490,N
639744,N
640008,N
640267,N
640522,N
640786,N
641043,N
641300,N
641553,N
641822,N
642076,N
642332,N
642590,N
642849,N
643105,N
643366,N
643632,N
643890,N
644148,N
644419,N
644678,N
644936,N
645193,N
645450,N
645706,N
645967,N
646233,N
646488,N
646743,N
647011,N
647270,N
647533,N
647790,N
648052,N
648312,N
648576,N
648841,N
649097,N
649355,N
649619,N
649876,N
