6,N
271,N
549,N
825,N
1093,N
1358,N
1627,N
1896,N
2167,N
2435,N
2706,N
2975,N
3244,N
3516,N
3784,N
4054,N
4332,N
4602,N
4873,N
5152,N
5423,N
5694,N
5964,N
6242,N
6520,N
6791,N
7072,N
7348,N
7622,N
7897,N
8172,N
8446,N
8726,N
8999,N
9271,N
9550,N
9819,N
10089,N
10361,N
10632,N
10907,N
11177,N
11448,N
11723,N
12001,N
12270,N
12540,N
12815,N
13100,N
13375,N
13654,N
13939,N
14210,N
14485,N
14760,N
15032,N
15307,N
15578,N
15850,N
16127,N
16403,N
16674,N
16942,N
17217,N
17500,N
17777,N
18058,N
18338,N
18621,N
18901,N
19176,N
19457,N
19742,N
20015,N
20292,N
20576,N
20854,N
21133,N
21408,N
21686,N
21973,N
22252,N
22536,N
22812,N
23086,N
23367,N
23642,N
23917,N
24195,N
24470,N
24749,N
25032,N
25299,N
25579,N
25855,N
26137,N
26411,N
26685,N
26970,N
27242,N
27516,N
27791,N
28063,N
28344,N
28614,N
28882,N
29163,N
29436,N
29701,N
29975,N
30247,N
30527,N
30800,N
31072,N
31355,N
31631,N
31900,N
32174,N
32448,N
32727,N
32996,N
33270,N
33553,N
33831,N
34106,N
34384,N
34664,N
34946,N
35097,N
35503,N
35781,N
35931,N
36331,N
36606,N
36876,N
37156,N
37428,N
37706,N
37981,N
38254,N
38529,N
38801,N
39079,N
39355,N
39633,N
39914,N
40190,N
40470,N
40748,N
41020,N
41299,N
41581,N
41856,N
42133,N
42409,N
42682,N
42955,N
43230,N
43507,N
43790,N
44067,N
44346,N
44626,N
44898,N
45176,N
45449,N
45727,N
46007,N
46282,N
46567,N
46846,N
47123,N
47400,N
47678,N
47958,N
48240,N
48515,N
48790,N
49068,N
49340,N
49612,N
49886,N
50160,N
50432,N
50704,N
50985,N
51257,N
51525,N
51804,N
52072,N
52353,N
52632,N
52903,N
53184,N
53461,N
53611,N
54001,N
54276,N
54547,N
54819,N
55090,N
55367,N
55637,N
55905,N
56147,N
56451,N
56727,N
56894,N
57269,N
57547,N
57819,N
58082,N
58349,N
58617,N
58886,N
59151,N
59420,N
59695,N
59962,N
60227,N
60502,N
60768,N
61044,N
61320,N
61586,N
61862,N
62132,N
62397,N
62667,N
62935,N
63202,N
63474,N
63744,N
64020,N
64290,N
64557,N
64830,N
65100,N
65376,N
65648,N
65919,N
66198,N
66468,N
66737,N
67008,N
67277,N
67548,N
67821,N
68092,N
68370,N
68638,N
68904,N
69180,N
69448,N
69725,N
69998,N
70268,N
70546,N
70818,N
71087,N
71358,N
71626,N
71895,N
72170,N
72436,N
72706,N
72976,N
73246,N
73515,N
73778,N
74052,N
74327,N
74591,N
74739,N
75133,N
75406,N
75671,N
75938,N
76202,N
76476,N
76742,N
77005,N
77280,N
77548,N
77810,N
78077,N
78349,N
78618,N
78885,N
79151,N
79425,N
79692,N
79955,N
80227,N
80492,N
80757,N
81026,N
81292,N
81560,N
81832,N
82097,N
82365,N
82634,N
82901,N
83172,N
83436,N
83707,N
83978,N
84244,N
84511,N
84773,N
85041,N
85314,N
85579,N
85847,N
86121,N
86391,N
86656,N
86928,N
87198,N
87474,N
87741,N
88014,N
88289,N
88563,N
88832,N
89099,N
89372,N
89649,N
89919,N
90193,N
90471,N
90746,N
91018,N
91293,N
91567,N
91845,N
92117,N
92393,N
92667,N
92933,N
93208,N
93472,N
93738,N
94015,N
94280,N
94553,N
94719,N
95093,N
95370,N
95517,N
95908,N
96074,N
96457,N
96725,N
96997,N
97260,N
97531,N
97790,N
98058,N
98333,N
98597,N
98866,N
99140,N
99412,N
99687,N
99962,N
100238,N
100524,N
100803,N
101079,N
101364,N
101644,N
101920,N
102192,N
102470,N
102753,N
103026,N
103304,N
103584,N
103861,N
104139,N
104295,N
104682,N
104959,N
105227,N
105375,N
105761,N
106029,N
106288,N
106551,N
106811,N
107081,N
107345,N
107613,N
107893,N
108171,N
108449,N
108730,N
109011,N
109300,N
109577,N
109855,N
110141,N
110419,N
110687,N
110964,N
111237,N
111518,N
111793,N
112067,N
112349,N
112627,N
112900,N
113172,N
113445,N
113724,N
113990,N
114263,N
114538,N
114808,N
115072,N
115344,N
115620,N
115897,N
116172,N
116446,N
116725,N
116997,N
117271,N
117539,N
117804,N
118081,N
118345,N
118608,N
118882,N
119150,N
119412,N
119677,N
119942,N
120216,N
120482,N
120747,N
121018,N
121290,N
121558,N
121824,N
122093,N
122368,N
122633,N
122898,N
123173,N
123441,N
123702,N
123970,N
124237,N
124508,N
124776,N
125041,N
125317,N
125587,N
125752,N
126120,N
126389,N
126660,N
126923,N
127188,N
127462,N
127727,N
127990,N
128264,N
128534,N
128807,N
129082,N
129351,N
129627,N
129898,N
130169,N
130441,N
130709,N
130985,N
131260,N
131531,N
131808,N
131990,N
132343,N
132618,N
132888,N
133158,N
133429,N
133697,N
133973,N
134245,N
134515,N
134662,N
135050,N
135324,N
135598,N
135864,N
136136,N
136408,N
136676,N
136950,N
137215,N
137481,N
137760,N
138024,N
138290,N
138565,N
138838,N
139097,N
139365,N
139628,N
139899,N
140165,N
140430,N
140704,N
140865,N
141235,N
141506,N
141774,N
142049,N
142318,N
142586,N
142867,N
143142,N
143407,N
143682,N
143951,N
144226,N
144497,N
144765,N
145041,N
145306,N
145567,N
145833,N
146097,N
146364,N
146632,N
146896,N
147167,N
147434,N
147695,N
147969,N
148232,N
148503,N
148779,N
148951,N
149321,N
149593,N
149862,N
150031,N
150395,N
150667,N
150938,N
151206,N
151481,N
151754,N
152019,N
152293,N
152558,N
152716,N
153095,N
153363,N
153631,N
153793,N
154155,N
154423,N
154682,N
154944,N
155215,N
155477,N
155750,N
156028,N
156300,N
156472,N
156842,N
157108,N
157382,N
157648,N
157910,N
158177,N
158443,N
158704,N
158964,N
159228,N
159499,N
159754,N
160019,N
160292,N
160557,N
160815,N
161081,N
161340,N
161605,N
161872,N
162130,N
162396,N
162660,N
162920,N
163188,N
163452,N
163722,N
163990,N
164256,N
164529,N
164798,N
164964,N
165326,N
165588,N
165848,N
166116,N
166370,N
166627,N
166896,N
167157,N
167413,N
167678,N
167939,N
168100,N
168467,N
168733,N
169003,N
169263,N
169523,N
169704,N
170045,N
170307,N
170575,N
170829,N
171088,N
171354,N
171615,N
171871,N
172132,N
172397,N
172660,N
172927,N
173192,N
173360,N
173730,N
173992,N
174257,N
174515,N
174784,N
175049,N
175307,N
175575,N
175841,N
176102,N
176370,N
176527,N
176895,N
177168,N
177430,N
177697,N
177965,N
178232,N
178497,N
178675,N
179024,N
179296,N
179554,N
179816,N
180085,N
180346,N
180609,N
180874,N
181135,N
181305,N
181673,N
181940,N
182212,N
182484,N
182749,N
183018,N
183289,N
183455,N
183839,N
184113,N
184396,N
184563,N
184938,N
185211,N
185482,N
185756,N
186028,N
186300,N
186574,N
186847,N
187109,N
187376,N
187646,N
187920,N
188181,N
188444,N
188718,N
188984,N
189249,N
189516,N
189779,N
190051,N
190320,N
190428,N
190858,N
191127,N
191385,N
191651,N
191912,N
192184,N
192444,N
192705,N
192977,N
193244,N
193500,N
193772,N
194037,N
194299,N
194574,N
194838,N
195106,N
195378,N
195644,N
195814,N
196171,N
196442,N
196707,N
196970,N
197232,N
197502,N
197767,N
198030,N
198297,N
198557,N
198829,N
199096,N
199362,N
199524,N
199901,N
200163,N
200432,N
200696,N
200959,N
201224,N
201486,N
201756,N
202020,N
202287,N
202558,N
202825,N
203098,N
203373,N
203643,N
203805,N
204195,N
204470,N
204746,N
205019,N
205291,N
205455,N
205841,N
206124,N
206313,N
206676,N
206954,N
207225,N
207501,N
207779,N
208053,N
208338,N
208490,N
208885,N
209167,N
209445,N
209605,N
209991,N
210266,N
210544,N
210712,N
211081,N
211352,N
211621,N
211896,N
212164,N
212429,N
212705,N
212966,N
213225,N
213389,N
213752,N
214019,N
214282,N
214543,N
214811,N
215076,N
215333,N
215495,N
215859,N
216128,N
216396,N
216661,N
216930,N
217200,N
217469,N
217630,N
218019,N
218301,N
218487,N
218648,N
219038,N
219329,N
219612,N
219779,N
220164,N
220452,N
220739,N
220902,N
221302,N
221583,N
221854,N
222009,N
222401,N
222676,N
222951,N
223224,N
223510,N
223789,N
224068,N
224358,N
224641,N
224937,N
225220,N
225505,N
225796,N
226077,N
226354,N
226634,N
226902,N
227180,N
227448,N
227713,N
227989,N
228259,N
228521,N
228792,N
229062,N
229236,N
229609,N
229880,N
230155,N
230424,N
230689,N
230959,N
231225,N
231503,N
231778,N
232050,N
232335,N
232494,N
232890,N
233171,N
233453,N
233623,N
234014,N
234297,N
234580,N
234861,N
235135,N
235416,N
235696,N
235989,N
236267,N
236552,N
236847,N
237129,N
237408,N
237688,N
237964,N
238249,N
238526,N
238802,N
239077,N
239240,N
239626,N
239900,N
240175,N
240451,N
240719,N
241001,N
241273,N
241547,N
241824,N
242100,N
242379,N
242659,N
242765,N
243212,N
243487,N
243756,N
244031,N
244297,N
244460,N
244837,N
245105,N
245379,N
245647,N
245909,N
246181,N
246450,N
246724,N
247000,N
247274,N
247552,N
247830,N
248102,N
248376,N
248651,N
248810,N
249196,N
249470,N
249754,N
250023,N
250291,N
250567,N
250841,N
251124,N
251400,N
251561,N
251947,N
252223,N
252487,N
252759,N
253028,N
253302,N
253574,N
253845,N
254128,N
254408,N
254681,N
254964,N
255246,N
255537,N
255816,N
256098,N
256389,N
256671,N
256951,N
257232,N
257512,N
257797,N
258077,N
258359,N
258640,N
258922,N
259200,N
259476,N
259631,N
260037,N
260312,N
260588,N
260870,N
261145,N
261246,N
261693,N
261966,N
262248,N
262522,N
262800,N
262911,N
263352,N
263634,N
263907,N
264017,N
264468,N
264744,N
265029,N
265306,N
265581,N
265863,N
266148,N
266432,N
266725,N
267015,N
267309,N
267601,N
267892,N
268176,N
268465,N
268759,N
269038,N
269322,N
269610,N
269888,N
270171,N
270451,N
270733,N
271017,N
271299,N
271588,N
271871,N
272153,N
272439,N
272727,N
273021,N
273200,N
273581,N
273874,N
274154,N
274429,N
274707,N
274987,N
275270,N
275551,N
275839,N
276121,N
276401,N
276690,N
276971,N
277262,N
277544,N
277818,N
278113,N
278395,N
278667,N
278950,N
279230,N
279514,N
279792,N
280071,N
280352,N
280632,N
280908,N
281179,N
281458,N
281742,N
282011,N
282158,N
282563,N
282830,N
283107,N
283376,N
283643,N
283919,N
284193,N
284462,N
284737,N
285012,N
285286,N
285558,N
285840,N
286119,N
286396,N
286678,N
286957,N
287112,N
287510,N
287784,N
288058,N
288338,N
288618,N
288893,N
289179,N
289459,N
289737,N
290020,N
290304,N
290588,N
290866,N
291154,N
291436,N
291714,N
291997,N
292274,N
292556,N
292838,N
293119,N
293407,N
293691,N
293969,N
294255,N
294539,N
294828,N
295108,N
295387,N
295675,N
295957,N
296232,N
296508,N
296785,N
297069,N
297346,N
297624,N
297906,N
298187,N
298467,N
298750,N
298928,N
299268,N
299556,N
299723,N
300119,N
300398,N
300678,N
300950,N
301229,N
301513,N
301791,N
302080,N
302246,N
302635,N
302921,N
303201,N
303484,N
303764,N
304042,N
304327,N
304609,N
304887,N
305163,N
305444,N
305731,N
306010,N
306295,N
306583,N
306863,N
307151,N
307437,N
307721,N
308006,N
308288,N
308573,N
308857,N
309131,N
309407,N
309684,N
309969,N
310242,N
310513,N
310798,N
311073,N
311344,N
311622,N
311894,N
312173,N
312444,N
312716,N
312991,N
313263,N
313534,N
313800,N
314071,N
314349,N
314617,N
314882,N
315163,N
315436,N
315704,N
315982,N
316260,N
316542,N
316817,N
317095,N
317376,N
317655,N
317933,N
318207,N
318485,N
318771,N
319048,N
319326,N
319612,N
319893,N
320171,N
320452,N
320730,N
321016,N
321296,N
321575,N
321859,N
322137,N
322415,N
322687,N
322963,N
323244,N
323515,N
323791,N
324066,N
324341,N
324619,N
324891,N
325169,N
325447,N
325719,N
325999,N
326275,N
326547,N
326818,N
327092,N
327370,N
327646,N
327921,N
328205,N
328481,N
328755,N
329039,N
329314,N
329594,N
329875,N
330147,N
330435,N
330718,N
330991,N
331272,N
331551,N
331835,N
332110,N
332391,N
332675,N
332955,N
333238,N
333511,N
333791,N
334068,N
334342,N
334617,N
334895,N
335164,N
335438,N
335713,N
335988,N
336266,N
336542,N
336829,N
337113,N
337386,N
337679,N
337956,N
338242,N
338524,N
338799,N
339084,N
339366,N
339637,N
339912,N
340190,N
340471,N
340743,N
341022,N
341300,N
341577,N
341731,N
342118,N
342396,N
342674,N
342942,N
343210,N
343486,N
343754,N
343911,N
344278,N
344549,N
344820,N
345083,N
345349,N
345620,N
345891,N
346160,N
346431,N
346702,N
346980,N
347253,N
347522,N
347806,N
348075,N
348342,N
348614,N
348890,N
349168,N
349443,N
349717,N
349999,N
350277,N
350551,N
350824,N
351096,N
351376,N
351645,N
351912,N
352192,N
352460,N
352619,N
352990,N
353256,N
353529,N
353794,N
354061,N
354336,N
354607,N
354875,N
355143,N
355414,N
355684,N
355955,N
356219,N
356496,N
356761,N
357025,N
357299,N
357458,N
357834,N
358111,N
358379,N
358655,N
358926,N
359194,N
359466,N
359732,N
360004,N
360190,N
360822,N
361084,N
361345,N
361620,N
361886,N
362159,N
362432,N
362700,N
362978,N
363253,N
363521,N
363793,N
364064,N
364339,N
364608,N
364876,N
365151,N
365417,N
365679,N
365953,N
366214,N
366486,N
366759,N
367027,N
367307,N
367579,N
367847,N
368120,N
368391,N
368664,N
368931,N
369200,N
369478,N
369749,N
370008,N
370282,N
370551,N
370826,N
371097,N
371362,N
371641,N
371915,N
372180,N
372456,N
372725,N
372999,N
373271,N
373537,N
373820,N
374086,N
374242,N
374625,N
374894,N
375165,N
375432,N
375699,N
375975,N
376248,N
376512,N
376786,N
377058,N
377332,N
377496,N
377873,N
378153,N
378418,N
378680,N
378953,N
379217,N
379486,N
379761,N
380026,N
380298,N
380572,N
380841,N
381110,N
381275,N
381648,N
381924,N
382190,N
382458,N
382726,N
382994,N
383262,N
383522,N
383792,N
384067,N
384333,N
384602,N
384883,N
385044,N
385426,N
385703,N
385973,N
386250,N
386518,N
386787,N
387059,N
387325,N
387590,N
387854,N
388123,N
388400,N
388666,N
388823,N
389212,N
389485,N
389750,N
390021,N
390288,N
390555,N
390823,N
391088,N
391363,N
391631,N
391899,N
392168,N
392437,N
392604,N
392982,N
393252,N
393529,N
393803,N
394068,N
394335,N
394606,N
394883,N
395152,N
395423,N
395702,N
395973,N
396240,N
396513,N
396785,N
397064,N
397326,N
397597,N
397876,N
398150,N
398419,N
398580,N
398955,N
399234,N
399502,N
399768,N
400036,N
400303,N
400571,N
400831,N
401098,N
401367,N
401628,N
401894,N
402165,N
402434,N
402696,N
402964,N
403229,N
403505,N
403777,N
404048,N
404325,N
404600,N
404872,N
405026,N
405418,N
405698,N
405966,N
406237,N
406518,N
406794,N
407065,N
407225,N
407602,N
407883,N
408155,N
408420,N
408695,N
408964,N
409226,N
409493,N
409765,N
409923,N
410302,N
410570,N
410846,N
411117,N
411384,N
411659,N
411926,N
412088,N
412471,N
412739,N
413014,N
413284,N
413548,N
413816,N
414082,N
414351,N
414622,N
414891,N
415166,N
415439,N
415704,N
415981,N
416251,N
416526,N
416805,N
417073,N
417352,N
417623,N
417889,N
418162,N
418431,N
418703,N
418974,N
419246,N
419521,N
419679,N
420055,N
420330,N
420597,N
420869,N
421141,N
421404,N
421678,N
421944,N
422205,N
422473,N
422739,N
423007,N
423275,N
423541,N
423818,N
424086,N
424351,N
424624,N
424891,N
425051,N
425431,N
425697,N
425966,N
426231,N
426492,N
426760,N
427026,N
427297,N
427568,N
427838,N
428119,N
428391,N
428661,N
428941,N
429211,N
429494,N
429772,N
429926,N
430318,N
430595,N
430861,N
431136,N
431404,N
431680,N
431947,N
432215,N
432491,N
432763,N
433031,N
433303,N
433572,N
433732,N
434118,N
434386,N
434664,N
434935,N
435194,N
435463,N
435730,N
436000,N
436265,N
436535,N
436811,N
436971,N
437345,N
437616,N
437881,N
438155,N
438422,N
438686,N
438961,N
439227,N
439492,N
439764,N
440032,N
440299,N
440571,N
440837,N
441108,N
441377,N
441645,N
441913,N
442172,N
442441,N
442714,N
442976,N
443239,N
443508,N
443775,N
444037,N
444303,N
444564,N
444835,N
445098,N
445365,N
445640,N
445909,N
446172,N
446435,N
446701,N
446970,N
447234,N
447494,N
447767,N
448029,N
448285,N
448556,N
448816,N
449081,N
449349,N
449616,N
449886,N
450153,N
450416,N
450681,N
450943,N
451207,N
451473,N
451731,N
451999,N
452259,N
452520,N
452784,N
453043,N
453303,N
453573,N
453836,N
453989,N
454368,N
454637,N
454899,N
455158,N
455423,N
455689,N
455947,N
456209,N
456474,N
456735,N
456994,N
457258,N
457517,N
457677,N
458047,N
458310,N
458581,N
458846,N
459107,N
459370,N
459631,N
459899,N
460162,N
460420,N
460693,N
460855,N
461215,N
461487,N
461749,N
462017,N
462282,N
462545,N
462817,N
462977,N
463342,N
463608,N
463870,N
464134,N
464399,N
464656,N
464924,N
465183,N
465445,N
465600,N
465971,N
466236,N
466502,N
466766,N
467028,N
467299,N
467567,N
467827,N
468088,N
468351,N
468621,N
468880,N
469139,N
469407,N
469668,N
469925,N
470195,N
470457,N
470724,N
470994,N
471257,N
471529,N
471797,N
472061,N
472323,N
472477,N
472848,N
473122,N
473381,N
473648,N
473913,N
474180,N
474448,N
474710,N
474978,N
475249,N
475515,N
475779,N
476055,N
476325,N
476585,N
476855,N
477124,N
477395,N
477661,N
477927,N
478200,N
478354,N
478731,N
478999,N
479265,N
479536,N
479801,N
480066,N
480345,N
480613,N
480872,N
481143,N
481412,N
481686,N
481952,N
482115,N
482488,N
482757,N
483019,N
483288,N
483553,N
483828,N
484098,N
484360,N
484639,N
484907,N
485168,N
485440,N
485711,N
485876,N
486249,N
486516,N
486786,N
487054,N
487316,N
487583,N
490265,N
490517,N
490781,N
491049,N
491312,N
491571,N
491842,N
492100,N
492369,N
492636,N
492899,N
493174,N
493442,N
493704,N
493976,N
494241,N
494404,N
494777,N
495045,N
495315,N
495576,N
495838,N
496109,N
496368,N
496636,N
496908,N
497170,N
497441,N
497602,N
497975,N
498243,N
498508,N
498768,N
499041,N
499301,N
499562,N
499827,N
500090,N
500354,N
500615,N
502763,N
503027,N
503296,N
503564,N
503832,N
504101,N
504372,N
504638,N
504909,N
505176,N
505447,N
505986,N
506265,N
506530,N
506794,N
507061,N
507326,N
507591,N
507859,N
508123,N
508385,N
508650,N
508910,N
509171,N
509429,N
509692,N
509962,N
510228,N
510502,N
510777,N
511052,N
511325,N
511485,N
511867,N
512145,N
512408,N
512670,N
512942,N
513210,N
513475,N
513737,N
514008,N
514280,N
514545,N
514813,N
515087,N
515354,N
515621,N
515889,N
516155,N
516430,N
516695,N
516845,N
517229,N
517501,N
517769,N
518034,N
518302,N
518576,N
518842,N
519117,N
519389,N
519656,N
519922,N
520186,N
520449,N
520714,N
520970,N
521225,N
521487,N
521751,N
522009,N
522164,N
522527,N
522796,N
523056,N
523315,N
523584,N
523842,N
524092,N
524350,N
524604,N
524861,N
525119,N
525374,N
525635,N
525891,N
526149,N
526412,N
526666,N
526932,N
527198,N
527458,N
527725,N
527897,N
528252,N
528513,N
528771,N
529027,N
529289,N
529546,N
529802,N
530067,N
530328,N
530582,N
530843,N
531105,N
531370,N
531632,N
531896,N
532164,N
532427,N
532692,N
532956,N
533215,N
533475,N
533745,N
534001,N
534257,N
534525,N
534787,N
535046,N
535304,N
535566,N
535830,N
536088,N
536348,N
536616,N
536877,N
537133,N
537398,N
537657,N
537921,N
538181,N
538438,N
538697,N
538956,N
539214,N
539472,N
539729,N
539996,N
540264,N
540528,N
540804,N
541079,N
541352,N
541620,N
541886,N
542062,N
542425,N
542684,N
542939,N
543208,N
543472,N
543731,N
543990,N
544255,N
544523,N
544785,N
545049,N
545316,N
545581,N
545841,N
546107,N
546371,N
546640,N
546903,N
547161,N
547435,N
547698,N
547955,N
548218,N
548482,N
548747,N
549013,N
549275,N
549549,N
549815,N
550073,N
550341,N
550506,N
550871,N
551137,N
551395,N
551667,N
551938,N
552195,N
552466,N
552619,N
553015,N
553290,N
553560,N
553840,N
554109,N
554376,N
554649,N
554917,N
555188,N
555451,N
555712,N
555980,N
556243,N
556497,N
556762,N
557024,N
557286,N
557549,N
557810,N
558072,N
558333,N
558500,N
559032,N
559295,N
559562,N
559820,N
560075,N
560340,N
560601,N
560856,N
561119,N
561383,N
561648,N
561915,N
562183,N
562454,N
562719,N
562985,N
563250,N
563509,N
563773,N
563940,N
564300,N
564562,N
564831,N
565095,N
565356,N
565619,N
565880,N
566140,N
566402,N
566582,N
566925,N
567187,N
567439,N
567701,N
567960,N
568224,N
568488,N
568747,N
569015,N
569285,N
569549,N
569817,N
570086,N
570352,N
570627,N
570895,N
571162,N
571431,N
571694,N
571958,N
572219,N
572484,N
572750,N
573008,N
573271,N
573539,N
573800,N
574062,N
574324,N
574481,N
574854,N
575114,N
575375,N
575641,N
575905,N
576161,N
576419,N
576678,N
576943,N
577198,N
577453,N
577725,N
577984,N
578241,N
578507,N
578771,N
579033,N
579298,N
579564,N
579839,N
580105,N
580366,N
580632,N
580895,N
581165,N
581420,N
581676,N
581943,N
582204,N
582457,N
582723,N
582984,N
583248,N
583512,N
583669,N
584038,N
584302,N
584555,N
584811,N
585065,N
585323,N
585585,N
585837,N
586092,N
586356,N
586616,N
586866,N
587127,N
587388,N
587647,N
587907,N
588110,N
588180,|
588411,|
588623,N
588704,N
588943,N
589170,|
589458,|
589715,N
589978,N
590230,N
590484,N
590744,N
590998,N
591248,N
591499,N
591748,N
592003,N
592259,N
592508,N
592764,N
593016,N
593268,N
593519,N
593771,N
594026,N
594285,N
594536,N
594788,N
595050,N
595305,N
595558,N
595814,N
596071,N
596330,N
596592,N
596850,N
597112,N
597372,N
597632,N
597889,N
598147,N
598409,N
598671,N
598926,N
599178,N
599446,N
599701,N
599953,N
600208,N
600463,N
600723,N
600981,N
601237,N
601501,N
601756,N
602006,N
602263,N
602515,N
602771,N
603026,N
603276,N
603531,N
603792,N
604047,N
604297,N
604555,N
604812,N
605079,N
605343,N
605598,N
605863,N
606126,N
606378,N
606640,N
606901,N
607160,N
607414,N
607667,N
607932,N
608188,N
608436,N
608697,N
608952,N
609205,N
609467,N
609725,N
609987,N
610252,N
610510,N
610770,N
611028,N
611293,N
611558,N
611814,N
612073,N
612338,N
612599,N
612858,N
613116,N
613374,N
613636,N
613895,N
614151,N
614415,N
614677,N
614930,N
615188,N
615444,N
615705,N
615960,N
616215,N
616477,N
616735,N
616990,N
617250,N
617507,N
617756,N
618019,N
618274,N
618528,N
618785,N
619047,N
619294,N
619548,N
619805,N
620071,N
620326,N
620581,N
620842,N
621099,N
621351,N
621608,N
621861,N
622117,N
622380,N
622637,N
622895,N
623161,N
623428,N
623683,N
623948,N
624211,N
624476,N
624737,N
624894,N
625261,N
625522,N
625776,N
626039,N
626295,N
626553,N
626818,N
627075,N
627340,N
627604,N
627863,N
628125,N
628384,N
628646,N
628910,N
629163,N
629421,N
629685,N
629942,N
630199,N
630458,N
630714,N
630978,N
631236,N
631495,N
631765,N
632025,N
632277,N
632539,N
632794,N
633050,N
633305,N
633560,N
633823,N
634081,N
634340,N
634599,N
634859,N
635119,N
635387,N
635645,N
635907,N
636180,N
636445,N
636706,N
636967,N
637229,N
637495,N
637752,N
638011,N
638271,N
638528,N
638783,N
639039,N
639295,N
639559,N
639821,N
640080,N
640346,N
640611,N
640866,N
641128,N
641386,N
641648,N
641907,N
642168,N
642439,N
642696,N
642954,N
643219,N
643478,N
643739,N
644004,N
644263,N
644528,N
644792,N
645047,N
645301,N
645558,N
645817,N
646080,N
646330,N
646584,N
646848,N
647104,N
647358,N
647616,N
647870,N
648135,N
648396,N
648654,N
648924,N
649182,N
649433,N
649692,N
