173,N
582,N
989,N
1394,N
1819,N
2232,N
2661,N
3089,N
3514,N
3943,N
4365,N
4784,N
5223,N
5651,N
6083,N
6533,N
6968,N
7416,N
7848,N
8304,N
8745,N
9193,N
9634,N
10063,N
10503,N
10912,N
11331,N
11743,N
12164,N
12607,N
13049,N
13486,N
13938,N
14373,N
14825,N
15261,N
15699,N
16135,N
16566,N
17008,N
17436,N
17876,N
18331,N
18759,N
19210,N
19652,N
20091,N
20526,N
20966,N
21403,N
21840,N
22283,N
22719,N
23155,N
23602,N
24032,N
24471,N
24888,N
25320,N
25740,N
26158,N
26595,N
27022,N
27454,N
27880,N
28322,N
28763,N
29187,N
29631,N
30036,N
30472,N
30894,N
31330,N
31769,N
32214,N
32668,N
33103,N
33548,N
33990,N
34433,N
34867,N
35313,N
35742,N
36170,N
36612,N
37051,N
37488,N
37927,N
38359,N
38785,N
39204,N
39643,N
40068,N
40500,N
40939,N
41374,N
41812,N
42237,N
42677,N
43101,N
43527,N
43952,N
44366,N
44794,N
45213,N
45648,N
46077,N
46508,N
46953,N
47380,N
47808,N
48244,N
48672,N
49117,N
49555,N
49991,N
50423,N
50846,N
51286,N
51705,N
52134,N
52561,N
52969,N
53400,N
53823,N
54252,N
54680,N
55109,N
55544,N
55971,N
56388,N
56811,N
57227,N
57645,N
58085,N
58520,N
58985,N
59427,N
59881,N
60323,N
60769,N
61222,N
61662,N
62116,N
62549,N
62996,N
63419,N
63852,N
64283,N
64701,N
65123,N
65549,N
65961,N
66383,N
66803,N
67234,N
67651,N
68077,N
68511,N
68921,N
69349,N
69777,N
70200,N
70641,N
71058,N
71495,N
71909,N
72344,N
72775,N
73198,N
73636,N
74065,N
74500,N
74935,N
75361,N
75784,N
76202,N
76620,N
77052,N
77459,N
77882,N
78301,N
78709,N
79128,N
79536,N
79952,N
80365,N
80778,N
81207,N
81625,N
82056,N
82477,N
82912,N
83333,N
83759,N
84188,N
84610,N
85026,N
85450,N
85863,N
86288,N
86707,N
87139,N
87574,N
88004,N
88451,N
88875,N
89317,N
89749,N
90176,N
90621,N
91048,N
91489,N
91917,N
92363,N
92802,N
93249,N
93681,N
94126,N
94556,N
94985,N
95422,N
95835,N
96265,N
96689,N
97115,N
97541,N
97957,N
98384,N
98801,N
99220,N
99652,N
100084,N
100519,N
100964,N
101398,N
101844,N
102263,N
102689,N
103120,N
103537,N
103968,N
104387,N
104815,N
105252,N
105680,N
106116,N
106538,N
106970,N
107397,N
107823,N
108249,N
108678,N
109102,N
109536,N
109956,N
110386,N
110804,N
111230,N
111655,N
112069,N
112496,N
112913,N
113335,N
113757,N
114180,N
114618,N
115036,N
115461,N
115880,N
116293,N
116711,N
117137,N
117552,N
117976,N
118392,N
118819,N
119241,N
119663,N
120090,N
120505,N
120934,N
121343,N
121758,N
122174,N
122584,N
123012,N
123425,N
123857,N
124279,N
124694,N
125117,N
125536,N
125955,N
126382,N
126805,N
127227,N
127647,N
128059,N
128484,N
128893,N
129311,N
129724,N
130133,N
130558,N
130974,N
131406,N
131835,N
132257,N
132686,N
133096,N
133515,N
133923,N
134340,N
134765,N
135184,N
135621,N
136048,N
136486,N
136924,N
137344,N
137773,N
138216,N
138643,N
139087,N
139512,N
139951,N
140393,N
140815,N
141263,N
141690,N
142122,N
142538,N
142959,N
143384,N
143801,N
144230,N
144655,N
145096,N
145532,N
145980,N
146419,N
146851,N
147288,N
147721,N
148140,N
148565,N
148987,N
149419,N
149858,N
150287,N
150739,N
151165,N
151608,N
152038,N
152470,N
152912,N
153341,N
153773,N
154217,N
154642,N
155071,N
155496,N
155916,N
156347,N
156760,N
157192,N
157611,N
158040,N
158476,N
158892,N
159326,N
159748,N
160181,N
160606,N
161035,N
161461,N
161872,N
162300,N
162717,N
163142,N
163565,N
163986,N
164405,N
164820,N
165230,N
165662,N
166081,N
166509,N
166941,N
167371,N
167799,N
168228,N
168664,N
169072,N
169494,N
169911,N
170323,N
170751,N
171171,N
171605,N
172020,N
172457,N
172878,N
173288,N
173712,N
174133,N
174570,N
174996,N
175435,N
175869,N
176286,N
176705,N
177117,N
177535,N
177945,N
178361,N
178783,N
179207,N
179637,N
180068,N
180495,N
180920,N
181364,N
181793,N
182236,N
182677,N
183125,N
183568,N
184012,N
184452,N
184879,N
185314,N
185744,N
186179,N
186605,N
187037,N
187462,N
187880,N
188302,N
188728,N
189135,N
189556,N
189962,N
190374,N
190786,N
191197,N
191622,N
192031,N
192457,N
192882,N
193294,N
193722,N
194142,N
194571,N
194989,N
195424,N
195847,N
196258,N
196684,N
197107,N
197542,N
197967,N
198405,N
198828,N
199263,N
199696,N
200125,N
200556,N
200988,N
201423,N
201853,N
202277,N
202707,N
203131,N
203554,N
203979,N
204399,N
204811,N
205233,N
205651,N
206063,N
206474,N
206895,N
207311,N
207733,N
208151,N
208588,N
209010,N
209445,N
209884,N
210318,N
210753,N
211175,N
211608,N
212039,N
212473,N
212918,N
213343,N
213784,N
214216,N
214665,N
215099,N
215533,N
215964,N
216383,N
216812,N
217238,N
217660,N
218095,N
218521,N
218952,N
219377,N
219809,N
220242,N
220660,N
221090,N
221511,N
221933,N
222358,N
222784,N
223222,N
223635,N
224074,N
224493,N
224912,N
225343,N
225773,N
226208,N
226632,N
227066,N
227510,N
227928,N
228355,N
228786,N
229206,N
229638,N
230067,N
230499,N
230939,N
231355,N
231774,N
232165,N
232569,N
232959,N
233352,N
233754,N
234153,N
234567,N
234965,N
235391,N
235813,N
236235,N
236664,N
237086,N
237516,N
237934,N
238369,N
238792,N
239219,N
239643,N
240071,N
240494,N
240906,N
241334,N
241744,N
242169,N
242584,N
243024,N
243449,N
243884,N
244325,N
244742,N
245177,N
245609,N
246036,N
246465,N
246889,N
247326,N
247745,N
248177,N
248606,N
249031,N
249458,N
249885,N
250315,N
250739,N
251162,N
251595,N
252019,N
252459,N
252883,N
253320,N
253738,N
254164,N
254582,N
254998,N
255429,N
255839,N
256260,N
256671,N
257075,N
257479,N
257864,N
258242,N
258614,N
258971,N
259327,N
259633,N
260008,N
260343,N
260640,|
261009,N
261312,N
261527,N
261883,N
262225,N
262564,N
262908,N
263254,N
263599,N
263956,N
264319,N
264682,N
265061,N
265450,N
265848,N
266259,N
266674,N
267108,N
267538,N
267974,N
268399,N
268835,N
269251,N
269680,N
270109,N
270526,N
270937,N
271332,N
271735,N
272102,N
272480,N
272858,N
273223,N
273606,N
273983,N
274379,N
274791,N
275203,N
275642,N
276070,N
276512,N
276944,N
277394,N
277822,N
278274,N
278706,N
279156,N
279588,N
280034,N
280469,N
280907,N
281346,N
281786,N
282227,N
282665,N
283110,N
283542,N
283984,N
284419,N
284854,N
285283,N
285709,N
286141,N
286550,N
286972,N
287378,N
287790,N
288197,N
288608,N
289030,N
289439,N
289866,N
290285,N
290722,N
291141,N
291570,N
291993,N
292425,N
292863,N
293292,N
293730,N
294150,N
294592,N
295013,N
295456,N
295887,N
296330,N
296761,N
297184,N
297616,N
298031,N
298456,N
298885,N
299303,N
299729,N
300151,N
300581,N
301005,N
301429,N
301853,N
302266,N
302684,N
303100,N
303516,N
303932,N
304348,N
304766,N
305179,N
305603,N
306022,N
306441,N
306865,N
307280,N
307699,N
308101,N
308519,N
308932,N
309364,N
309793,N
310224,N
310661,N
311080,N
311514,N
311937,N
312371,N
312805,N
313232,N
313668,N
314084,N
314522,N
314945,N
315373,N
315805,N
316220,N
316655,N
317079,N
317517,N
317946,N
318368,N
318794,N
319202,N
319620,N
320026,N
320443,N
320851,N
321278,N
321702,N
322118,N
322546,N
322979,N
323404,N
323837,N
324252,N
324672,N
325092,N
325515,N
325948,N
326360,N
326786,N
327201,N
327626,N
328054,N
328481,N
328902,N
329331,N
329772,N
330183,N
330611,N
331027,N
331452,N
331872,N
332284,N
332713,N
333122,N
333546,N
333959,N
334384,N
334809,N
335223,N
335655,N
336072,N
336492,N
336914,N
337321,N
337745,N
338160,N
338587,N
339009,N
339434,N
339872,N
340301,N
340737,N
341168,N
341601,N
342037,N
342469,N
342912,N
343333,N
343767,N
344192,N
344621,N
345046,N
345460,N
345885,N
346296,N
346717,N
347149,N
347563,N
347998,N
348412,N
348844,N
349265,N
349684,N
350106,N
350518,N
350948,N
351363,N
351793,N
352217,N
352639,N
353068,N
353480,N
353907,N
354322,N
354747,N
355170,N
355595,N
356021,N
356436,N
356864,N
357287,N
357703,N
358132,N
358548,N
358975,N
359405,N
359836,N
360265,N
360684,N
361126,N
361538,N
361960,N
362370,N
362794,N
363220,N
363640,N
364071,N
364460,N
364837,N
365210,N
365581,N
365950,N
366317,N
366690,N
367070,N
367459,N
367867,N
368300,N
368742,N
369193,N
369652,N
370092,N
370528,N
370968,N
371431,N
371867,N
372313,N
372753,N
373198,N
373634,N
374079,N
374524,N
374950,N
375388,N
375804,N
376227,N
376641,N
377054,N
377472,N
377869,N
378305,N
378730,N
379159,N
379604,N
380023,N
380462,N
380892,N
381339,N
381786,N
382216,N
382664,N
383113,N
383554,N
384011,N
384438,N
384875,N
385307,N
385759,N
386198,N
386647,N
387092,N
387534,N
387976,N
388416,N
388848,N
389281,N
389712,N
390146,N
390570,N
391003,N
391429,N
391860,N
392279,N
392704,N
393136,N
393548,N
393967,N
394389,N
394818,N
395238,N
395676,N
396102,N
396521,N
396949,N
397361,N
397776,N
398203,N
398622,N
399041,N
399449,N
399876,N
400308,N
400740,N
401188,N
401615,N
402054,N
402479,N
402922,N
403354,N
403800,N
404247,N
404677,N
405120,N
405543,N
405975,N
406392,N
406826,N
407252,N
407670,N
408092,N
408512,N
408936,N
409356,N
409784,N
410214,N
410632,N
411070,N
411502,N
411932,N
412364,N
412783,N
413214,N
413631,N
414049,N
414471,N
414877,N
415313,N
415731,N
416169,N
416591,N
417031,N
417473,N
417895,N
418337,N
418761,N
419191,N
419617,N
420042,N
420477,N
420889,N
421330,N
421749,N
422189,N
422620,N
423053,N
423481,N
423904,N
424329,N
424742,N
425163,N
425596,N
426015,N
426442,N
426862,N
427288,N
427707,N
428116,N
428541,N
428959,N
429373,N
429805,N
430219,N
430648,N
431055,N
431489,N
431918,N
432338,N
432778,N
433200,N
433636,N
434064,N
434503,N
434936,N
435367,N
435807,N
436222,N
436656,N
437077,N
437511,N
437933,N
438352,N
438775,N
439188,N
439608,N
440037,N
440456,N
440880,N
441292,N
441716,N
442133,N
442548,N
442980,N
443395,N
443827,N
444250,N
444685,N
445103,N
445535,N
445969,N
446400,N
446854,N
447278,N
447720,N
448142,N
448580,N
449014,N
449438,N
449872,N
450288,N
450720,N
451149,N
451584,N
452023,N
452452,N
452892,N
453316,N
453747,N
454188,N
454609,N
455036,N
455472,N
455907,N
456335,N
456771,N
457199,N
457625,N
458061,N
458474,N
458902,N
459321,N
459749,N
460179,N
460594,N
461028,N
461441,N
461857,N
462276,N
462682,N
463108,N
463527,N
463955,N
464394,N
464816,N
465248,N
465669,N
466095,N
466518,N
466946,N
467374,N
467791,N
468219,N
468647,N
469073,N
469502,N
469920,N
470343,N
470752,N
471175,N
471594,N
472013,N
472437,N
472848,N
473263,N
473672,N
474088,N
474515,N
474924,N
475356,N
475766,N
476194,N
476614,N
477053,N
477487,N
477906,N
478329,N
478741,N
479167,N
479589,N
480001,N
480426,N
480843,N
481264,N
481684,N
482100,N
482531,N
482953,N
483382,N
483818,N
484242,N
484669,N
485084,N
485518,N
485940,N
486376,N
486811,N
487240,N
487676,N
488092,N
488529,N
488936,N
489367,N
489787,N
490212,N
490640,N
491057,N
491485,N
491897,N
492326,N
492745,N
493155,N
493577,N
493986,N
494417,N
494834,N
495271,N
495703,N
496123,N
496552,N
496974,N
497398,N
497828,N
498247,N
498676,N
499097,N
499527,N
499955,N
500377,N
500809,N
501222,N
501638,N
502057,N
502474,N
502903,N
503307,N
503744,N
504158,N
504586,N
505014,N
505439,N
505865,N
506278,N
506713,N
507135,N
507558,N
507992,N
508409,N
508840,N
509259,N
509687,N
510110,N
510526,N
510951,N
511371,N
511792,N
512220,N
512633,N
513049,N
513458,N
513871,N
514296,N
514699,N
515128,N
515539,N
515959,N
516375,N
516803,N
517234,N
517651,N
518080,N
518494,N
518910,N
519327,N
519749,N
520170,N
520576,N
521008,N
521418,N
521846,N
522274,N
522698,N
523122,N
523545,N
523967,N
524388,N
524801,N
525228,N
525642,N
526061,N
526484,N
526896,N
527311,N
527714,N
528136,N
528555,N
528974,N
529400,N
529813,N
530232,N
530637,N
531053,N
531471,N
531880,N
532305,N
532714,N
533133,N
533539,N
533966,N
534388,N
534799,N
535229,N
535648,N
536073,N
536502,N
536917,N
537346,N
537762,N
538196,N
538615,N
539034,N
539459,N
539875,N
540292,N
540716,N
541139,N
541558,N
541967,N
542398,N
542814,N
543236,N
543655,N
544075,N
544493,N
544900,N
545332,N
545751,N
546169,N
546592,N
547008,N
547420,N
547848,N
548267,N
548706,N
549120,N
549554,N
549972,N
550404,N
550829,N
551261,N
551690,N
552110,N
552537,N
552946,N
553366,N
553788,N
554201,N
554615,N
555025,N
555447,N
555862,N
556282,N
556707,N
557126,N
557546,N
557963,N
558380,N
558788,N
559202,N
559623,N
560036,N
560458,N
560879,N
561295,N
561712,N
562126,N
562555,N
562965,N
563391,N
563805,N
564228,N
564640,N
565070,N
565495,N
565913,N
566343,N
566762,N
567186,N
567596,N
568018,N
568446,N
568869,N
569308,N
569722,N
570146,N
570555,N
570983,N
571412,N
571828,N
572260,N
572672,N
573097,N
573516,N
573938,N
574358,N
574766,N
575185,N
575585,N
576003,N
576418,N
576850,N
577259,N
577668,N
578071,N
578467,N
578861,N
579256,N
579655,N
580054,N
580463,N
580884,N
581315,N
581741,N
582180,N
582612,N
583046,N
583472,N
583903,N
584328,N
584741,N
585171,N
585590,N
586014,N
586452,N
586873,N
587305,N
587719,N
588146,N
588564,N
588992,N
589425,N
589841,N
590270,N
590685,N
591117,N
591542,N
591961,N
592387,N
592798,N
593224,N
593644,N
594069,N
594490,N
594910,N
595336,N
595745,N
596164,N
596589,N
597007,N
597432,N
597851,N
598275,N
598700,N
599121,N
599554,N
599969,N
600399,N
600817,N
601235,N
601655,N
602071,N
602496,N
602904,N
603334,N
603746,N
604162,N
604583,N
604992,N
605412,N
605814,N
606239,N
606652,N
607059,N
607483,N
607897,N
608321,N
608746,N
609162,N
609587,N
609998,N
610417,N
610852,N
611266,N
611698,N
612115,N
612534,N
612952,N
613367,N
613793,N
614206,N
614628,N
615051,N
615457,N
615884,N
616300,N
616725,N
617154,N
617576,N
617999,N
618409,N
618826,N
619249,N
619669,N
620103,N
620532,N
620967,N
621395,N
621818,N
622250,N
622660,N
623081,N
623510,N
623926,N
624357,N
624767,N
625196,N
625604,N
626026,N
626448,N
626851,N
627273,N
627687,N
628118,N
628544,N
628970,N
629400,N
629810,N
630238,N
630660,N
631090,N
631515,N
631947,N
632380,N
632798,N
633224,N
633649,N
634071,N
634491,N
634909,N
635331,N
635746,N
636170,N
636600,N
637010,N
637443,N
637854,N
638276,N
638689,N
639107,N
639533,N
639943,N
640364,N
640776,N
641182,N
641595,N
642004,N
642426,N
642832,N
643257,N
643677,N
644083,N
644498,N
644911,N
645329,N
645746,N
646155,N
646573,N
646980,N
647392,N
647813,N
648220,N
648642,N
649064,N
649489,N
