55,N
359,N
662,N
968,N
1270,N
1574,N
1866,N
2163,N
2462,N
2753,N
3041,N
3351,N
3662,N
3966,N
4270,N
4569,N
4870,N
5160,N
5452,N
5750,N
6047,N
6339,N
6631,N
6916,N
7201,N
7492,N
7780,N
8068,N
8365,N
8652,N
8954,N
9253,N
9552,N
9863,N
10165,N
10467,N
10776,N
11012,N
11370,N
11674,N
11979,N
12280,N
12583,N
12887,N
13185,N
13484,N
13778,N
14059,N
14347,N
14626,N
14903,N
15196,N
15484,N
15777,N
16078,N
16380,N
16688,N
16992,N
17300,N
17610,N
17919,N
18230,N
18536,N
18841,N
19143,N
19446,N
19748,N
20043,N
20349,N
20642,N
20945,N
21253,N
21554,N
21856,N
22163,N
22463,N
22765,N
23063,N
23361,N
23655,N
23954,N
24260,N
24553,N
24850,N
25155,N
25461,N
25763,N
26065,N
26364,N
26662,N
26963,N
27266,N
27563,N
27861,N
28164,N
28457,N
28755,N
29048,N
29339,N
29637,N
29933,N
30228,N
30525,N
30817,N
31108,N
31399,N
31693,N
31974,N
32259,N
32547,N
32836,N
33127,N
33415,N
33644,N
33970,N
34276,N
34564,N
34851,N
35137,N
35372,N
35688,N
35980,N
36265,N
36549,N
36831,N
37117,N
37407,N
37695,N
37918,N
38246,N
38470,N
38838,N
39133,N
39416,N
39699,N
39980,N
40270,N
40507,N
40815,N
41113,N
41400,N
41695,N
41985,N
42274,N
42569,N
42863,N
43163,N
43461,N
43753,N
44048,N
44338,N
44630,N
44924,N
45219,N
45510,N
45796,N
46099,N
46392,N
46682,N
46979,N
47272,N
47556,N
47848,N
48135,N
48417,N
48701,N
48997,N
49284,N
49576,N
49869,N
50164,N
50462,N
50764,N
51067,N
51368,N
51672,N
51975,N
52279,N
52577,N
52883,N
53188,N
53490,N
53797,N
54104,N
54406,N
54714,N
55024,N
55325,N
55627,N
55937,N
56239,N
56542,N
56850,N
57145,N
57447,N
57745,N
58039,N
58339,N
58625,N
58920,N
59216,N
59509,N
59805,N
60098,N
60384,N
60673,N
60902,N
61222,N
61517,N
61812,N
62096,N
62387,N
62677,N
62963,N
63256,N
63547,N
63838,N
64130,N
64427,N
64941,N
65264,N
65562,N
65858,N
66148,N
66433,N
66734,N
67025,N
67316,N
67612,N
67909,N
68201,N
68505,N
68808,N
69363,N
69683,N
69996,N
70307,N
70602,N
70901,N
71195,N
71493,N
71739,N
72091,N
72330,N
72704,N
73025,N
73338,N
73650,N
73957,N
74255,N
74563,N
74866,N
75156,N
75446,N
75747,N
76045,N
76344,N
76644,N
76944,N
77244,N
77547,N
77851,N
78150,N
78448,N
78756,N
79063,N
79364,N
79667,N
79968,N
80270,N
80581,N
80823,N
81177,N
81478,N
81783,N
82079,N
82374,N
82668,N
82961,N
83255,N
83547,N
83843,N
84131,N
84414,N
84704,N
84992,N
85281,N
85572,N
85861,N
86151,N
86442,N
86740,N
87024,N
87309,N
87608,N
87893,N
88193,N
88482,N
88779,N
89041,N
89385,N
89689,N
89986,N
90287,N
90599,N
90910,N
91212,N
91516,N
91826,N
92134,N
92449,N
92766,N
93080,N
93404,N
93725,N
94044,N
94342,N
94654,N
94884,|
95270,N
95567,N
95859,N
96150,N
96437,N
96731,N
97026,N
97312,N
97606,N
97901,N
98196,N
98500,N
98798,N
99013,N
99341,N
99648,N
99939,N
100228,N
100522,N
100747,N
101064,N
101372,N
101658,N
101946,N
102240,N
102475,N
102809,N
103130,N
103656,N
103985,N
104283,N
104580,N
104882,N
105175,N
105454,N
105768,N
106062,N
106363,N
106655,N
106947,N
107256,N
107552,N
107846,N
108143,N
108438,N
108727,N
109002,N
109289,N
109564,N
109803,N
110108,N
110398,N
110681,N
110965,N
111253,N
111483,N
111810,N
112111,N
112414,N
112704,N
112997,N
113301,N
113592,N
113884,N
114182,N
114477,N
114774,N
115070,N
115368,N
115667,N
115965,N
116266,N
116568,N
116869,N
117164,N
117467,N
117766,N
118054,N
118349,N
118643,N
118937,N
119241,N
119537,N
119835,N
120132,N
120442,N
120743,N
121036,N
121347,N
121644,N
121946,N
122247,N
122543,N
122844,N
123127,N
123418,N
123719,N
124004,N
124298,N
124592,N
124883,N
125182,N
125461,N
125685,N
126032,N
126337,N
126638,N
126930,N
127142,N
127459,N
127693,N
128038,N
128272,N
128608,N
128841,N
129190,N
129489,N
129784,N
129989,N
130306,N
130602,N
130892,N
131181,N
131463,N
131737,|
131962,|
132294,N
132565,N
132833,N
133109,N
133381,N
133652,N
133932,N
134212,N
134480,N
134754,N
135033,N
135300,N
135569,N
135829,N
136094,N
136358,N
136624,N
136888,N
137156,N
137419,N
137683,N
137952,N
138221,N
138488,N
138744,N
139016,N
139280,N
139542,N
139808,N
140080,N
140341,N
140604,N
140877,N
141142,N
141407,N
141641,N
141929,N
142187,N
142451,N
142708,N
142966,N
143220,N
143476,N
143729,N
143984,N
144239,N
144491,N
144737,N
144991,N
145244,N
145492,N
145747,N
146002,N
146248,N
146493,N
146746,N
147001,N
147249,N
147491,N
147737,N
147984,N
148225,N
148471,N
148717,N
148961,N
149204,N
149449,N
149697,N
149940,N
150188,N
150431,N
150670,N
150915,N
151158,N
151403,N
151642,N
151887,N
152127,N
152365,N
152603,N
152852,N
153092,N
153331,N
153569,N
153816,N
154054,N
154296,N
154539,N
154790,N
155030,N
155280,N
155524,N
155773,N
156017,N
156262,N
156504,N
156745,N
156990,N
157236,N
157477,N
157725,N
157971,N
158162,N
158446,N
158702,N
158957,N
159211,N
159461,N
159713,N
159970,N
160222,N
160471,N
160728,N
160983,N
161225,N
161473,N
161662,N
161937,N
162190,N
162439,N
162687,N
162935,N
163187,N
163440,N
163696,N
163953,N
164213,N
164468,N
164730,N
164995,N
165250,N
165509,N
165776,N
165940,N
166209,N
166517,N
166795,N
167060,N
167322,N
167589,N
167858,N
168121,N
168391,N
168654,N
168912,N
169174,N
169433,N
169695,N
169953,N
170211,N
170463,N
170728,N
170984,N
171249,N
171498,N
171766,N
172024,N
172283,N
172548,N
172812,N
173068,N
173318,N
173582,N
173835,N
174095,N
174345,N
174603,N
174852,N
175111,N
175369,N
175632,N
175883,N
176142,N
176400,N
176649,N
176928,N
177192,N
177444,N
177705,N
177873,N
178184,N
178489,N
178757,N
178893,N
178985,N
179243,N
179427,N
179549,N
179771,N
180063,N
180256,N
180589,N
180753,|
181109,N
181315,|
181485,N
181617,N
181892,N
182151,N
182393,N
182670,N
182933,N
183187,|
183447,N
183704,N
183964,N
184170,N
184468,N
184730,N
184987,N
185243,N
185512,N
185767,N
186021,N
186271,N
186461,N
186745,N
186998,N
187256,N
187515,N
187760,N
188011,N
188261,N
188515,N
188762,N
189013,N
189261,N
189507,N
189755,N
190007,N
190254,N
190503,N
190751,N
190931,N
191210,N
191468,N
191717,N
191966,N
192213,N
192465,N
192711,N
192957,N
193209,N
193435,N
193707,N
193961,N
194224,N
194484,N
194746,N
195006,N
195273,N
195535,N
195801,N
196065,N
196331,N
196599,N
196870,N
197137,N
197410,N
197679,N
197950,N
198217,N
198491,N
198762,N
199034,N
199312,N
199587,N
199781,N
200084,N
200367,N
200563,N
200879,N
201154,N
201430,N
201704,N
201983,N
202261,N
202540,N
202823,N
203103,N
203391,N
203674,N
203953,N
204235,N
204407,N
204797,N
205076,N
205364,N
205641,N
205914,N
206198,N
206480,N
206758,N
207036,N
207323,N
207599,N
207877,N
208156,N
208433,N
208711,N
208984,N
209262,N
209539,N
209820,N
210093,N
210371,N
210649,N
210923,N
211205,N
211477,N
211743,N
212011,N
212285,N
212556,N
212822,N
213093,N
213362,N
213631,N
213905,N
214184,N
214455,N
214733,N
215011,N
215290,N
215574,N
215850,N
216130,N
216412,N
216690,N
216969,N
217168,N
217473,N
217751,N
218029,N
218307,N
218580,N
218848,N
219125,N
219398,N
219671,N
219948,N
220226,N
220496,N
220769,N
221053,N
221319,N
221597,N
221871,N
222146,N
222415,N
222687,N
222961,N
223235,N
223511,N
223782,N
224057,N
224330,N
224607,N
224883,N
225154,N
225431,N
225704,N
225989,N
226260,N
226453,N
226754,N
227040,N
227313,N
227582,N
227854,N
228113,N
228384,N
228658,N
228934,N
229208,N
229483,N
229758,N
230033,N
230318,N
230592,N
230867,N
231142,N
231415,N
231687,N
231971,N
232243,N
232511,N
232790,N
233068,N
233349,N
233614,N
233893,N
234176,N
234452,N
234740,N
234940,N
235244,N
235525,N
235809,N
236087,N
236366,N
236638,N
236920,N
237205,N
237491,N
237777,N
238064,N
238349,N
238635,N
238932,N
239217,N
239412,N
239728,N
240013,N
240301,N
240517,N
240867,N
241163,N
241461,N
241766,N
242067,N
242375,N
242677,N
242984,N
243301,N
243606,N
243923,N
244230,N
244534,N
244850,N
245161,N
245461,N
245772,N
246079,N
246341,N
246681,N
246980,N
247275,N
247575,N
247879,N
248175,N
248471,N
248772,N
249084,N
249395,N
249709,N
250030,N
250351,N
250665,N
250991,N
251303,N
251616,N
251932,N
252240,N
252550,N
252861,N
253158,N
253358,N
253704,N
254007,N
254317,N
254631,N
254942,N
255264,N
255587,N
255904,N
256222,N
256536,N
256853,N
257172,N
257479,N
257793,N
258106,N
258418,N
258735,N
259046,N
259354,N
259672,N
259975,N
260280,N
260587,N
260888,N
261111,N
261469,N
261769,N
262073,N
262377,N
262583,N
262909,N
263203,N
263403,N
263722,N
263948,N
264277,N
264568,N
264851,N
265127,N
265414,N
265690,N
265968,N
266240,N
266522,N
266796,N
267071,N
267356,N
267631,N
267800,N
268141,|
268443,N
268669,N
268978,N
269202,|
269768,N
270037,N
270305,N
270575,N
270835,N
271109,N
271384,N
271568,|
271911,|
272182,|
272400,N
272699,N
272962,N
273159,|
273345,N
273447,|
273766,N
273954,N
274258,N
274376,N
274526,N
274792,N
275056,N
275327,N
275486,N
275792,N
276080,|
276288,|
276620,N
276921,N
277178,N
277449,N
277671,N
277963,N
278227,N
278484,N
278747,N
279001,N
279235,N
279523,N
279789,N
280056,N
280336,N
280606,N
280882,N
281156,N
281428,N
281704,N
281991,N
282277,N
282555,N
282842,N
283131,N
283421,N
283710,N
283994,N
284283,N
284570,N
284854,N
285142,N
285437,N
285720,N
286004,N
286301,N
286515,N
286825,N
287124,N
287421,N
287712,N
288006,N
288300,N
288588,N
288883,N
289179,N
289477,N
289780,N
290072,N
290369,N
290667,N
290964,N
291260,N
291548,N
291792,N
292058,N
292355,N
292637,N
292910,N
293194,N
293469,N
293747,N
294032,N
294319,N
294600,N
294885,N
295181,N
295465,N
295759,N
296045,N
296332,N
296628,N
296916,N
297212,N
297504,N
297793,N
298096,N
298391,N
298685,N
298980,N
299275,N
299568,N
300133,N
300456,N
300766,N
301077,N
301368,N
301656,N
301945,N
302229,N
302521,N
302809,N
303096,N
303382,N
303664,N
303949,N
304233,N
304511,N
304783,N
305064,N
305342,N
305564,N
306004,N
306310,N
306588,N
306874,N
307089,N
307382,N
307662,N
307940,N
308213,N
308484,N
308762,N
309036,N
309305,N
309522,N
309807,N
310087,N
310369,N
310644,N
311138,N
311442,N
311721,N
312005,N
312278,N
312546,N
312831,N
313105,N
313377,N
313654,N
313934,N
314146,N
314448,N
314749,N
315032,N
315320,N
315605,N
315890,N
316174,N
316459,N
316742,N
317020,N
317308,N
317591,N
317874,N
318161,N
318446,N
318740,N
319029,N
319321,N
319537,N
319908,N
320229,N
320538,N
320852,N
321150,N
321443,N
321742,N
322030,N
322320,N
322609,N
322894,N
323185,N
323482,N
323774,N
324066,N
324359,N
324654,N
324945,N
325234,N
325515,N
325809,N
326097,N
326390,N
326686,N
326975,N
327264,N
327554,N
327852,N
328141,N
328428,N
328719,N
328998,N
329289,N
329579,N
329865,N
330093,N
330532,N
330876,N
331184,N
331466,N
331760,N
332048,N
332329,N
332624,N
332908,N
333192,N
333478,N
333769,N
334057,N
334336,N
334627,N
334911,N
335196,N
335487,N
335772,N
336056,N
336341,N
336630,N
336915,N
337200,N
337480,N
337762,N
338050,N
338334,N
338620,N
338904,N
339178,N
339392,N
339693,N
339983,N
340252,N
340536,N
340811,N
341081,N
341364,N
341647,N
341918,N
342200,N
342484,N
342706,N
343140,N
343443,N
343722,N
344002,N
344275,N
344553,N
344827,N
345056,N
345358,N
345643,N
345853,N
346189,N
346476,N
346753,N
347033,N
347311,N
347589,N
347868,N
348149,N
348443,N
348718,N
348996,N
349279,N
349560,N
349844,N
350135,N
350423,N
350695,N
350924,N
351230,N
351518,N
351806,N
352083,N
352361,N
352634,N
352915,N
353199,N
353484,N
353756,N
354033,N
354275,N
354591,N
354884,N
355170,N
355445,N
355728,N
355969,N
356292,N
356570,N
356849,N
357129,N
357407,N
357690,N
357967,N
358248,N
358527,N
358805,N
359084,N
359266,|
359652,N
359937,N
360223,N
360505,N
360783,N
361064,N
361351,N
361634,N
361855,N
362170,N
362483,N
362784,N
363087,N
363384,N
363684,N
363979,N
364281,N
364578,N
364876,N
365175,N
365471,N
365764,N
366062,N
366623,N
366922,N
367230,N
367523,N
367816,N
368114,N
368402,N
368690,N
368978,N
369271,N
369557,N
369847,N
370136,N
370424,N
370714,N
371003,N
371295,N
371583,N
371866,N
372155,N
372440,N
372717,N
372993,N
373277,N
373555,N
373840,N
374131,N
374413,N
374697,N
374989,N
375281,N
375571,N
375862,N
376151,N
376436,N
376730,N
376944,N
377266,N
377568,N
377859,N
378157,N
378452,N
378736,N
379031,N
379564,N
379872,N
380176,N
380467,N
380759,N
381060,N
381347,N
381630,N
381920,N
382199,N
382484,N
382776,N
383067,N
383358,N
383655,N
383943,N
384248,N
384548,N
384843,N
385135,N
385430,N
385723,N
386016,N
386315,N
386600,N
386905,N
387199,N
387484,N
387783,N
388073,N
388362,N
388657,N
388953,N
389239,N
389523,N
389809,N
390095,N
390381,N
390669,N
390943,N
391224,N
391506,N
391791,N
392075,N
392361,N
392656,N
392946,N
393241,N
393529,N
393828,N
394125,N
394417,N
394723,N
395019,N
395313,N
395618,N
395919,N
396216,N
396508,N
396792,N
397083,N
397341,N
397679,N
397971,N
398259,N
398555,N
398848,N
399142,N
399352,N
399656,N
399964,N
400249,N
400552,N
400854,N
401149,N
401452,N
401763,N
402061,N
402355,N
402657,N
402948,N
403246,N
403548,N
403835,N
404080,N
404436,N
404739,N
405030,N
405330,N
405626,N
405923,N
406223,N
406516,N
406737,N
407055,N
407354,N
407664,N
407964,N
408256,N
408563,N
408859,N
409160,N
409468,N
410010,N
410324,N
410633,N
410941,N
411240,N
411542,N
411847,N
412151,N
412452,N
412754,N
413057,N
413358,N
413666,N
413967,N
414266,N
414573,N
414878,N
415179,N
415492,N
415788,N
416088,N
416398,N
416697,N
416991,N
417290,N
417584,N
417879,N
418179,N
418481,N
418778,N
419069,N
419368,N
419665,N
419952,N
420234,N
420532,N
420821,N
421106,N
421397,N
421684,N
421966,N
422251,N
422493,N
422801,N
423085,N
423348,N
423652,N
423933,N
424168,N
424469,N
424751,N
425025,N
425304,N
425575,N
425851,N
426123,N
426403,N
426685,N
426966,N
427260,N
427545,N
427830,N
428124,N
428410,N
428700,N
428983,N
429271,N
429555,N
429844,N
430132,N
430409,N
430639,N
430970,N
431266,N
431556,N
431842,N
432134,N
432428,N
432721,N
433020,N
433318,N
433613,N
433905,N
434209,N
434507,N
434802,N
435103,N
435398,N
435695,N
435997,N
436293,N
436585,N
436884,N
437190,N
437489,N
437795,N
438096,N
438396,N
438703,N
439007,N
439309,N
439612,N
439910,N
440215,N
440522,N
440810,N
441114,N
441413,N
441704,N
442012,N
442310,N
442598,N
442895,N
443195,N
443487,N
443772,N
444066,N
444351,N
444642,N
444938,N
445221,N
445509,N
445781,N
446076,N
446370,N
446653,N
446940,N
447225,N
447507,N
447713,N
448026,N
448312,N
448597,N
448898,N
449191,N
449482,N
449774,N
450071,N
450360,N
450660,N
450960,N
451257,N
451558,N
451862,N
452163,N
452471,N
452766,N
453073,N
453383,N
453689,N
454002,N
454310,N
454612,N
454929,N
455239,N
455544,N
455855,N
456165,N
456474,N
456791,N
457099,N
457410,N
457726,N
458037,N
458343,N
458643,N
458952,N
459258,N
459560,N
459870,N
460169,N
460464,N
460777,N
461076,N
461375,N
461678,N
461984,N
462283,N
462593,N
462900,N
463193,N
463494,N
463800,N
464088,N
464377,N
464679,N
464964,N
465260,N
465564,N
465856,N
466155,N
466459,N
466759,N
467057,N
467351,N
467652,N
467948,N
468239,N
468541,N
468834,N
469125,N
469423,N
469725,N
470020,N
470311,N
470618,N
470912,N
471211,N
471519,N
471819,N
472116,N
472422,N
472720,N
473024,N
473316,N
473615,N
473920,N
474221,N
474526,N
474834,N
475138,N
475451,N
475762,N
476068,N
476376,N
476688,N
476994,N
477308,N
477618,N
477923,N
478236,N
478551,N
478859,N
479169,N
479484,N
479792,N
480355,N
480673,N
480979,N
481278,N
481571,N
481863,N
482138,N
482427,N
482669,N
482982,N
483288,N
483588,N
483882,N
484184,N
484492,N
484789,N
485081,N
485389,N
485683,N
485978,N
486284,N
486579,N
486876,N
487172,N
487476,N
487777,N
488069,N
488376,N
488614,N
488972,N
489181,N
489563,N
489868,N
490182,N
490493,N
490798,N
491103,N
491414,N
491643,N
492009,N
492346,N
492666,N
492985,N
493307,N
493628,N
493939,N
494250,N
494558,N
494873,N
495186,N
495501,N
495812,N
496129,N
496450,N
496765,N
496990,N
497363,N
497696,N
497884,N
498336,N
498650,N
498963,N
499199,N
499563,N
499893,N
500219,N
500540,N
500862,N
501192,N
501512,N
501828,N
502151,N
502461,N
502772,N
503091,N
503317,N
503688,N
504026,N
504344,N
504662,N
504988,N
505303,N
505619,N
505932,N
506236,N
506552,N
506860,N
507086,N
507442,N
507748,N
508062,N
508373,N
508595,N
508935,N
509242,N
509547,N
509855,N
510080,N
510424,N
510728,N
511040,N
511345,N
511646,N
511952,N
512251,N
512473,N
512830,N
513137,N
513446,N
513672,N
514022,N
514339,N
514646,N
514876,N
515228,N
515546,N
515860,N
516169,N
516476,N
516792,N
517097,N
517398,N
517706,N
518014,N
518318,N
518636,N
518949,N
519257,N
519572,N
519886,N
520199,N
520510,N
520819,N
521130,N
521446,N
521767,N
522078,N
522390,N
522714,N
523027,N
523332,N
523642,N
523954,N
524264,N
524570,N
524879,N
525190,N
525496,N
525806,N
526108,N
526415,N
526726,N
527031,N
527345,N
527658,N
527960,N
528265,N
528575,N
528877,N
529178,N
529474,N
529782,N
530083,N
530379,N
530690,N
530994,N
531289,N
531602,N
531785,N
532194,N
532499,N
532801,N
533098,N
533396,N
533700,N
534000,N
534296,N
534604,N
534911,N
535215,N
535516,N
535827,N
536134,N
536440,N
536756,N
537062,N
537363,N
537674,N
537978,N
538276,N
538589,N
538897,N
539207,N
539523,N
539833,N
540150,N
540468,N
540778,N
541094,N
541400,N
541711,N
542025,N
542331,N
542645,N
542961,N
543267,N
543581,N
543892,N
544196,N
544512,N
544823,N
545125,N
545437,N
545743,N
546045,N
546358,N
546663,N
546967,N
547276,N
547580,N
547883,N
548186,N
548493,N
548796,N
549095,N
549403,N
549711,N
549930,N
550250,N
550560,N
550859,N
551170,N
551475,N
551776,N
552077,N
552385,N
552691,N
552989,N
553293,N
553592,N
553893,N
554196,N
554491,N
554789,N
555087,N
555379,N
555683,N
555977,N
556275,N
556579,N
556777,N
557071,N
557448,N
557761,N
558073,N
558383,N
558687,N
558992,N
559297,N
559594,N
559898,N
560208,N
560501,N
560804,N
561113,N
561417,N
561722,N
562022,N
562320,N
562615,N
562918,N
563217,N
563507,N
563790,N
564005,N
564322,N
564617,N
564908,N
565207,N
565505,N
565809,N
566124,N
566425,N
566728,N
567046,N
567356,N
567658,N
567965,N
568261,N
568564,N
568872,N
569172,N
569478,N
569789,N
570100,N
570420,N
570731,N
571044,N
571242,N
571657,N
571889,N
572278,N
572580,N
572890,N
573199,N
573502,N
573805,N
574112,N
574423,N
574734,N
575045,N
575353,N
575666,N
575981,N
576291,N
576600,N
576907,N
577217,N
577526,N
577837,N
578150,N
578457,N
578768,N
579077,N
579384,N
579684,N
579869,|
580134,N
580255,|
580595,N
580854,N
581187,N
581482,N
581782,N
582067,N
582297,|
582489,N
582611,N
582908,N
583194,N
583482,N
583769,N
584002,N
584232,|
584535,|
584875,N
585151,N
585409,|
585677,N
585939,N
586198,N
586459,N
586724,N
586979,N
587232,N
587480,N
587713,N
587997,N
588247,N
588492,N
588616,|
589180,|
589378,N
589461,N
589680,N
589808,N
589908,|
590131,|
590436,N
590684,N
590856,N
590930,N
591143,N
591404,N
591651,N
591899,N
592114,N
592357,N
592636,N
592881,N
593122,N
593366,N
593616,N
593857,N
594098,N
594338,N
594582,N
594822,N
595063,N
595310,N
595555,N
595763,N
596038,N
596246,N
596530,N
596775,N
597021,N
597260,N
597504,N
597747,N
597989,N
598232,N
598478,N
598723,N
598968,N
599208,N
599399,N
599678,N
599927,N
600169,N
600424,N
600670,N
600911,N
601161,N
601415,N
601658,N
601906,N
602155,N
602411,N
602653,N
602902,N
603148,N
603397,N
603645,N
603899,N
604151,N
604405,N
604653,N
604908,N
605124,N
605419,N
605670,N
605923,N
606169,N
606424,N
606673,N
606921,N
607141,N
607431,N
607681,N
607932,N
608190,N
608448,N
608701,N
608952,N
609209,N
609461,N
609715,N
609967,N
610224,N
610476,N
610730,N
610982,N
611238,N
611493,N
611715,N
611999,N
612194,N
612615,N
612880,N
613143,N
613403,N
613656,N
613908,N
614166,N
614419,N
614670,N
614920,N
615112,N
615387,N
615639,N
615895,N
616150,N
616344,N
616631,N
616886,N
617145,N
617400,N
617658,N
617910,N
618165,N
618417,N
618673,N
618925,N
619184,N
619438,N
619619,|
619934,N
620192,N
620443,N
620692,N
620941,N
621196,N
621446,N
621634,|
621952,N
622201,N
622449,N
622696,N
622944,N
623195,N
623439,N
623688,N
623933,N
624120,N
624404,N
624662,N
624914,|
625175,N
625427,N
625681,N
625935,N
626196,N
626401,N
626702,N
626962,N
627214,N
627402,N
627582,N
627834,N
628095,N
628308,N
628596,N
628854,N
629110,N
629362,N
629608,N
629862,N
630109,N
630361,N
630615,N
630873,N
631120,N
631374,N
631626,N
631881,N
632136,N
632392,N
632640,N
632897,N
633152,N
633406,N
633660,N
633918,N
634173,N
634424,N
634684,N
634945,N
635204,N
635459,N
635721,N
635979,N
636235,N
636497,N
636765,N
637017,N
637278,N
637469,N
637893,N
638162,N
638420,N
638675,N
638928,N
639189,N
639382,N
639662,N
639920,N
640175,N
640427,N
640623,N
640904,N
641161,N
641406,N
641663,N
641917,N
642165,N
642420,N
642679,N
642930,N
643182,N
643438,N
643702,N
643956,N
644213,N
644466,N
644723,N
644976,N
645238,N
645499,N
645756,N
646014,N
646237,N
646524,N
646788,N
647052,N
647304,N
647505,N
647790,N
648056,N
648320,N
648589,N
648780,N
649214,N
649418,N
649731,N
