300,N
485,N
590,N
968,N
1305,N
1642,N
1961,N
2285,N
2470,N
2570,N
2946,N
3288,N
3603,N
3914,N
4248,N
4429,N
4523,N
4896,N
5230,N
5543,N
5872,N
6201,N
6512,N
6854,N
7190,N
7502,N
7691,N
7793,N
8169,N
8359,N
8850,N
9035,N
9131,N
9521,N
9719,N
9811,N
10184,N
10390,N
10483,N
10858,N
11048,N
11507,N
11818,N
12177,N
12492,N
12794,N
12982,N
13080,N
13454,N
13638,N
13738,N
14111,N
14308,N
14399,N
14779,N
14963,N
15062,N
15441,N
15758,N
16070,N
16394,N
16711,N
16891,N
16993,N
17353,N
17712,N
17895,N
18001,N
18351,N
18717,N
18903,N
19012,N
19392,N
19597,N
19702,N
20068,N
20426,N
20611,N
20716,N
21064,N
21279,N
21378,N
21725,N
21953,N
22042,N
22401,N
22735,N
23053,N
23373,N
23712,N
24045,N
24396,N
24700,N
25060,N
25246,N
25746,N
26063,N
26392,N
26719,N
27037,N
27357,N
27685,N
27865,N
27972,N
28361,N
28709,N
29046,N
29366,N
29694,N
29892,N
29997,N
30348,N
30558,N
31056,N
31244,N
31339,N
31719,N
32054,N
32365,N
32688,N
33015,N
33335,N
33657,N
33991,N
34320,N
34648,N
34985,N
35329,N
35657,N
36006,N
36344,N
36675,N
37018,N
37346,N
37672,N
38019,N
38307,N
38665,N
38969,N
39331,N
39648,N
39974,N
40291,N
40617,N
40942,N
41269,N
41599,N
41927,N
42108,N
42206,N
42587,N
42918,N
43240,N
43553,N
43871,N
44196,N
44508,N
44826,N
45012,N
45108,N
45482,N
45822,N
46151,N
46472,N
46804,N
47123,N
47308,N
47411,N
47786,N
47974,N
48070,N
48453,N
48678,N
49140,N
49480,N
49797,N
49985,N
50080,N
50459,N
50786,N
50967,N
51451,N
51778,N
52105,N
52425,N
52739,N
52924,N
53024,N
53398,N
53742,N
54071,N
54386,N
54717,N
55037,N
55323,N
55688,N
56010,N
56327,N
56663,N
56976,N
57155,N
57256,N
57643,N
57963,N
58140,N
58241,N
58615,N
58933,N
59119,N
59216,N
59583,N
59773,N
59869,N
60248,N
60561,N
60736,N
60831,N
61199,N
61508,N
61835,N
62163,N
62482,N
62670,N
63184,N
63510,N
63700,N
64202,N
64560,N
64745,N
65239,N
65578,N
65759,N
66243,N
66577,N
66766,N
66862,N
67252,N
67442,N
67926,N
68256,N
68437,N
68538,N
68905,N
69101,N
69201,N
69575,N
69771,N
69867,N
70240,N
70459,N
70921,N
71106,N
71205,N
71588,N
71783,N
71879,N
72258,N
72595,N
72919,N
73241,N
73585,N
73875,N
74094,N
74559,N
74781,N
74881,N
75272,N
75568,N
75923,N
76114,N
76216,N
76602,N
76791,N
77278,N
77468,N
77567,N
77947,N
78283,N
78597,N
78932,N
79265,N
79543,N
79914,N
80217,N
80592,N
80931,N
81276,N
81625,N
81805,N
81914,N
82289,N
82632,N
82951,N
83136,N
83241,N
83621,N
83808,N
83903,N
84295,N
84626,N
84930,N
85120,N
85221,N
85594,N
85781,N
85889,N
86262,N
86579,N
86766,N
86872,N
87244,N
87562,N
87752,N
87854,N
88229,N
88564,N
88750,N
88858,N
89231,N
89480,N
89940,N
90256,N
90441,N
90927,N
91274,N
91597,N
91873,N
92251,N
92432,N
92534,N
92909,N
93253,N
93583,N
93910,N
94231,N
94412,N
94513,N
94899,N
95236,N
95556,N
95871,N
96196,N
96382,N
96492,N
96869,N
97204,N
97543,N
97862,N
98045,N
98142,N
98523,N
98708,N
98810,N
99192,N
99521,N
99837,N
100020,N
100129,N
100502,N
100823,N
101108,N
101326,N
101416,N
101802,N
101991,N
102084,N
102462,N
102662,N
102764,N
103140,N
103458,N
103643,N
103739,N
104102,N
104417,N
104604,N
104697,N
105058,N
105373,N
105575,N
106023,N
106203,N
106690,N
106875,N
106979,N
107353,N
107554,N
107646,N
108017,N
108353,N
108537,N
108641,N
109007,N
109331,N
109513,N
109611,N
109958,N
110308,N
110488,N
110582,N
110965,N
111290,N
111472,N
111565,N
111946,N
112270,N
112454,N
112556,N
112928,N
113111,N
113589,N
113900,N
114201,N
114516,N
114820,N
115140,N
115468,N
115779,N
115960,N
116060,N
116448,N
116636,N
116731,N
117076,N
117400,N
117742,N
117929,N
118034,N
118375,N
118719,N
118912,N
119012,N
119382,N
119697,N
119881,N
119978,N
120345,N
120663,N
120851,N
120941,N
121300,N
121627,N
121808,N
121900,N
122257,N
122576,N
122756,N
122851,N
123221,N
123548,N
123866,N
124180,N
124364,N
124456,N
124800,N
125015,N
125107,N
125476,N
125794,N
126104,N
126413,N
126730,N
127038,N
127354,N
127636,N
127981,N
128300,N
128635,N
128948,N
129266,N
129599,N
129911,N
130090,N
130186,N
130560,N
130746,N
130843,N
131221,N
131548,N
131855,N
132049,N
132144,N
132519,N
132706,N
132807,N
133148,N
133456,N
133671,N
133770,N
134137,N
134418,N
134630,N
134731,N
135099,N
135415,N
135592,N
135690,N
136058,N
136378,N
136564,N
136669,N
137036,N
137353,N
137543,N
137642,N
138017,N
138325,N
138505,N
138599,N
138964,N
139284,N
139599,N
139922,N
140255,N
140577,N
140868,N
141231,N
141553,N
141889,N
142078,N
142176,N
142554,N
142901,N
143185,N
143526,N
143855,N
144131,N
144485,N
144815,N
145126,N
145449,N
145781,N
146100,N
146415,N
146706,N
147066,N
147352,N
147715,N
148032,N
148356,N
148679,N
148987,N
149308,N
149597,N
149957,N
150235,N
150559,N
150922,N
151224,N
151538,N
151720,N
151816,N
152185,N
152522,N
152849,N
153157,N
153481,N
153671,N
153762,N
154145,N
154480,N
154793,N
155114,N
155447,N
155759,N
156089,N
156430,N
156750,N
156927,N
157415,N
157742,N
157931,N
158039,N
158416,N
158738,N
158930,N
159034,N
159418,N
159735,N
159918,N
160017,N
160383,N
160705,N
160888,N
160979,N
161317,N
161538,N
161630,N
162007,N
162289,N
162629,N
162811,N
162912,N
163296,N
163614,N
163941,N
164246,N
164601,N
164920,N
165254,N
165576,N
165757,N
165869,N
166248,N
166432,N
166527,N
166919,N
167224,N
167567,N
167757,N
167856,N
168234,N
168422,N
168529,N
168905,N
169093,N
169186,N
169573,N
169907,N
170212,N
170531,N
170852,N
171035,N
171137,N
171517,N
171855,N
172191,N
172508,N
172829,N
173017,N
173118,N
173494,N
173844,N
174171,N
174486,N
174825,N
175141,N
175458,N
175795,N
176111,N
176433,N
176773,N
177098,N
177421,N
177755,N
178078,N
178394,N
178717,N
179042,N
179366,N
179686,N
180004,N
180325,N
180649,N
180966,N
181277,N
181603,N
181927,N
182242,N
182568,N
182890,N
183214,N
183505,N
183864,N
184182,N
184516,N
184838,N
185161,N
185495,N
185813,N
186136,N
186460,N
186775,N
187095,N
187428,N
187754,N
188068,N
188371,N
188744,N
189055,N
189383,N
189706,N
190025,N
190318,N
190672,N
190994,N
191324,N
191641,N
191958,N
192283,N
192607,N
192931,N
193257,N
193581,N
193897,N
194210,N
194521,N
194831,N
195144,N
195466,N
195772,N
196099,N
196291,N
196390,N
196764,N
197104,N
197431,N
197747,N
198082,N
198261,N
198364,N
198743,N
199058,N
199392,N
199747,N
200075,N
200256,N
200367,N
200750,N
201092,N
201420,N
201745,N
202072,N
202251,N
202359,N
202735,N
203044,N
203404,N
203712,N
204041,N
204358,N
204540,N
204650,N
205029,N
205351,N
205534,N
206035,N
206364,N
206545,N
207039,N
207374,N
207553,N
207667,N
208034,N
208368,N
208555,N
208665,N
209035,N
209367,N
209555,N
209660,N
210034,N
210226,N
210709,N
211029,N
211219,N
211319,N
211686,N
212017,N
212207,N
212301,N
212676,N
212995,N
213173,N
213273,N
213641,N
213828,N
214304,N
214612,N
214803,N
215261,N
215571,N
215755,N
216243,N
216582,N
216763,N
216871,N
217251,N
217584,N
217914,N
218235,N
218556,N
218880,N
219210,N
219527,N
219717,N
219816,N
220170,N
220524,N
220709,N
220811,N
221185,N
221370,N
221855,N
222175,N
222481,N
222801,N
223121,N
223435,N
223762,N
223942,N
224041,N
224421,N
224770,N
225085,N
225395,N
225732,N
225913,N
226017,N
226394,N
226744,N
227072,N
227399,N
227730,N
227910,N
228017,N
228408,N
228754,N
229075,N
229386,N
229713,N
230044,N
230355,N
230687,N
231018,N
231330,N
231657,N
231983,N
232301,N
232636,N
232956,N
233273,N
233614,N
233927,N
234105,N
234209,N
234586,N
234910,N
235093,N
235200,N
235574,N
235862,N
236223,N
236547,N
236854,N
237172,N
237501,N
237828,N
238140,N
238474,N
238801,N
239128,N
239417,N
239782,N
240106,N
240447,N
240767,N
240951,N
241449,N
241777,N
241965,N
242065,N
242441,N
242767,N
242951,N
243063,N
243436,N
243755,N
244086,N
244404,N
244711,N
244898,N
245002,N
245380,N
245709,N
245894,N
246005,N
246375,N
246696,N
247019,N
247337,N
247656,N
247837,N
247935,N
248311,N
248640,N
248825,N
248924,N
249299,N
249637,N
249965,N
250273,N
250590,N
250913,N
251230,N
251546,N
251870,N
252157,N
252517,N
252832,N
253119,N
253469,N
253799,N
254127,N
254434,N
254765,N
254948,N
255047,N
255423,N
255764,N
256081,N
256405,N
256738,N
256918,N
257017,N
257401,N
257744,N
258060,N
258375,N
258687,N
258872,N
258962,N
259348,N
259680,N
260001,N
260319,N
260611,N
260824,N
260929,N
261284,N
261661,N
261991,N
262316,N
262655,N
262979,N
263159,N
263648,N
263974,N
264155,N
264649,N
264974,N
265156,N
265260,N
265644,N
265836,N
266334,N
266658,N
266990,N
267330,N
267646,N
267826,N
267936,N
268314,N
268502,N
268603,N
268983,N
269315,N
269628,N
269814,N
269918,N
270292,N
270478,N
270576,N
270966,N
271306,N
271617,N
271943,N
272235,N
272595,N
272775,N
272879,N
273257,N
273587,N
273771,N
273878,N
274251,N
274575,N
274758,N
274860,N
275240,N
275570,N
275748,N
275855,N
276231,N
276424,N
276906,N
277092,N
277190,N
277564,N
277898,N
278208,N
278391,N
278489,N
278873,N
279203,N
279380,N
279487,N
279868,N
280192,N
280378,N
280490,N
280866,N
281189,N
281377,N
281478,N
281853,N
282177,N
282361,N
282457,N
282802,N
283018,N
283123,N
283488,N
283679,N
283771,N
284155,N
284383,N
284838,N
285182,N
285506,N
285828,N
286155,N
286334,N
286439,N
286825,N
287171,N
287493,N
287814,N
288148,N
288477,N
288792,N
289119,N
289447,N
289776,N
290098,N
290418,N
290735,N
291067,N
291377,N
291691,N
292025,N
292339,N
292651,N
292982,N
293292,N
293615,N
293910,N
294121,N
294221,N
294601,N
294944,N
295263,N
295587,N
295911,N
296230,N
296415,N
296909,N
297095,N
297196,N
297585,N
297924,N
298241,N
298420,N
298529,N
298914,N
299104,N
299213,N
299586,N
299922,N
300246,N
300427,N
300914,N
301254,N
301434,N
301548,N
301929,N
302113,N
302602,N
302928,N
303245,N
303562,N
303877,N
304188,N
304523,N
304848,N
305169,N
305515,N
305850,N
306170,N
306508,N
306835,N
307165,N
307493,N
307809,N
307996,N
308490,N
308812,N
309142,N
309473,N
309799,N
310116,N
310434,N
310759,N
311070,N
311381,N
311697,N
312011,N
312339,N
312654,N
312836,N
312934,N
313318,N
313646,N
313829,N
313927,N
314310,N
314630,N
314961,N
315289,N
315600,N
315927,N
316257,N
316564,N
316892,N
317222,N
317549,N
317873,N
318203,N
318384,N
318492,N
318874,N
319212,N
319549,N
319866,N
320198,N
320383,N
320484,N
320862,N
321211,N
321536,N
321853,N
322190,N
322511,N
322834,N
323172,N
323487,N
323666,N
324137,N
324354,N
324458,N
324838,N
325169,N
325486,N
325675,N
325777,N
326153,N
326481,N
326807,N
326998,N
327089,N
327468,N
327800,N
328128,N
328448,N
328638,N
328732,N
329121,N
329446,N
329777,N
330104,N
330434,N
330752,N
331085,N
331415,N
331726,N
331923,N
332018,N
332372,N
332721,N
333000,N
333353,N
333672,N
333981,N
334302,N
334483,N
334583,N
334967,N
335307,N
335605,N
335958,N
336295,N
336629,N
336947,N
337284,N
337612,N
337931,N
338270,N
338603,N
338931,N
339276,N
339604,N
339938,N
340271,N
340584,N
340767,N
340877,N
341253,N
341584,N
341775,N
341878,N
342222,N
342585,N
342766,N
342870,N
343207,N
343567,N
343748,N
343849,N
344226,N
344562,N
344745,N
344847,N
345227,N
345552,N
345735,N
345829,N
346202,N
346517,N
346699,N
346797,N
347177,N
347489,N
347671,N
347769,N
348143,N
348337,N
348431,N
348810,N
348996,N
349091,N
349462,N
349796,N
350106,N
350414,N
350734,N
350921,N
351014,N
351387,N
351720,N
352040,N
352358,N
352541,N
352634,N
353020,N
353218,N
353308,N
353696,N
354033,N
354345,N
354528,N
354627,N
355006,N
355192,N
355284,N
355663,N
355992,N
356305,N
356628,N
356953,N
357267,N
357604,N
357922,N
358102,N
358602,N
358800,N
358893,N
359279,N
359616,N
359929,N
360258,N
360577,N
360897,N
361221,N
361551,N
361865,N
362182,N
362507,N
362825,N
363145,N
363466,N
363787,N
364111,N
364437,N
364756,N
365072,N
365400,N
365727,N
366041,N
366375,N
366559,N
367037,N
367373,N
367691,N
367999,N
368182,N
368277,N
368654,N
368843,N
368935,N
369323,N
369628,N
369979,N
370296,N
370632,N
370963,N
371287,N
371611,N
371940,N
372262,N
372584,N
372905,N
373222,N
373560,N
373886,N
374203,N
374551,N
374888,N
375206,N
375549,N
375879,N
376060,N
376171,N
376554,N
376734,N
377227,N
377577,N
377885,N
378199,N
378517,N
378835,N
379149,N
379469,N
379794,N
380110,N
380432,N
380750,N
381070,N
381403,N
381727,N
382052,N
382393,N
382720,N
382903,N
383401,N
383590,N
384098,N
384293,N
384797,N
385155,N
385495,N
385832,N
386171,N
386505,N
386850,N
387192,N
387533,N
387726,N
388228,N
388583,N
388760,N
389265,N
389460,N
389953,N
390138,N
390639,N
390980,N
391310,N
391490,N
391991,N
392335,N
392665,N
393008,N
393345,N
393677,N
393862,N
394356,N
394541,N
395047,N
395234,N
395338,N
395725,N
396084,N
396415,N
396734,N
397060,N
397400,N
397725,N
398043,N
398229,N
398337,N
398723,N
398902,N
399384,N
399574,N
399669,N
400061,N
400396,N
400582,N
400674,N
401062,N
401376,N
401666,N
401956,N
402142,N
402504,N
402692,N
402775,N
403026,N
403212,N
403528,N
403793,N
404038,N
404218,N
404310,N
404669,N
404968,N
405274,N
405586,N
405890,N
406067,N
406174,N
406551,N
406863,N
407172,N
407496,N
407676,N
407779,N
408162,N
408344,N
408819,N
409020,N
409114,N
409494,N
409674,N
410124,N
410334,N
410423,N
410802,N
411110,N
411398,N
411706,N
412011,N
412197,N
412288,N
412656,N
412839,N
413303,N
413496,N
413942,N
414252,N
414549,N
414842,N
415022,N
415449,N
415627,N
416058,N
416262,N
416657,N
416843,N
417267,N
417469,N
417852,N
418124,N
418395,N
418676,N
418967,N
419147,N
419600,N
419926,N
420235,N
420555,N
420866,N
421047,N
421141,N
421514,N
421834,N
422014,N
422107,N
422473,N
422787,N
422961,N
423049,N
423409,N
423719,N
423900,N
424336,N
424639,N
424824,N
425262,N
425452,N
425886,N
426079,N
426516,N
426705,N
427133,N
427313,N
427745,N
428041,N
428331,N
428617,N
428799,N
429238,N
429427,N
429854,N
430155,N
430451,N
430752,N
430930,N
431371,N
431666,N
431967,N
432262,N
432441,N
432868,N
433047,N
433464,N
433754,N
433932,N
434326,N
434611,N
434880,N
435063,N
435447,N
435725,N
436002,N
436185,N
436543,N
436812,N
436998,N
437365,N
437576,N
437845,N
438123,N
438391,N
438568,N
438981,N
439276,N
439456,N
439548,N
439923,N
440247,N
440425,N
440944,N
441297,N
441469,N
441998,N
442346,N
442691,N
443025,N
443357,N
443546,N
444054,N
444239,N
444734,N
444920,N
445415,N
445601,N
446076,N
446400,N
446694,N
447044,N
447356,N
447545,N
447644,N
448024,N
448357,N
448536,N
448644,N
449019,N
449204,N
449682,N
449999,N
450177,N
450278,N
450658,N
450978,N
451295,N
451483,N
451580,N
451960,N
452137,N
452612,N
452796,N
453292,N
453619,N
453954,N
454141,N
454634,N
454967,N
455298,N
455481,N
455979,N
456163,N
456650,N
456985,N
457168,N
457656,N
457841,N
458333,N
458673,N
458850,N
459344,N
459685,N
459868,N
460345,N
460678,N
460860,N
460964,N
461337,N
461674,N
461854,N
461953,N
462332,N
462522,N
462972,N
463153,N
463615,N
463928,N
464239,N
464564,N
464904,N
465087,N
465615,N
465807,N
466344,N
466554,N
467055,N
467243,N
467771,N
467945,N
468433,N
468619,N
469102,N
469292,N
469771,N
470098,N
470429,N
470608,N
470706,N
471096,N
471279,N
471797,N
472130,N
472463,N
472794,N
473128,N
473306,N
473417,N
473806,N
474149,N
474337,N
474837,N
475177,N
475524,N
475704,N
475805,N
476159,N
476371,N
476866,N
477058,N
477549,N
477891,N
478230,N
478414,N
478516,N
478904,N
479089,N
479559,N
479778,N
480264,N
480450,N
480947,N
481134,N
481239,N
481617,N
481801,N
481902,N
482282,N
482475,N
482580,N
482939,N
483126,N
483579,N
483879,N
484176,N
484455,N
484743,N
485045,N
485339,N
485634,N
485955,N
486278,N
486593,N
486929,N
487270,N
487604,N
487948,N
488301,N
488651,N
488997,N
489180,N
489699,N
489889,N
490389,N
490571,N
491046,N
491249,N
491345,N
491712,N
492028,N
492208,N
492304,N
492654,N
492970,N
493152,N
493590,N
493777,N
494234,N
494531,N
494839,N
495153,N
495474,N
495806,N
495989,N
496472,N
496659,N
497146,N
497331,N
497814,N
498000,N
498489,N
498673,N
498779,N
499152,N
499478,N
499661,N
500109,N
500299,N
500738,N
501042,N
501339,N
501517,N
501958,N
502145,N
502574,N
502885,N
503064,N
503529,N
503852,N
504032,N
504513,N
504698,N
505178,N
505367,N
505885,N
506072,N
506585,N
506939,N
507129,N
507629,N
507983,N
508163,N
508667,N
508861,N
509361,N
509704,N
509887,N
510381,N
510723,N
511053,N
511235,N
511337,N
511727,N
511916,N
512412,N
512751,N
513078,N
513268,N
513376,N
513756,N
513949,N
514453,N
514783,N
514970,N
515467,N
515809,N
516144,N
516466,N
516650,N
517157,N
517497,N
517850,N
518183,N
518511,N
518705,N
518806,N
519193,N
519389,N
519883,N
520216,N
520406,N
520510,N
520883,N
521205,N
521522,N
521708,N
521797,N
522179,N
522363,N
522806,N
523125,N
523309,N
523748,N
523941,N
524396,N
524716,N
525038,N
525220,N
525725,N
525914,N
526401,N
526598,N
527073,N
527407,N
527589,N
528048,N
528373,N
528553,N
529006,N
529330,N
529510,N
529986,N
530312,N
530495,N
530968,N
531288,N
531475,N
531929,N
532113,N
532581,N
532771,N
533228,N
533540,N
533854,N
534177,N
534508,N
534689,N
535188,N
535383,N
535887,N
536069,N
536563,N
536763,N
537237,N
537445,N
537902,N
538091,N
538556,N
538747,N
539214,N
539528,N
539840,N
540148,N
540467,N
540791,N
541119,N
541462,N
541806,N
542141,N
542494,N
542843,N
543192,N
543550,N
543888,N
544244,N
544591,N
544923,N
545265,N
545610,N
545962,N
546143,N
546657,N
546852,N
547348,N
547546,N
547646,N
548035,N
548232,N
548329,N
548713,N
548909,N
549373,N
549703,N
549884,N
549988,N
550348,N
550668,N
550984,N
551174,N
551622,N
551812,N
552244,N
552427,N
552817,N
553094,N
553274,N
553627,N
553899,N
554158,N
554414,N
554674,N
554937,N
555123,N
555474,N
555752,N
555934,N
556311,N
556502,N
556883,N
557155,N
557425,N
557617,N
558007,N
558212,N
558599,N
558888,N
559194,N
559382,N
559817,N
560133,N
560455,N
560642,N
561132,N
561485,N
561826,N
562162,N
562344,N
562876,N
563219,N
563554,N
563737,N
564242,N
564576,N
564916,N
565242,N
565577,N
565914,N
566220,N
566526,N
566709,N
567122,N
567311,N
567412,N
567766,N
568074,N
568378,N
568577,N
569022,N
569209,N
569676,N
569988,N
570305,N
570491,N
570578,N
570948,N
571136,N
571218,N
571559,N
571847,N
572134,N
572316,N
572736,N
573022,N
573309,N
573591,N
573772,N
574174,N
574367,N
574775,N
575071,N
575361,N
575546,N
575957,N
576252,N
576552,N
576863,N
577168,N
577348,N
577846,N
578029,N
578537,N
578863,N
579046,N
579531,N
579866,N
580044,N
580559,N
580926,N
581113,N
581636,N
581829,N
582346,N
582708,N
582893,N
583417,N
583600,N
584136,N
584482,N
584813,N
585153,N
585485,N
585814,N
585998,N
586512,N
586699,N
586806,N
587180,N
587530,N
587851,N
588161,N
588348,N
588444,N
588809,N
588992,N
589084,N
589460,N
589779,N
590080,N
590378,N
590701,N
590887,N
591371,N
591712,N
592040,N
592360,N
592681,N
593008,N
593328,N
593672,N
594013,N
594343,N
594687,N
595047,N
595394,N
595724,N
595917,N
596421,N
596753,N
596935,N
597429,N
597753,N
598072,N
598401,N
598732,N
599077,N
599269,N
599783,N
600133,N
600490,N
600831,N
601184,N
601367,N
601901,N
602097,N
602631,N
602973,N
603145,N
603668,N
604009,N
604351,N
604675,N
604997,N
605197,N
605303,N
605687,N
606014,N
606194,N
606681,N
607012,N
607336,N
607653,N
607965,N
608282,N
608607,N
608927,N
609247,N
609595,N
609924,N
610239,N
610428,N
610916,N
611096,N
611207,N
611582,N
611924,N
612252,N
612564,N
612743,N
612841,N
613195,N
613414,N
613509,N
613853,N
614078,N
614179,N
614552,N
614887,N
615214,N
615408,N
615914,N
616264,N
616451,N
616968,N
617312,N
617499,N
618009,N
618359,N
618697,N
619043,N
619380,N
619714,N
620077,N
620423,N
620767,N
621127,N
621480,N
621818,N
622161,N
622512,N
622856,N
623186,N
623536,N
623883,N
624207,N
624538,N
624876,N
625216,N
625556,N
625897,N
626240,N
626567,N
626910,N
627252,N
627576,N
627918,N
628259,N
628592,N
628927,N
629268,N
629595,N
629927,N
630266,N
630608,N
630937,N
631270,N
631601,N
631928,N
632262,N
632596,N
632923,N
633105,N
633218,N
633597,N
633784,N
633894,N
634280,N
634627,N
634945,N
635260,N
635580,N
635894,N
636204,N
636513,N
636833,N
637150,N
637458,N
637785,N
638104,N
638421,N
638608,N
638715,N
639091,N
639422,N
639749,N
640086,N
640418,N
640747,N
640935,N
641441,N
641782,N
642118,N
642470,N
642809,N
643149,N
643493,N
643846,N
644185,N
644515,N
644869,N
645219,N
645546,N
645733,N
646216,N
646547,N
646870,N
647188,N
647510,N
647827,N
648144,N
648469,N
648782,N
649119,N
649459,N
649778,N
