288,N
603,N
876,N
1195,N
1405,N
1698,N
1912,N
2196,N
2468,N
2713,N
3000,N
3220,N
3446,N
3852,N
4267,N
4569,N
4892,N
5194,N
5560,N
5836,N
6048,N
6343,N
6677,N
7108,N
7377,N
7789,N
8201,N
8437,N
8719,N
8980,N
9226,N
9531,N
9871,N
10224,N
10522,N
10780,N
11013,N
11267,N
11532,N
11796,N
12136,N
12338,N
12695,N
13003,N
13304,N
13596,N
13846,N
14131,N
14404,N
14630,N
14952,N
15219,N
15568,N
15834,N
16083,N
16351,N
16608,N
16881,N
17185,N
17459,N
17739,N
17981,N
18279,N
18556,N
18782,N
19161,N
19447,N
19814,N
20019,N
20269,N
20642,N
20935,N
21167,N
21586,N
21830,N
22038,N
22288,N
22537,N
22830,N
23043,N
23341,N
23622,N
23868,N
24218,N
24407,N
24738,N
25004,N
25299,N
25504,N
25819,N
26091,N
26430,N
26640,N
26932,N
27163,N
27465,N
27661,N
27975,N
28295,N
28486,N
28773,N
29075,N
29343,N
29585,N
29832,N
30041,N
30368,N
30665,N
30957,N
31175,N
31442,N
31713,N
31969,N
32273,N
32622,N
32983,N
33227,N
33556,N
33839,N
34086,N
34403,N
34639,N
34821,N
35202,N
35441,N
35626,N
35895,N
36238,N
36428,N
36789,N
37040,N
37342,N
37649,N
37879,N
38172,N
38395,N
38677,N
38933,N
39223,N
39514,N
39737,N
40010,N
40317,N
40631,N
40982,N
41226,N
41486,N
41918,N
42214,N
42438,N
42882,N
43085,N
43410,N
43682,N
44014,N
44238,N
44525,N
44843,N
45186,N
45448,N
45667,N
45890,N
46122,N
46434,N
46774,N
47102,N
47428,N
47647,N
47951,N
48223,N
48499,N
48773,N
49097,N
49353,N
49571,N
49797,N
50121,N
50502,N
50731,N
51097,N
51353,N
51693,N
52008,N
52286,N
52577,N
52944,N
53266,N
53592,N
53833,N
54088,N
54292,N
54622,N
54900,N
55149,N
55416,N
55708,N
55921,N
56290,N
56569,N
56889,N
57142,N
57388,N
57689,N
57925,N
58170,N
58365,N
58654,N
58942,N
59237,N
59619,N
59854,N
60183,N
60451,N
60739,N
61007,N
61340,N
61669,N
61898,N
62196,N
62427,N
62719,N
63014,N
63177,N
63570,N
63894,N
64119,N
64372,N
64686,N
64980,N
65370,N
65645,N
65951,N
66303,N
66538,N
66825,N
67092,N
67409,N
67697,N
67880,N
68198,N
68435,N
68711,N
68960,N
69204,N
69474,N
69768,N
70056,N
70317,N
70579,N
70903,N
71238,N
71549,N
71807,N
72101,N
72446,N
72726,N
73099,N
73312,N
73624,N
73872,N
74111,N
74390,N
74638,N
74923,N
75264,N
75534,N
75797,N
76095,N
76393,N
76680,N
76912,N
77197,N
77475,N
77688,N
77946,N
78222,N
78473,N
78768,N
78949,N
79356,N
79603,N
79848,N
80176,N
80448,N
80715,N
81016,N
81369,N
81746,N
82009,N
82276,N
82502,N
82791,N
83150,N
83334,N
83686,N
83955,N
84269,N
84576,N
84843,N
85064,N
85343,N
85556,N
85880,N
86184,N
86456,N
86682,N
87000,N
87386,N
87657,N
87909,N
88210,N
88494,N
88698,N
89029,N
89300,N
89556,N
89863,N
90179,N
90570,N
90877,N
91220,N
91440,N
91637,N
91849,N
92285,N
92557,N
92766,N
93017,N
93318,N
93601,N
93845,N
94088,N
94294,N
94607,N
94952,N
95243,N
95522,N
95848,N
96130,N
96434,N
96837,N
97057,N
97343,N
97626,N
97906,N
98221,N
98428,N
98741,N
98938,N
99235,N
99526,N
99801,N
100001,N
100374,N
100583,N
100849,N
101079,N
101337,N
101559,N
101939,N
102308,N
102544,N
102825,N
103081,N
103402,N
103677,N
103896,N
104203,N
104420,N
104691,N
105002,N
105242,N
105513,N
105731,N
106017,N
106322,N
106590,N
106973,N
107307,N
107613,N
107906,N
108173,N
108400,N
109328,N
109683,N
109999,N
110241,N
110604,N
110933,N
111252,N
111561,N
111866,N
112175,N
112447,N
112817,N
113118,N
113433,N
113738,N
114047,N
114340,N
114673,N
114955,N
115291,N
115580,N
115914,N
116201,N
116532,N
117109,N
117405,N
117693,N
117988,N
118246,N
118522,N
118754,N
119052,N
119350,N
119647,N
119923,N
120158,N
120444,N
120720,N
120956,N
121267,N
121588,N
121840,N
122165,N
122473,N
122797,N
122979,N
123268,N
123612,N
123909,N
124132,N
124428,N
124733,N
124962,N
125263,N
125525,N
125847,N
126088,N
126331,N
126572,N
126798,N
127035,N
127341,N
127621,N
127812,N
128098,N
128367,N
128634,N
128873,N
129149,N
129489,N
129770,N
130056,N
130327,N
130614,N
130945,N
131219,N
131551,N
131846,N
132096,N
132323,N
132618,N
132984,N
133213,N
133538,N
133811,N
134064,N
134294,N
134487,N
134937,N
135160,N
135432,N
135740,N
135946,N
136223,N
136492,N
136724,N
136990,N
137294,N
137598,N
137802,N
138102,N
138365,N
138663,N
138927,N
139177,N
139455,N
139738,N
140040,N
140331,N
140664,N
140867,N
141169,N
141480,N
141736,N
142089,N
142324,N
142589,N
142825,N
143173,N
143427,N
143643,N
143937,N
144212,N
144396,N
144713,N
144937,N
145192,N
145431,N
145672,N
145917,N
146274,N
146585,N
146830,N
147063,N
147306,N
147577,N
147767,N
148058,N
148337,N
148798,N
149063,N
149393,N
149607,N
149862,N
150173,N
150461,N
150715,N
150960,N
151295,N
151566,N
151795,N
152050,N
152274,N
152544,N
152768,N
153039,N
153255,N
153564,N
153852,N
154081,N
154388,N
154657,N
154885,N
155069,N
155385,N
155645,N
155876,N
156149,N
156424,N
156704,N
156992,N
157278,N
157591,N
157892,N
158181,N
158475,N
158783,N
159022,N
159333,N
159630,N
159936,N
160219,N
160511,N
160760,N
160999,N
161277,N
161590,N
161840,N
162144,N
162436,N
162727,N
163048,N
163313,N
163621,N
164084,N
164327,N
164729,N
165053,N
165506,N
165794,N
166118,N
166363,N
166643,N
166955,N
167236,N
167550,N
167836,N
168142,N
168437,N
168846,N
169063,N
169309,N
169576,N
169864,N
170155,N
170437,N
170728,N
171026,N
171312,N
171573,N
171899,N
172202,N
172456,N
172848,N
173157,N
173402,N
173628,N
173984,N
174246,N
174570,N
174800,N
175048,N
175370,N
175658,N
175956,N
176252,N
176509,N
176787,N
177113,N
177301,N
177670,N
177970,N
178165,N
178465,N
178790,N
179093,N
179389,N
179653,N
179970,N
180228,N
180524,N
180825,N
181153,N
181426,N
181724,N
182006,N
182307,N
182537,N
182821,N
183191,N
183786,N
184082,N
184378,N
184666,N
184932,N
185207,N
185484,N
185787,N
186156,N
186497,N
186731,N
186947,N
187239,N
187523,N
187786,N
188047,N
188294,N
188548,N
188729,N
189006,N
189217,N
189459,N
189747,N
190012,N
190352,N
190810,N
191115,N
191552,N
191935,N
192227,N
192532,N
192730,N
193023,N
193314,N
193578,N
193764,N
194138,N
194337,N
194603,N
194894,N
195182,N
195366,N
195751,N
196055,N
196235,N
196599,N
196906,N
197218,N
197528,N
197816,N
198114,N
198334,N
198615,N
198899,N
199155,N
199388,N
199732,N
200078,N
200340,N
200625,N
200915,N
201129,N
201368,N
201695,N
202041,N
202363,N
202660,N
202988,N
203289,N
203576,N
203894,N
204179,N
204468,N
204782,N
205068,N
205347,N
205573,N
205802,N
206090,N
206417,N
206644,N
206922,N
207179,N
207410,N
207703,N
208005,N
208289,N
208549,N
208758,N
209012,N
209271,N
209552,N
209828,N
210109,N
210388,N
210610,N
210957,N
211238,N
211517,N
211784,N
212090,N
212368,N
212600,N
212936,N
213234,N
213520,N
213772,N
214032,N
214335,N
214674,N
214946,N
215237,N
215532,N
215793,N
216004,N
216243,N
216513,N
216795,N
217031,N
217253,N
217512,N
217787,N
218028,N
218442,N
218756,N
219115,N
219478,N
219662,N
220036,N
220238,N
220507,N
220804,N
221049,N
221242,N
221520,N
221795,N
222051,N
222332,N
222578,N
222839,N
223065,N
223353,N
223533,N
223845,N
224160,N
224381,N
224699,N
224967,N
225264,N
225471,N
225768,N
226054,N
226276,N
226572,N
226804,N
227068,N
227363,N
227645,N
227953,N
228220,N
228442,N
228717,N
228983,N
229257,N
229441,N
229729,N
229991,N
230230,N
230508,N
230714,N
231064,N
231276,N
231633,N
231993,N
232213,N
232453,N
232730,N
233027,N
233381,N
233760,N
234036,N
234253,N
234553,N
234909,N
235128,N
235413,N
235796,N
236166,N
236441,N
236746,N
237010,N
237240,N
237488,N
237753,N
237979,N
238238,N
238560,N
238841,N
239118,N
239481,N
239756,N
240060,N
240381,N
240693,N
240970,N
241284,N
241541,N
241825,N
242123,N
242443,N
242663,N
242941,N
243222,N
243490,N
243822,N
244103,N
244403,N
244657,N
244909,N
245156,N
245493,N
245811,N
246159,N
246427,N
246744,N
247140,N
247392,N
247611,N
247923,N
248198,N
248404,N
248731,N
249022,N
249368,N
249621,N
249895,N
250233,N
250757,N
251044,N
251316,N
251634,N
251885,N
252117,N
252428,N
252701,N
252926,N
253109,N
253499,N
253714,N
254072,N
254281,N
254510,N
254768,N
255033,N
255260,N
255550,N
255804,N
256098,N
256380,N
256628,N
256864,N
257314,N
257596,N
257819,N
258119,N
258391,N
258669,N
258903,N
259186,N
259393,N
259721,N
259965,N
260253,N
260559,N
260780,N
261086,N
261315,N
261654,N
261981,N
262296,N
262560,N
262911,N
263229,N
263436,N
263776,N
263998,N
264312,N
264516,N
264833,N
265147,N
265452,N
265654,N
265967,N
266198,N
266534,N
267005,N
267228,N
267506,N
267742,N
268014,N
268224,N
268439,N
268777,N
269073,N
269379,N
269660,N
269889,N
270145,N
270458,N
270763,N
270962,N
271312,N
271577,N
271816,N
272105,N
272326,N
272631,N
272929,N
273203,N
273468,N
273711,N
273948,N
274281,N
274614,N
274873,N
275178,N
275501,N
275831,N
276096,N
276339,N
276699,N
276970,N
277307,N
277504,N
277845,N
278050,N
278328,N
278591,N
278784,N
279033,N
279255,N
279567,N
279835,N
280168,N
280467,N
280860,N
281144,N
281405,N
281658,N
282041,N
282328,N
282643,N
282924,N
283248,N
283591,N
283853,N
284049,N
284370,N
284577,N
284892,N
285185,N
285405,N
285604,N
285869,N
286140,N
286428,N
286646,N
286932,N
287148,N
287611,N
287932,N
288223,N
288464,N
288757,N
289071,N
289344,N
289675,N
289963,N
290245,N
290508,N
290737,N
291012,N
291315,N
291544,N
291853,N
292163,N
292501,N
292830,N
293188,N
293450,N
293687,N
293933,N
294215,N
294477,N
294792,N
295121,N
295338,N
295664,N
295932,N
296250,N
296510,N
296760,N
297060,N
297347,N
297583,N
297811,N
298076,N
298593,N
298807,N
299184,N
299382,N
299752,N
300070,N
300992,N
301323,N
301571,N
301931,N
302486,N
302784,N
303133,N
303417,N
303752,N
304371,N
304671,N
304979,N
305276,N
305555,N
306092,N
306410,N
306736,N
307012,N
307312,N
307557,N
307827,N
308092,N
308347,N
308570,N
308841,N
309142,N
309372,N
309655,N
309950,N
310260,N
310589,N
310922,N
311217,N
311440,N
311705,N
311931,N
312204,N
312500,N
312699,N
312947,N
313219,N
313406,N
313734,N
314145,N
314361,N
314613,N
314840,N
315154,N
315348,N
315628,N
315907,N
316129,N
316378,N
316624,N
316860,N
317180,N
317376,N
317694,N
317972,N
318252,N
318514,N
318766,N
319082,N
319332,N
319625,N
319922,N
320190,N
320448,N
320678,N
320940,N
321248,N
321823,N
322152,N
322716,N
323038,N
323595,N
323896,N
324459,N
324750,N
325295,N
325587,N
326117,N
326442,N
326729,N
327001,N
327272,N
327527,N
327804,N
328019,N
328317,N
328529,N
328866,N
329138,N
329321,N
329615,N
329878,N
330114,N
330441,N
330758,N
331317,N
331631,N
332176,N
332473,N
333023,N
333312,N
333871,N
334158,N
334691,N
334990,N
335530,N
335824,N
336371,N
336675,N
337208,N
337510,N
338039,N
338328,N
338874,N
339162,N
339454,N
339720,N
340315,N
340626,N
341189,N
341490,N
342026,N
342321,N
342855,N
343145,N
343675,N
343974,N
344507,N
344802,N
345344,N
345622,N
346019,N
346573,N
346870,N
347414,N
347712,N
348237,N
348797,N
349085,N
349608,N
349910,N
350441,N
350732,N
351272,N
351821,N
352115,N
352649,N
352937,N
353478,N
354012,N
354318,N
354842,N
355144,N
355673,N
355968,N
356484,N
356776,N
357293,N
357594,N
358127,N
358430,N
358950,N
359257,N
359801,N
360330,N
360871,N
361394,N
361686,N
362205,N
362500,N
363025,N
363580,N
363865,N
364389,N
364938,N
365134,N
365486,N
366032,N
366313,N
366837,N
367131,N
367649,N
367946,N
368470,N
369019,N
369559,N
370096,N
370295,N
370644,N
371184,N
371472,N
372005,N
372541,N
373094,N
373380,N
373893,N
374172,N
374471,N
374761,N
375052,N
375353,N
375661,N
376219,N
376777,N
377323,N
377716,N
377965,N
378160,N
378426,N
378615,N
378831,N
379100,N
379346,N
379598,N
379884,N
380114,N
380393,N
380631,N
380870,N
381321,N
381653,N
381963,N
382277,N
382582,N
382895,N
383204,N
383505,N
384062,N
384369,N
384673,N
384975,N
385286,N
385590,N
385896,N
386201,N
386509,N
386824,N
387360,N
387922,N
388464,N
388768,N
389068,N
389380,N
389902,N
390218,N
390524,N
390712,N
390992,N
391366,N
391926,N
392469,N
393031,N
393568,N
394108,N
394407,N
394695,N
395254,N
395546,N
396063,N
396366,N
396890,N
397189,N
397496,N
398030,N
398330,N
398858,N
399168,N
399468,N
399758,N
400293,N
400836,N
401380,N
401878,N
402178,N
402515,N
402774,N
403003,N
403229,N
403478,N
403717,N
403923,N
404220,N
404490,N
404846,N
405200,N
405500,N
405736,N
405979,N
406171,N
406449,N
406660,N
406904,N
407220,N
407477,N
407704,N
407998,N
408201,N
408493,N
408740,N
408992,N
409297,N
409584,N
409877,N
410122,N
410361,N
410671,N
411021,N
411342,N
411650,N
411852,N
412201,N
412409,N
412737,N
413286,N
413605,N
413904,N
414207,N
414504,N
414822,N
415139,N
415450,N
415803,N
416102,N
416419,N
416743,N
417059,N
417378,N
417953,N
418510,N
418828,N
419136,N
419439,N
419748,N
420058,N
420368,N
420945,N
421511,N
422058,N
422611,N
423150,N
423454,N
423760,N
424054,N
424585,N
424898,N
425196,N
425503,N
425804,N
426113,N
426426,N
426973,N
427535,N
428080,N
428638,N
428828,N
429179,N
429726,N
430021,N
430308,N
430603,N
430908,N
431202,N
431505,N
431819,N
432140,N
432461,N
433031,N
433607,N
433928,N
434235,N
434546,N
435072,N
435378,N
435685,N
435997,N
436530,N
437098,N
437640,N
437835,N
438196,N
438389,N
438742,N
438925,N
439161,N
439390,N
439816,N
440107,N
440340,N
440572,N
440850,N
441138,N
441415,N
441634,N
441929,N
442246,N
442534,N
442797,N
443025,N
443340,N
443654,N
443929,N
444192,N
444452,N
444757,N
445059,N
445362,N
445697,N
445931,N
446196,N
446422,N
446687,N
446946,N
447251,N
447507,N
447859,N
448168,N
448396,N
448668,N
448985,N
449300,N
449626,N
449908,N
450120,N
450422,N
450698,N
451142,N
451488,N
451761,N
451999,N
452226,N
452488,N
452690,N
453059,N
453375,N
453640,N
453980,N
454504,N
454792,N
454981,N
455221,N
455465,N
455679,N
455964,N
456300,N
456526,N
456745,N
457073,N
457354,N
457626,N
457940,N
458179,N
458454,N
458767,N
459039,N
459288,N
459577,N
459899,N
460106,N
460401,N
460686,N
460918,N
461219,N
461501,N
461753,N
462059,N
462360,N
462586,N
462856,N
463094,N
463411,N
463667,N
463890,N
464172,N
464423,N
464744,N
465075,N
465438,N
465820,N
466121,N
466383,N
466680,N
466960,N
467179,N
467443,N
467741,N
468020,N
468336,N
468552,N
468838,N
469136,N
469447,N
469835,N
470160,N
470438,N
470732,N
470952,N
471311,N
471656,N
471974,N
472248,N
472575,N
472827,N
473083,N
473315,N
473532,N
473845,N
474106,N
474323,N
474690,N
474964,N
475196,N
475494,N
475770,N
475970,N
476286,N
476575,N
476865,N
477079,N
477446,N
477765,N
478086,N
478266,N
478564,N
478866,N
479177,N
479448,N
479677,N
479994,N
481100,N
481427,N
481707,N
482000,N
482541,N
482826,N
483359,N
483654,N
484200,N
484492,N
484982,N
485392,N
485967,N
486266,N
486806,N
487097,N
487647,N
487938,N
488483,N
488781,N
489313,N
489607,N
490157,N
490447,N
490977,N
491278,N
491812,N
492104,N
492647,N
493206,N
493508,N
494024,N
494325,N
494863,N
495153,N
495687,N
495989,N
496506,N
497058,N
497268,N
497619,N
497807,N
498175,N
498744,N
499297,N
499859,N
500406,N
500604,N
500964,N
501152,N
501513,N
501702,N
502008,N
502239,N
502474,N
502769,N
502976,N
503287,N
503572,N
503791,N
504098,N
504415,N
504756,N
505050,N
505335,N
505748,N
506026,N
506272,N
506506,N
506712,N
507011,N
507306,N
507649,N
507914,N
508170,N
508476,N
508792,N
509063,N
509298,N
509602,N
509875,N
510104,N
510343,N
510600,N
510883,N
511334,N
511629,N
511939,N
512149,N
512437,N
512726,N
512978,N
513230,N
513505,N
513798,N
514128,N
514459,N
514696,N
514980,N
515316,N
515640,N
515899,N
516095,N
516452,N
516728,N
516924,N
517252,N
517594,N
517905,N
518263,N
518590,N
518910,N
519170,N
519411,N
519715,N
520068,N
520406,N
520704,N
520989,N
521230,N
521430,N
521775,N
522096,N
522359,N
522557,N
522880,N
523165,N
523447,N
523738,N
523944,N
524163,N
524498,N
524745,N
525002,N
525270,N
525596,N
525813,N
526025,N
526350,N
526679,N
527001,N
527386,N
527665,N
527908,N
528175,N
528492,N
528790,N
529034,N
529288,N
529628,N
529952,N
530212,N
530423,N
530706,N
530916,N
531212,N
531474,N
531707,N
531890,N
532169,N
532418,N
532755,N
532967,N
533244,N
533461,N
533748,N
534086,N
534371,N
534656,N
534917,N
535120,N
535416,N
535595,N
535968,N
536237,N
536489,N
536780,N
537078,N
537441,N
537723,N
537961,N
538263,N
538584,N
538818,N
539145,N
539438,N
539713,N
539958,N
540269,N
540575,N
540877,N
541099,N
541423,N
541725,N
542042,N
542405,N
542710,N
543007,N
543263,N
543601,N
543944,N
544199,N
544473,N
544681,N
545076,N
545435,N
545796,N
546111,N
546371,N
546562,N
546765,N
547043,N
547343,N
547548,N
547871,N
548198,N
548513,N
548810,N
549164,N
549505,N
549762,N
550024,N
550299,N
550524,N
550948,N
551186,N
551400,N
551723,N
552040,N
552394,N
552666,N
553033,N
553238,N
553650,N
553945,N
554224,N
554442,N
554666,N
555002,N
555198,N
555467,N
555754,N
556079,N
556511,N
556841,N
557116,N
557359,N
557614,N
557814,N
558154,N
558353,N
558662,N
558932,N
559185,N
559439,N
559699,N
560040,N
560347,N
560601,N
560936,N
561259,N
561501,N
561817,N
562131,N
562360,N
562614,N
562897,N
563301,N
563602,N
563937,N
564271,N
564598,N
564895,N
565114,N
565317,N
565534,N
565792,N
566057,N
566369,N
566767,N
567099,N
567380,N
567624,N
567900,N
568175,N
568522,N
568849,N
569202,N
569441,N
569680,N
569979,N
570240,N
570544,N
570876,N
571124,N
571398,N
571638,N
571920,N
572236,N
572553,N
572867,N
573196,N
573445,N
573720,N
573952,N
574249,N
574497,N
574887,N
575243,N
575499,N
575803,N
576102,N
576361,N
576556,N
576852,N
577286,N
577611,N
577845,N
578143,N
578520,N
578795,N
579115,N
579381,N
579640,N
579892,N
580185,N
580520,N
580789,N
581106,N
581363,N
581723,N
581939,N
582307,N
582519,N
582795,N
583069,N
583381,N
583572,N
583903,N
584215,N
584444,N
584700,N
584965,N
585187,N
585446,N
585672,N
585982,N
586296,N
586627,N
587000,N
587220,N
587465,N
587697,N
588086,N
588298,N
588617,N
588892,N
589133,N
589455,N
589732,N
589955,N
590243,N
590535,N
590839,N
591104,N
591381,N
591579,N
591926,N
592285,N
592622,N
592919,N
593222,N
593518,N
593876,N
594173,N
594433,N
594726,N
595031,N
595382,N
595692,N
595943,N
596239,N
596586,N
596902,N
597136,N
597522,N
597793,N
598051,N
598270,N
598526,N
598808,N
599028,N
599304,N
599558,N
599842,N
600032,N
600333,N
600749,N
601085,N
601387,N
601678,N
601947,N
602279,N
602542,N
602817,N
603105,N
603312,N
603649,N
603965,N
604243,N
604583,N
604850,N
605274,N
605555,N
605850,N
606158,N
606377,N
606653,N
606915,N
607391,N
607776,N
608083,N
608410,N
608628,N
608944,N
609379,N
609689,N
609952,N
610236,N
610566,N
610854,N
611188,N
611446,N
611748,N
612078,N
612357,N
612737,N
612955,N
613214,N
613490,N
613793,N
614082,N
614375,N
614671,N
615040,N
615354,N
615603,N
615815,N
616088,N
616373,N
616673,N
616978,N
617262,N
617531,N
617784,N
618225,N
618476,N
618715,N
619014,N
619311,N
619610,N
619880,N
620228,N
620535,N
620728,N
621059,N
621278,N
621550,N
621762,N
622015,N
622277,N
622502,N
622786,N
623035,N
623313,N
623637,N
623907,N
624205,N
624495,N
624804,N
625095,N
625378,N
625694,N
625886,N
626213,N
626505,N
626795,N
627098,N
627320,N
627647,N
627980,N
628165,N
628566,N
628762,N
629035,N
629316,N
629592,N
629821,N
630037,N
630340,N
630655,N
630950,N
631238,N
631535,N
631832,N
632137,N
632426,N
632717,N
633023,N
633312,N
633604,N
633898,N
634186,N
634416,N
634702,N
634980,N
635401,N
635702,N
635921,N
636185,N
636454,N
636775,N
637055,N
637491,N
637796,N
638097,N
638352,N
638741,N
638980,N
639200,N
639566,N
639793,N
640159,N
640456,N
640778,N
641071,N
641287,N
641657,N
641965,N
642300,N
642594,N
642832,N
643189,N
643414,N
643640,N
643971,N
644328,N
644638,N
644920,N
645215,N
645435,N
645746,N
646055,N
646239,N
646548,N
646822,N
647133,N
647428,N
647869,N
648118,N
648387,N
648680,N
648821,N
649162,N
649437,N
649727,N
