210,N
432,N
586,N
913,N
1230,N
1414,N
1794,N
2053,N
2346,N
2503,N
2815,N
3054,N
3515,N
3787,N
4118,N
4478,N
4828,N
5082,N
5344,N
5520,N
5838,N
6088,N
6340,N
6494,N
6870,N
7206,N
7501,N
7671,N
8061,N
8290,N
8535,N
8806,N
9236,N
9504,N
9775,N
10092,N
10364,N
10632,N
10800,N
11115,N
11375,N
11668,N
11835,N
12138,N
12381,N
12732,N
13016,N
13189,N
13486,N
13728,N
13988,N
14233,N
14532,N
14793,N
14950,N
15324,N
15558,N
15824,N
16075,N
16528,N
16917,N
17188,N
17418,N
17673,N
17901,N
18196,N
18454,N
18747,N
19061,N
19250,N
19629,N
19859,N
20137,N
20280,N
20642,N
20902,N
21233,N
21480,N
21745,N
21970,N
22226,N
22382,N
22720,N
22982,N
23316,N
23754,N
24094,N
24350,N
24591,N
24869,N
25187,N
25364,N
25690,N
25939,N
26172,N
26325,N
26611,N
26859,N
27135,N
27294,N
27681,N
27948,N
28175,N
28404,N
28551,N
29048,N
29313,N
29619,N
29938,N
30103,N
30417,N
30652,N
30869,N
31113,N
31536,N
31784,N
32151,N
32426,N
32599,N
32982,N
33250,N
33417,N
33738,N
34001,N
34266,N
34510,N
34661,N
34959,N
35218,N
35660,N
35919,N
36190,N
36376,N
36759,N
36991,N
37233,N
37387,N
37840,N
38089,N
38412,N
38681,N
38930,N
39234,N
39548,N
39701,N
40006,N
40254,N
40496,N
40666,N
41007,N
41332,N
41557,N
41770,N
41936,N
42323,N
42644,N
42811,N
43118,N
43354,N
43580,N
43796,N
44032,N
44325,N
44495,N
44830,N
45104,N
45281,N
45608,N
45854,N
46143,N
46302,N
46623,N
46896,N
47137,N
47386,N
47546,N
47857,N
48123,N
48289,N
48558,N
48836,N
49146,N
49319,N
49617,N
49838,N
50057,N
50213,N
50557,N
51047,N
51368,N
51529,N
51833,N
52124,N
52288,N
52589,N
52860,N
53101,N
53447,N
53719,N
53973,N
54243,N
54611,N
54857,N
55093,N
55260,N
55610,N
55859,N
56134,N
56347,N
56638,N
56884,N
57341,N
57600,N
57830,N
58002,N
58332,N
58562,N
58800,N
58954,N
59252,N
59485,N
59764,N
60026,N
60447,N
60682,N
60928,N
61080,N
61394,N
61713,N
61880,N
62342,N
62627,N
62785,N
63115,N
63353,N
63583,N
63831,N
63995,N
64289,N
64528,N
64760,N
64911,N
65233,N
65458,N
65712,N
65871,N
66277,N
66732,N
67033,N
67190,N
67503,N
67751,N
68026,N
68197,N
68494,N
68973,N
69304,N
69549,N
69991,N
70314,N
70548,N
70883,N
71182,N
71340,N
71686,N
72003,N
72282,N
72566,N
72740,N
73097,N
73333,N
73585,N
73748,N
74079,N
74599,N
74883,N
75046,N
75348,N
75590,N
75815,N
76039,N
76293,N
76550,N
76743,N
77106,N
77386,N
77666,N
77833,N
78098,N
78312,N
78551,N
78716,N
79044,N
79295,N
79664,N
79932,N
80100,N
80424,N
80643,N
80872,N
81186,N
81353,N
81706,N
82035,N
82194,N
82522,N
82755,N
82977,N
83232,N
83396,N
83735,N
83956,N
84254,N
84552,N
84702,N
85042,N
85287,N
85542,N
85715,N
86024,N
86270,N
86499,N
86656,N
86954,N
87209,N
87558,N
87731,N
88098,N
88327,N
88586,N
88741,N
89159,N
89659,N
89914,N
90330,N
90577,N
90808,N
91058,N
91280,N
91492,N
91715,N
91956,N
92239,N
92501,N
92661,N
92965,N
93184,N
93404,N
93576,N
93973,N
94226,N
94470,N
94630,N
94965,N
95194,N
95446,N
95711,N
95949,N
96179,N
96348,N
96705,N
96936,N
97207,N
97495,N
97652,N
97988,N
98221,N
98436,N
98675,N
98856,N
99157,N
99361,N
99649,N
99899,N
100117,N
100286,N
100591,N
100879,N
101043,N
101412,N
101657,N
101889,N
102103,N
102275,N
102581,N
102856,N
103035,N
103343,N
103602,N
103880,N
104039,N
104360,N
104639,N
104800,N
105170,N
105499,N
105660,N
106091,N
106328,N
106537,N
106760,N
106927,N
107235,N
107480,N
107718,N
107875,N
108168,N
108475,N
108631,N
108930,N
109564,N
109797,N
110045,N
110200,N
110506,N
110717,N
111074,N
111334,N
111626,N
111793,N
112175,N
112451,N
112601,N
112866,N
113099,N
113365,N
113543,N
113842,N
114083,N
114330,N
114611,N
114975,N
115199,N
115435,N
115695,N
115919,N
116148,N
116322,N
116601,N
116824,N
117132,N
117629,N
117935,N
118102,N
118459,N
118696,N
118925,N
119228,N
119460,N
119690,N
119850,N
120213,N
120462,N
120758,N
121078,N
121225,N
121536,N
121791,N
122036,N
122282,N
122558,N
122956,N
123392,N
123624,N
123872,N
124334,N
124576,N
124891,N
125310,N
125617,N
125901,N
126066,N
126423,N
126649,N
126870,N
127107,N
127274,N
127610,N
128032,N
128311,N
128475,N
128854,N
129076,N
129302,N
129564,N
129800,N
130067,N
130296,N
130537,N
130716,N
131089,N
131357,N
131530,N
131865,N
132191,N
132405,N
132630,N
132877,N
133040,N
133353,N
133789,N
134018,N
134231,N
134387,N
134664,N
135117,N
135396,N
135672,N
135838,N
136175,N
136387,N
136616,N
136763,N
137066,N
137311,N
137560,N
137722,N
138060,N
138341,N
138496,N
138802,N
139026,N
139350,N
139575,N
139805,N
140027,N
140348,N
140584,N
140790,N
140959,N
141268,N
141607,N
141919,N
142096,N
142472,N
142701,N
142930,N
143152,N
143309,N
143608,N
143879,N
144121,N
144343,N
144510,N
144799,N
145068,N
145231,N
145555,N
145840,N
146015,N
146393,N
146621,N
146860,N
147089,N
147295,N
147573,N
148078,N
148311,N
148542,N
148785,N
149008,N
149247,N
149410,N
149731,N
149992,N
150176,N
150513,N
150800,N
151095,N
151246,N
151589,N
151831,N
152148,N
152316,N
152683,N
152942,N
153118,N
153386,N
153639,N
153861,N
154084,N
154251,N
154581,N
154812,N
155100,N
155356,N
155573,N
155824,N
156128,N
156279,N
156660,N
156924,N
157176,N
157395,N
157572,N
157838,N
158046,N
158276,N
158609,N
158835,N
159091,N
159335,N
159579,N
159810,N
160036,N
160246,N
160465,N
160691,N
160862,N
161270,N
161531,N
161760,N
161938,N
162197,N
162415,N
162631,N
162811,N
163116,N
163351,N
163617,N
163914,N
164065,N
164418,N
164661,N
164827,N
165155,N
165439,N
165668,N
165908,N
166071,N
166437,N
166670,N
166919,N
167096,N
167436,N
167689,N
167921,N
168268,N
168507,N
168735,N
168893,N
169209,N
169429,N
169659,N
169824,N
170150,N
170415,N
170653,N
170927,N
171330,N
171664,N
171965,N
172133,N
172532,N
172783,N
173017,N
173251,N
173575,N
173876,N
174044,N
174430,N
174721,N
174887,N
175183,N
175412,N
175703,N
175955,N
176282,N
176528,N
176792,N
177025,N
177314,N
177716,N
177996,N
178186,N
178547,N
178805,N
179044,N
179348,N
179572,N
179819,N
179967,N
180289,N
180554,N
180822,N
180996,N
181344,N
181575,N
181835,N
182143,N
182301,N
182648,N
182946,N
183118,N
183486,N
183915,N
184156,N
184370,N
184628,N
184879,N
185125,N
185383,N
185544,N
185967,N
186228,N
186484,N
186653,N
186958,N
187260,N
187426,N
187815,N
188045,N
188248,N
188460,N
188628,N
188927,N
189167,N
189408,N
189572,N
189865,N
190107,N
190359,N
190511,N
190778,N
191064,N
191241,N
191609,N
191860,N
192131,N
192288,N
192588,N
192835,N
193166,N
193419,N
193689,N
193869,N
194124,N
194371,N
194675,N
194931,N
195160,N
195384,N
195552,N
195862,N
196096,N
196338,N
196505,N
196851,N
197117,N
197279,N
197564,N
197863,N
198042,N
198363,N
198600,N
198798,N
199002,N
199246,N
199436,N
199669,N
199842,N
200222,N
200472,N
200688,N
200851,N
201161,N
201434,N
201594,N
201966,N
202247,N
202493,N
202769,N
202935,N
203216,N
203433,N
203638,N
203813,N
204081,N
204418,N
204702,N
204929,N
205147,N
205308,N
205600,N
205870,N
206027,N
206348,N
206641,N
206891,N
207072,N
207357,N
207580,N
207799,N
207965,N
208368,N
208590,N
208865,N
209026,N
209330,N
209591,N
209753,N
210011,N
210266,N
210496,N
210766,N
211049,N
211359,N
211516,N
211841,N
212085,N
212329,N
212504,N
212759,N
212988,N
213242,N
213412,N
213805,N
214070,N
214230,N
214587,N
214815,N
215150,N
215398,N
215640,N
215870,N
216032,N
216307,N
216710,N
216984,N
217151,N
217518,N
217786,N
218039,N
218209,N
218485,N
218712,N
218945,N
219195,N
219416,N
219696,N
219865,N
220216,N
220573,N
220821,N
221079,N
221253,N
221617,N
221874,N
222119,N
222342,N
222507,N
222805,N
223024,N
223248,N
223417,N
223695,N
224040,N
224315,N
224554,N
224781,N
224931,N
225230,N
225528,N
225806,N
226038,N
226323,N
226558,N
226855,N
227303,N
227678,N
227945,N
228195,N
228436,N
228717,N
228921,N
229139,N
229393,N
229596,N
229897,N
230165,N
230391,N
230689,N
230916,N
231071,N
231421,N
231638,N
232108,N
232370,N
232726,N
232963,N
233202,N
233364,N
233657,N
233882,N
234124,N
234292,N
234680,N
234914,N
235174,N
235557,N
235812,N
236071,N
236233,N
236566,N
236845,N
237020,N
237332,N
237678,N
237938,N
238212,N
238362,N
238702,N
238931,N
239197,N
239358,N
239679,N
239907,N
240142,N
240366,N
240572,N
240811,N
240983,N
241337,N
241618,N
241789,N
242080,N
242300,N
242510,N
242719,N
242896,N
243215,N
243485,N
243677,N
243984,N
244225,N
244450,N
244676,N
244894,N
245163,N
245328,N
245614,N
245853,N
246093,N
246262,N
246576,N
246781,N
247039,N
247327,N
247617,N
247789,N
248108,N
248380,N
248537,N
248858,N
249136,N
249303,N
249595,N
249849,N
250183,N
250466,N
250625,N
250903,N
251142,N
251364,N
251572,N
251747,N
252118,N
252340,N
252609,N
252806,N
253005,N
253215,N
253374,N
253705,N
253996,N
254161,N
254471,N
254742,N
254899,N
255187,N
255586,N
255840,N
256105,N
256275,N
256605,N
256882,N
257049,N
257335,N
257550,N
257779,N
258002,N
258242,N
258492,N
258735,N
258903,N
259174,N
259393,N
259645,N
259872,N
260107,N
260276,N
260600,N
260823,N
261069,N
261226,N
261516,N
261768,N
261930,N
262257,N
262551,N
262719,N
263059,N
263292,N
263542,N
263713,N
264120,N
264357,N
264604,N
264783,N
265081,N
265343,N
265566,N
265795,N
265949,N
266260,N
266491,N
266746,N
266975,N
267199,N
267458,N
267703,N
267899,N
268134,N
268358,N
268695,N
268975,N
269207,N
269376,N
269680,N
269929,N
270156,N
270314,N
270605,N
270812,N
271058,N
271215,N
271583,N
272000,N
272409,N
272648,N
272883,N
273047,N
273328,N
273790,N
273963,N
274336,N
274817,N
275178,N
275553,N
275805,N
276048,N
276294,N
276460,N
276748,N
276980,N
277220,N
277455,N
277688,N
277857,N
278158,N
278474,N
278738,N
278968,N
279204,N
279563,N
280041,N
280534,N
280803,N
280951,N
281274,N
281524,N
281759,N
282116,N
282390,N
282564,N
282781,N
282912,N
283272,N
283529,N
283752,N
283990,N
284147,N
284545,N
284787,N
285198,N
285417,N
285791,N
286036,N
286269,N
286550,N
286852,N
287019,N
287451,N
287757,N
287984,N
288225,N
288485,N
288647,N
289152,N
289404,N
289562,N
289863,N
290105,N
290507,N
290771,N
291018,N
291266,N
291424,N
291725,N
291898,N
292208,N
292612,N
292866,N
293162,N
293453,N
293616,N
294126,N
294366,N
294581,N
294820,N
294981,N
295282,N
295528,N
295759,N
296100,N
296358,N
296520,N
296862,N
297261,N
297598,N
297923,N
298385,N
298741,N
298963,N
299278,N
299478,N
299771,N
300008,N
300233,N
300394,N
300691,N
300961,N
301116,N
301514,N
301761,N
302014,N
302187,N
302473,N
302692,N
302923,N
303077,N
303415,N
303728,N
304102,N
304456,N
304711,N
304937,N
305182,N
305490,N
305650,N
305981,N
306346,N
306585,N
306806,N
307018,N
307172,N
307467,N
307693,N
307961,N
308406,N
308703,N
308856,N
309214,N
309460,N
309682,N
309976,N
310206,N
310471,N
310883,N
311134,N
311412,N
311567,N
311835,N
312064,N
312336,N
312500,N
312846,N
313078,N
313282,N
313455,N
313728,N
313942,N
314173,N
314353,N
314654,N
314914,N
315207,N
315429,N
315755,N
316005,N
316240,N
316403,N
316708,N
316961,N
317264,N
317759,N
317969,N
318162,N
318444,N
318682,N
318927,N
319101,N
319425,N
319664,N
319900,N
320136,N
320400,N
320652,N
320937,N
321202,N
321453,N
321612,N
321977,N
322203,N
322462,N
322703,N
322923,N
323150,N
323325,N
323688,N
323967,N
324122,N
324477,N
324730,N
325047,N
325273,N
325499,N
325787,N
325953,N
326245,N
326555,N
326703,N
327129,N
327410,N
327643,N
327866,N
328029,N
328537,N
329024,N
329364,N
329689,N
329949,N
330191,N
330418,N
330637,N
330790,N
331092,N
331360,N
331524,N
332027,N
332287,N
332518,N
332693,N
333066,N
333278,N
333547,N
333799,N
334041,N
334292,N
334454,N
334869,N
335082,N
335310,N
335569,N
335801,N
336093,N
336371,N
336609,N
336846,N
337098,N
337458,N
337751,N
337906,N
338252,N
338494,N
338740,N
338973,N
339126,N
339444,N
339657,N
339896,N
340127,N
340373,N
340644,N
340883,N
341156,N
341313,N
341673,N
341912,N
342295,N
342534,N
342791,N
342952,N
343296,N
343526,N
343817,N
344074,N
344235,N
344511,N
344735,N
344955,N
345132,N
345436,N
345684,N
345923,N
346144,N
346383,N
346602,N
346820,N
347066,N
347458,N
347661,N
347921,N
348090,N
348562,N
348860,N
349023,N
349341,N
349610,N
349766,N
350096,N
350368,N
350523,N
350853,N
351105,N
351314,N
351612,N
351855,N
352164,N
352375,N
352585,N
352786,N
352997,N
353245,N
353519,N
353799,N
353964,N
354298,N
354522,N
354747,N
354902,N
355257,N
355487,N
355748,N
355974,N
356201,N
356384,N
356652,N
356888,N
357108,N
357267,N
357607,N
358007,N
358343,N
358584,N
358798,N
359034,N
359185,N
359460,N
359741,N
359902,N
360281,N
360523,N
360766,N
360922,N
361261,N
361503,N
361899,N
362177,N
362336,N
362665,N
362987,N
363205,N
363462,N
363622,N
363923,N
364167,N
364395,N
364658,N
364820,N
365141,N
365381,N
365543,N
365868,N
366173,N
366329,N
366684,N
366922,N
367216,N
367366,N
367671,N
367907,N
368371,N
368535,N
368999,N
369255,N
369534,N
369684,N
369988,N
370223,N
370457,N
370633,N
370999,N
371294,N
371458,N
371831,N
372054,N
372275,N
372518,N
372689,N
373032,N
373356,N
373517,N
373897,N
374155,N
374456,N
374728,N
374988,N
375159,N
375519,N
375859,N
376095,N
376402,N
376551,N
376855,N
377094,N
377329,N
377561,N
377728,N
378036,N
378420,N
378645,N
378886,N
379074,N
379354,N
379593,N
379842,N
380020,N
380314,N
380540,N
380768,N
380929,N
381292,N
381537,N
381783,N
381943,N
382225,N
382643,N
382873,N
383100,N
383331,N
383502,N
383815,N
384212,N
384480,N
384715,N
384951,N
385199,N
385350,N
385698,N
385966,N
386257,N
386418,N
386758,N
387009,N
387168,N
387504,N
387903,N
388233,N
388493,N
388722,N
388964,N
389134,N
389472,N
389696,N
389949,N
390109,N
390496,N
390754,N
390995,N
391173,N
391501,N
391738,N
391981,N
392151,N
392711,N
393189,N
393517,N
393782,N
394062,N
394222,N
394589,N
395045,N
395304,N
395456,N
395732,N
396130,N
396386,N
396631,N
396867,N
397175,N
397590,N
397856,N
398016,N
398418,N
398902,N
399152,N
399426,N
399584,N
399924,N
400167,N
400427,N
400586,N
400900,N
401136,N
401597,N
401904,N
402124,N
402350,N
402653,N
402816,N
403151,N
403409,N
403633,N
403858,N
404018,N
404330,N
404613,N
404764,N
405062,N
405307,N
405575,N
405744,N
406120,N
406359,N
406604,N
406763,N
407177,N
407468,N
407916,N
408348,N
408600,N
408756,N
409061,N
409283,N
409526,N
409694,N
410062,N
410386,N
410543,N
410890,N
411121,N
411355,N
411520,N
411915,N
412157,N
412407,N
412574,N
412908,N
413196,N
413355,N
413896,N
414143,N
414377,N
414685,N
414896,N
415178,N
415414,N
415653,N
415902,N
416062,N
416441,N
416920,N
417178,N
417404,N
417633,N
417915,N
418188,N
418450,N
418745,N
419064,N
419299,N
419564,N
419969,N
420205,N
420456,N
420725,N
420886,N
421190,N
421409,N
421694,N
421998,N
422156,N
422516,N
422781,N
423042,N
423199,N
423524,N
423752,N
423972,N
424211,N
424365,N
424696,N
424958,N
425130,N
425477,N
425726,N
425964,N
426125,N
426495,N
426822,N
427068,N
427298,N
427552,N
427702,N
428026,N
428332,N
428583,N
428986,N
429324,N
429641,N
429890,N
430128,N
430419,N
430726,N
430881,N
431221,N
431473,N
431722,N
431895,N
432171,N
432393,N
432721,N
432955,N
433175,N
433368,N
433830,N
434269,N
434500,N
434726,N
435152,N
435397,N
435658,N
435964,N
436212,N
436500,N
436680,N
436997,N
437152,N
437445,N
437682,N
437907,N
438091,N
438399,N
438641,N
439062,N
439400,N
439705,N
439875,N
440208,N
440614,N
440834,N
441059,N
441220,N
441490,N
441752,N
441930,N
442241,N
442492,N
442770,N
442922,N
443233,N
443471,N
443791,N
444047,N
444290,N
444568,N
444725,N
445023,N
445288,N
445457,N
445764,N
446188,N
446453,N
446720,N
447133,N
447368,N
447650,N
447805,N
448370,N
448809,N
449088,N
449243,N
449562,N
449876,N
450029,N
450336,N
450677,N
450920,N
451165,N
451329,N
451629,N
451951,N
452105,N
452444,N
452696,N
453187,N
453665,N
453889,N
454254,N
454671,N
454916,N
455181,N
455345,N
455769,N
456011,N
456261,N
456418,N
456827,N
457301,N
457567,N
457854,N
458006,N
458415,N
458660,N
458883,N
459229,N
459550,N
459812,N
459972,N
460267,N
460577,N
460731,N
461053,N
461411,N
461661,N
461920,N
462086,N
462384,N
462601,N
462848,N
463012,N
463327,N
463618,N
463879,N
464046,N
464341,N
464567,N
464839,N
464988,N
465326,N
465569,N
465820,N
466128,N
466392,N
466649,N
466900,N
467230,N
467722,N
468288,N
468539,N
468697,N
469054,N
469276,N
469490,N
469960,N
470382,N
470618,N
470873,N
471030,N
471401,N
471800,N
472020,N
472255,N
472497,N
472664,N
472984,N
473216,N
473436,N
473688,N
473924,N
474149,N
474382,N
474673,N
474939,N
475272,N
475488,N
475711,N
475999,N
476256,N
476664,N
477117,N
477376,N
477549,N
477818,N
478060,N
478378,N
478629,N
479058,N
479320,N
479699,N
480129,N
480361,N
480593,N
480918,N
481182,N
481497,N
481831,N
481980,N
482456,N
482724,N
483044,N
483317,N
483859,N
484104,N
484423,N
484651,N
484893,N
485371,N
485842,N
486071,N
486370,N
486611,N
486838,N
487109,N
487359,N
487611,N
487922,N
488372,N
488628,N
488785,N
489218,N
489493,N
489743,N
489910,N
490216,N
490404,N
490774,N
491001,N
491315,N
491566,N
491839,N
492293,N
492552,N
492712,N
493019,N
493249,N
493505,N
493775,N
494041,N
494322,N
494562,N
494905,N
495228,N
495482,N
495763,N
496100,N
496367,N
496666,N
496823,N
497140,N
497390,N
497628,N
497942,N
498383,N
498695,N
498851,N
499274,N
499723,N
499987,N
500275,N
500626,N
500914,N
501343,N
501579,N
502010,N
502561,N
502808,N
503068,N
503220,N
503598,N
504000,N
504325,N
504654,N
504858,N
505237,N
505480,N
505771,N
506277,N
506544,N
506717,N
507050,N
507397,N
507640,N
507989,N
508330,N
508614,N
509037,N
509316,N
509577,N
509744,N
510096,N
510415,N
510571,N
510873,N
511128,N
511438,N
511606,N
511910,N
512168,N
512322,N
512650,N
512924,N
513226,N
513508,N
513815,N
514104,N
514339,N
514636,N
514796,N
515183,N
515664,N
515922,N
516210,N
516527,N
516786,N
517058,N
517599,N
517944,N
518203,N
518468,N
518725,N
518972,N
519209,N
519461,N
519621,N
519975,N
520236,N
520475,N
521002,N
521329,N
521600,N
521857,N
522035,N
522363,N
522588,N
522828,N
523050,N
523282,N
523678,N
524026,N
524269,N
524569,N
524832,N
525060,N
525318,N
525709,N
525973,N
526139,N
526571,N
527099,N
527419,N
527649,N
527812,N
528245,N
528526,N
528765,N
528942,N
529212,N
529436,N
529667,N
529917,N
530140,N
530369,N
530611,N
530777,N
531128,N
531389,N
531672,N
531949,N
532264,N
532580,N
532884,N
533179,N
533424,N
533652,N
533892,N
534214,N
534532,N
534696,N
535065,N
535323,N
535484,N
536018,N
536266,N
536596,N
536854,N
537293,N
537695,N
538016,N
538258,N
538528,N
538829,N
539087,N
539430,N
539700,N
539945,N
540192,N
540464,N
540703,N
540894,N
541266,N
541518,N
541780,N
542023,N
542264,N
542663,N
542997,N
543276,N
543571,N
543872,N
544134,N
544311,N
544677,N
544992,N
545234,N
545508,N
545818,N
546166,N
546424,N
546656,N
546951,N
547314,N
547560,N
547916,N
548248,N
548502,N
548774,N
549010,N
549272,N
549577,N
549827,N
550228,N
550511,N
550673,N
551197,N
551436,N
551592,N
551969,N
552254,N
552561,N
552817,N
553232,N
553494,N
553897,N
554194,N
554364,N
554697,N
555015,N
555248,N
555519,N
555754,N
556063,N
556318,N
556612,N
556934,N
557182,N
557428,N
557722,N
557954,N
558203,N
558531,N
558837,N
559100,N
559500,N
559790,N
559941,N
560305,N
560568,N
560828,N
561148,N
561439,N
561603,N
561904,N
562336,N
562584,N
562823,N
563132,N
563635,N
563882,N
564107,N
564284,N
564556,N
564846,N
565112,N
565430,N
565675,N
565993,N
566225,N
566448,N
566669,N
566826,N
567143,N
567606,N
568020,N
568395,N
568642,N
568863,N
569125,N
569415,N
569661,N
569902,N
570177,N
570502,N
570753,N
570995,N
571414,N
571778,N
572063,N
572324,N
572592,N
572816,N
572963,N
573283,N
573532,N
573790,N
574073,N
574344,N
574740,N
574985,N
575279,N
575544,N
575804,N
576127,N
576639,N
576952,N
577174,N
577414,N
577637,N
577875,N
578112,N
578449,N
578699,N
578929,N
579158,N
579406,N
579681,N
579934,N
580311,N
580775,N
581023,N
581255,N
581478,N
581782,N
582039,N
582352,N
582621,N
582860,N
583089,N
583312,N
583524,N
583677,N
584015,N
584343,N
584791,N
585042,N
585215,N
585477,N
585690,N
585901,N
586128,N
586359,N
586524,N
586914,N
587148,N
587386,N
587638,N
587962,N
588208,N
588599,N
588862,N
589029,N
589406,N
589668,N
589959,N
590211,N
590604,N
590898,N
591064,N
591461,N
591689,N
591912,N
592167,N
592428,N
592818,N
593084,N
593243,N
593582,N
593814,N
594039,N
594285,N
594516,N
594750,N
594991,N
595441,N
595737,N
595970,N
596236,N
596477,N
596789,N
597076,N
597321,N
597655,N
597973,N
598242,N
598512,N
598753,N
598972,N
599201,N
599463,N
599757,N
600016,N
600287,N
600522,N
600788,N
601269,N
601527,N
601851,N
602093,N
602346,N
602571,N
602801,N
603032,N
603274,N
603694,N
603959,N
604220,N
604462,N
604722,N
604977,N
605210,N
605441,N
605720,N
605968,N
606293,N
606552,N
606786,N
607006,N
607262,N
607514,N
607755,N
608145,N
608388,N
608626,N
608875,N
609188,N
609467,N
609716,N
609877,N
610233,N
610524,N
610780,N
611057,N
611392,N
611794,N
612135,N
612396,N
612683,N
612999,N
613236,N
613463,N
613683,N
613930,N
614357,N
614621,N
614915,N
615182,N
615732,N
616131,N
616398,N
616759,N
617239,N
617682,N
617924,N
618159,N
618528,N
618778,N
618948,N
619318,N
619658,N
619878,N
620110,N
620333,N
620541,N
620844,N
621104,N
621340,N
621778,N
622025,N
622264,N
622695,N
622950,N
623102,N
623436,N
623753,N
624041,N
624335,N
624570,N
624815,N
625094,N
625356,N
625650,N
626129,N
626439,N
626750,N
626980,N
627399,N
627672,N
628020,N
628259,N
628520,N
628756,N
629019,N
629279,N
629545,N
629804,N
630145,N
630435,N
630675,N
630968,N
631286,N
631515,N
631763,N
632066,N
632337,N
632648,N
632887,N
633135,N
633404,N
633708,N
633946,N
634320,N
634667,N
634913,N
635070,N
635484,N
635891,N
636139,N
636408,N
636644,N
636935,N
637425,N
637692,N
638014,N
638257,N
638512,N
638778,N
639128,N
639539,N
639842,N
640061,N
640295,N
640568,N
640858,N
641154,N
641429,N
641678,N
641975,N
642257,N
642652,N
642963,N
643255,N
643558,N
643840,N
644085,N
644306,N
644540,N
644782,N
645044,N
645304,N
645595,N
645826,N
646068,N
646322,N
646626,N
647058,N
647312,N
647575,N
647957,N
648281,N
648527,N
648753,N
648973,N
649227,N
649521,N
649800,N
