151,N
425,N
714,N
1053,N
1356,N
1642,N
1925,N
2213,N
2490,N
2784,N
3082,N
3390,N
3685,N
3976,N
4264,N
4532,N
4808,N
4981,|
5433,N
5600,N
5773,N
6038,N
6276,N
6627,N
6800,N
7190,N
7390,N
7819,N
8004,N
8388,N
8559,N
8924,N
9108,N
9497,N
9685,N
10090,N
10283,N
10647,N
10820,N
11192,N
11370,N
11771,N
11966,N
12397,N
12707,N
13006,N
13281,N
13568,N
13889,N
14230,N
14561,N
14890,N
15182,N
15458,N
15742,N
16089,N
16471,N
16818,N
16992,|
17387,N
17673,N
17988,N
18354,N
19117,N
19401,N
19688,N
19894,N
20128,N
20743,N
21115,N
21430,N
21702,N
21992,N
22298,N
22621,N
22851,N
23276,N
23594,N
23884,N
24052,N
24464,N
24669,N
25104,N
25415,N
25727,N
26015,N
26296,N
26577,N
26879,N
27216,N
27549,N
27881,N
28164,N
28444,N
28728,N
29029,N
29346,N
29651,N
29863,N
30239,N
30527,N
30819,N
31120,N
31425,N
31725,N
31918,N
32319,N
32504,N
32881,N
33173,N
33471,N
33653,N
34109,N
34307,N
34714,N
34885,N
35283,N
35473,N
35929,N
36157,N
36595,N
36766,N
37175,N
37388,N
37873,N
38110,N
38582,N
38775,N
39162,N
39357,N
39830,N
40077,N
40560,N
40781,N
41211,N
41556,N
41990,N
42401,N
42754,N
43076,N
43381,N
43695,N
44067,N
44461,N
44798,N
45105,N
45409,N
45726,N
46047,N
46391,N
46627,N
47061,N
47252,N
47641,N
47866,N
48247,N
48545,N
48892,N
49215,N
49512,N
49781,N
50067,N
50364,N
50664,N
50988,N
51306,N
51608,N
51877,N
52060,N
52474,N
52665,N
53109,N
53294,N
53716,N
54001,N
54288,N
54491,N
54929,N
55253,N
55558,N
55871,N
56174,N
56363,N
56737,N
57021,N
57311,N
57600,N
57807,N
58183,N
58451,N
58717,N
58903,N
59322,N
59653,N
59982,N
60273,N
60549,N
60726,N
61109,N
61311,N
61780,N
62119,N
62420,N
63292,N
63667,N
63995,N
64320,N
64627,N
64917,N
65215,N
65562,N
65837,N
66259,N
66593,N
66912,N
67206,N
67523,N
67863,N
68221,N
68535,N
68854,N
69150,N
69437,N
69659,N
70055,N
70402,N
70743,N
71051,N
71328,N
71604,N
71906,N
72203,N
72449,N
72867,N
73171,N
73449,N
73721,N
74022,N
74343,N
74697,N
74952,N
75341,N
75623,N
75904,N
76196,N
76533,N
76876,N
77203,N
77507,N
77806,N
77988,N
78382,N
78564,N
78993,N
79302,N
79605,N
79792,N
80431,N
80716,N
81035,N
81383,N
81721,N
82001,N
82266,N
82444,N
82850,N
83053,N
83519,N
83861,N
84149,N
84420,N
84731,N
84954,N
85395,N
85709,N
86030,N
86311,N
86581,N
87525,N
87856,N
89872,N
90216,N
90920,N
91225,N
91538,N
91869,N
92562,N
92890,N
93184,N
93476,N
93764,N
94080,N
94395,N
94697,N
94984,N
95269,N
95568,N
95789,N
96205,N
96506,N
96797,N
97088,N
97376,N
97669,N
97955,N
98292,N
98585,N
98889,N
99189,N
99480,N
99675,N
99917,N
100038,N
100165,N
100279,N
100633,N
101009,N
101238,|
101596,N
101674,N
101879,N
102155,N
102462,N
102770,N
103084,N
103378,N
103654,N
103929,N
104217,N
104531,N
104852,N
105155,N
105443,N
105630,N
106039,N
106347,N
106645,N
106972,N
107283,N
107473,N
107882,N
108171,N
108471,N
108763,N
109081,N
109404,N
109606,N
109994,N
110166,N
110562,N
110860,N
111175,N
111512,N
111830,N
112126,N
112386,N
112670,N
112995,N
113305,N
113616,N
113913,N
114209,N
114470,N
114742,N
115055,N
115377,N
115692,N
115965,N
116289,N
116585,N
116865,N
117143,N
117451,N
117752,N
118041,N
118643,N
118911,N
119173,N
119452,N
119776,N
119987,N
120084,N
120394,N
120669,N
120934,N
121200,N
121476,N
121776,N
122118,N
122435,N
122731,N
123009,N
123288,N
123479,N
123873,N
124075,N
124488,N
124685,N
125073,N
125247,N
125623,N
125804,N
126207,N
126406,N
126841,N
127040,N
127423,N
127597,N
127993,N
128189,N
128737,N
128971,N
129404,N
129590,N
129974,N
130211,N
130817,N
131093,N
131540,N
131717,N
132097,N
132283,N
132754,N
132980,N
133492,N
133700,N
134132,N
134320,N
134752,N
134968,N
135482,N
135706,N
136132,N
136315,N
136718,N
136920,N
137150,N
137349,N
137582,N
138273,N
138658,N
138842,N
139257,N
139455,N
139922,N
140124,N
140515,N
140691,N
141107,N
141303,N
141739,N
141942,N
142377,N
142559,N
142946,N
143142,N
143577,N
143772,N
144189,N
144406,N
144827,N
145008,N
145400,N
145604,N
146020,N
146218,N
146664,N
146850,N
147230,N
147413,N
148051,N
148452,N
148654,N
149056,N
149237,N
149622,N
149825,N
150238,N
150432,N
150860,N
151076,N
151494,N
151687,N
152097,N
152300,N
152736,N
152968,N
153403,N
153592,N
153975,N
154172,N
154632,N
154846,N
155278,N
155585,N
155892,N
156185,N
156525,N
156879,N
157068,N
157499,N
157811,N
158125,N
158427,N
158747,N
158946,N
159382,N
159553,N
159970,N
160278,N
160582,N
160894,N
161199,N
161402,N
161836,N
162143,N
162439,N
162737,N
163038,N
163237,N
163680,N
163979,N
164262,N
164555,N
164864,N
165182,N
165384,N
165817,N
166111,N
166392,N
166690,N
166995,N
167185,N
167616,N
167928,N
168248,N
168536,N
168828,N
169124,N
169314,N
169730,N
170045,N
170371,N
170654,N
170941,N
171240,N
171569,N
171891,N
172210,N
172515,N
172817,N
173114,N
173435,N
173766,N
174102,N
174426,N
174750,N
174951,N
175424,N
175622,N
176088,N
176292,N
176751,N
176946,N
177376,N
177595,N
178093,N
178344,N
178874,N
179084,N
179486,N
179677,N
180183,N
180410,N
180890,N
181093,N
181500,N
181682,N
182167,N
182413,N
182897,N
183109,N
183521,N
183695,N
184113,N
184330,N
184833,N
185031,N
185476,N
185678,N
186085,N
186271,N
186716,N
186948,N
187389,N
187590,N
188001,N
188179,N
188575,N
188924,N
189302,N
189638,N
189937,N
190225,N
190512,N
190783,N
191161,N
191510,N
191818,N
192123,N
192299,N
192704,N
192897,N
193300,N
193634,N
193948,N
194247,N
194528,N
194816,N
195006,N
195428,N
195813,N
196155,N
196328,N
196737,N
196937,N
197333,N
197677,N
198066,N
198390,N
198680,N
198972,N
199273,N
199593,N
199813,N
200262,N
200586,N
200887,N
201177,N
201385,N
201773,N
202085,N
202444,N
202797,N
202995,N
203367,N
203659,N
203967,N
204280,N
204621,N
204962,N
205255,N
205525,N
205710,N
206132,N
206319,N
206752,N
207069,N
207357,N
207629,N
207816,N
208215,N
208534,N
208842,N
209170,N
209480,N
209759,N
210046,N
210347,N
210660,N
210964,N
211150,N
211607,N
211789,N
212177,N
212478,N
212808,N
213129,N
213441,N
213736,N
214020,N
214299,N
214595,N
214913,N
215225,N
215520,N
215837,N
216135,N
216420,N
216707,N
217014,N
217326,N
217633,N
217966,N
218271,N
218559,N
218733,N
219158,N
219505,N
219846,N
220045,N
220451,N
220631,N
221033,N
221227,N
221687,N
221904,N
222363,N
222670,N
222996,N
223328,N
223655,N
223975,N
224195,N
224623,N
224912,N
225216,N
225533,N
225844,N
226164,N
226512,N
226840,N
227110,N
227409,N
227612,N
228033,N
228348,N
228666,N
228967,N
229254,N
229553,N
229883,N
230211,N
230517,N
230823,N
231127,N
231424,N
231731,N
232050,N
232373,N
232677,N
232996,N
233313,N
233624,N
233814,N
234243,N
234433,N
234877,N
235211,N
235508,N
235806,N
236107,N
236442,N
236772,N
237089,N
237391,N
237694,N
237997,N
238298,N
238617,N
238946,N
239263,N
239587,N
239903,N
240100,N
240525,N
240860,N
241173,N
241501,N
241834,N
242129,N
242325,N
242747,N
243094,N
243426,N
243626,N
244050,N
244260,N
244679,N
244892,N
245370,N
245579,N
246012,N
246311,N
246630,N
246959,N
247277,N
247602,N
247919,N
248227,N
248532,N
248842,N
249165,N
249470,N
249818,N
250151,N
250351,N
250756,N
250936,N
251359,N
251556,N
252004,N
252199,N
252603,N
252780,N
253204,N
253403,N
253835,N
254032,N
254464,N
254644,N
255037,N
255228,N
255665,N
255894,N
256311,N
256513,N
256945,N
257129,N
257520,N
257705,N
258130,N
258448,N
258777,N
259070,N
259347,N
259633,N
259955,N
260284,N
260607,N
260916,N
261216,N
261495,N
261687,N
262119,N
262462,N
262791,N
263105,N
263429,N
263727,N
263915,N
264336,N
264678,N
264990,N
265304,N
265614,N
265897,N
266194,N
266504,N
266910,N
267134,N
267582,N
267875,N
268164,N
268461,N
268779,N
269166,N
269512,N
269816,N
270108,N
270432,N
270766,N
271104,N
271457,N
271790,N
271963,N
272386,N
272700,N
273011,N
273335,N
273695,N
274039,N
274346,N
274640,N
274821,N
275265,N
275455,N
275982,N
276180,N
276591,N
276769,N
277219,N
277422,N
277914,N
278133,N
278571,N
278748,N
279168,N
279367,N
279809,N
280008,N
280479,N
280679,N
281074,N
281255,N
281674,N
281867,N
282326,N
282557,N
282974,N
283153,N
283563,N
283779,N
284275,N
284514,N
284973,N
285156,N
285555,N
285752,N
286226,N
286436,N
286881,N
287090,N
287500,N
287798,N
288101,N
288433,N
288755,N
289115,N
289355,N
289738,N
290033,N
290347,N
290678,N
291001,N
291334,N
291534,N
291917,N
292205,N
292516,N
292854,N
293175,N
293495,N
293797,N
294094,N
294395,N
294719,N
295033,N
295341,N
295646,N
295957,N
296250,N
296538,N
296837,N
297150,N
297481,N
297796,N
298107,N
298388,N
298679,N
298977,N
299291,N
299616,N
299929,N
300108,N
300522,N
300832,N
301141,N
301452,N
301762,N
302077,N
302380,N
302672,N
302967,N
303281,N
303589,N
303912,N
304246,N
304564,N
304851,N
305150,N
305473,N
305806,N
306151,N
306488,N
306808,N
307104,N
307436,N
307801,N
308163,N
308485,N
308799,N
308969,N
309407,N
309743,N
310098,N
310438,N
310769,N
311134,N
311449,N
311751,N
311962,N
312444,N
312774,N
313086,N
313407,N
313717,N
314022,N
314365,N
314724,N
315066,N
315369,N
315680,N
315986,N
316315,N
316666,N
317000,N
317307,N
317599,N
317929,N
318247,N
318574,N
318888,N
319116,N
319513,N
319814,N
320142,N
320455,N
320759,N
321085,N
321427,N
321749,N
322036,N
322351,N
322671,N
322996,N
323338,N
323662,N
323955,N
324235,N
324554,N
324880,N
325210,N
325532,N
325848,N
326138,N
326438,N
326775,N
327103,N
327434,N
327783,N
328137,N
328450,N
328755,N
329112,N
329456,N
329818,N
330196,N
330386,N
330827,N
331157,N
331544,N
331911,N
332284,N
332624,N
332931,N
333249,N
333683,N
334037,N
334403,N
334744,N
335058,N
335383,N
335743,N
336125,N
336459,N
336780,N
337098,N
337418,N
337743,N
338093,N
338437,N
338784,N
339113,N
339408,N
339712,N
340026,N
340383,N
340731,N
341054,N
341361,N
341532,N
341970,N
342292,N
342681,N
342998,N
343309,N
343597,N
343896,N
344212,N
344534,N
344874,N
345203,N
345528,N
345835,N
346121,N
346421,N
346739,N
347003,N
347397,N
347697,N
347990,N
348277,N
348589,N
348918,N
349272,N
349576,N
349880,N
350169,N
350466,N
350793,N
351122,N
351480,N
351793,N
352129,N
352440,N
352755,N
353074,N
353411,N
353753,N
354073,N
354394,N
354708,N
355020,N
355356,N
355791,N
356158,N
356453,N
356753,N
357064,N
357382,N
357710,N
358091,N
358415,N
358704,N
358921,N
359339,N
359677,N
360000,N
360347,N
360651,N
360963,N
361293,N
361619,N
361943,N
362268,N
362637,N
362945,N
363115,N
363564,N
363907,N
364229,N
364576,N
364923,N
365216,N
365384,N
365836,N
366196,N
366542,N
366875,N
367207,N
367502,N
367826,N
368175,N
368506,N
368820,N
369157,N
369480,N
369793,N
370107,N
370325,N
370761,N
370958,N
371444,N
371615,N
372027,N
372326,N
372721,N
373059,N
373385,N
373715,N
374010,N
374345,N
374592,N
375091,N
375434,N
375755,N
376066,N
376397,N
376789,N
377191,N
377533,N
377857,N
378206,N
378539,N
378903,N
379293,N
379583,N
379984,N
380316,N
380627,N
380949,N
381306,N
381643,N
381995,N
382301,N
382620,N
382916,N
383266,N
383635,N
383982,N
384287,N
384589,N
384886,N
385105,N
385548,N
385750,N
386199,N
386512,N
386821,N
387132,N
387439,N
387769,N
387963,N
388411,N
388722,N
389019,N
389337,N
389647,N
389994,N
390349,N
390695,N
390989,N
391280,N
391581,N
391906,N
392255,N
392589,N
392892,N
393192,N
393517,N
393846,N
394180,N
394511,N
394857,N
395175,N
395479,N
395810,N
396147,N
396485,N
396837,N
397208,N
397526,N
397820,N
398157,N
398480,N
398821,N
399184,N
399509,N
399781,N
400123,N
400548,N
400932,N
401275,N
401604,N
401908,N
402209,N
402411,N
402957,N
403317,N
403651,N
403968,N
404280,N
404603,N
404960,N
405305,N
405629,N
405959,N
406267,N
406562,N
406872,N
407215,N
407580,N
407916,N
408214,N
408501,N
408806,N
409131,N
409350,N
409833,N
410152,N
410442,N
410748,N
411061,N
411418,N
411775,N
411984,N
412412,N
412596,N
413021,N
413336,N
413660,N
413996,N
414341,N
414667,N
414953,N
415119,N
415567,N
415930,N
416297,N
416628,N
416938,N
417228,N
417563,N
417931,N
418195,N
418676,N
419008,N
419306,N
419560,N
419969,N
420310,N
420702,N
421043,N
421373,N
421694,N
422021,N
422382,N
422793,N
423200,N
423544,N
423863,N
424195,N
424554,N
424979,N
425390,N
425719,N
426031,N
426354,N
426699,N
427078,N
427488,N
427817,N
428126,N
428466,N
428829,N
429175,N
429517,N
429854,N
430165,N
430488,N
430821,N
431159,N
431492,N
431846,N
432171,N
432478,N
432791,N
433120,N
433447,N
433777,N
434112,N
434421,N
434719,N
435051,N
435266,N
435740,N
436044,N
436363,N
436645,N
436946,N
437278,N
438862,N
439178,N
439481,N
439802,N
440109,N
440325,N
440785,N
441098,N
441399,N
441590,N
442097,N
442475,N
442809,N
443121,N
443432,N
443740,N
444060,N
444275,N
444743,N
445054,N
445375,N
445753,N
446129,N
446459,N
446784,N
446980,N
447373,N
447700,N
448050,N
448384,N
448701,N
448896,N
449300,N
449616,N
449973,N
450323,N
450638,N
450768,N
450896,|
451241,N
451526,N
451836,N
452160,N
452493,N
452693,N
453087,N
453421,N
453709,N
453976,N
454280,N
454484,N
454905,N
455111,N
455507,N
455787,N
456047,N
456332,N
456680,N
457006,N
457331,N
457628,N
457911,N
458175,N
458467,N
458807,N
459095,N
459459,N
459743,N
460025,N
460308,N
460596,N
460892,N
461215,N
461534,N
461824,N
462115,N
462398,N
462597,N
462974,N
463301,N
463663,N
464027,N
464341,N
464535,N
464907,N
465126,N
465634,N
465895,N
466358,N
466656,N
466926,N
467221,N
467621,N
468541,N
468863,N
469158,N
469511,N
469927,N
470317,N
470592,N
471018,N
471195,N
471609,N
471907,N
472488,N
472890,N
473184,N
473478,N
473774,N
474111,N
474392,N
474909,N
475239,N
475508,N
475695,N
476135,N
476476,N
476804,N
477115,N
477425,N
477696,N
477894,N
478319,N
478519,N
478958,N
479156,N
479593,N
479884,N
480195,N
480488,N
480784,N
481084,N
481392,N
481722,N
482011,N
482217,N
482604,N
482927,N
483263,N
483589,N
483883,N
484165,N
484451,N
484752,N
485058,N
485366,N
485682,N
485866,N
486259,N
486576,N
486899,N
487202,N
487509,N
487840,N
488134,N
488439,N
488771,N
489116,N
489430,N
489695,N
490121,N
490451,N
490785,N
491103,N
491432,N
491738,N
492065,N
492320,N
492430,N
492597,N
492722,N
492965,N
493423,N
493828,N
494215,N
494549,N
494774,N
494870,N
495193,N
495495,N
495912,N
496251,N
496593,N
496896,N
497186,N
497526,N
497907,N
498263,N
498590,N
498885,N
499166,N
499464,N
499801,N
500149,N
500488,N
500784,N
500967,N
501394,N
501702,N
502027,N
502368,N
502690,N
502999,N
503191,N
503598,N
503899,N
504115,N
504539,N
504888,N
505210,N
505499,N
505663,N
506039,N
506251,N
506737,N
506958,N
507377,N
507552,N
507946,N
508134,N
508594,N
508817,N
509259,N
509446,N
509848,N
510035,N
510458,N
510661,N
511164,N
511364,N
511809,N
512002,N
512421,N
512604,N
513085,N
513325,N
513796,N
514004,N
514417,N
514617,N
515042,N
515282,N
515890,N
516126,N
516532,N
516734,N
517209,N
517444,N
518001,N
518239,N
518658,N
518849,N
519319,N
519552,N
520066,N
520291,N
520713,N
520896,N
521349,N
521567,N
522042,N
522255,N
522701,N
522893,N
523320,N
523539,N
523973,N
524164,N
524598,N
524763,N
525213,N
525377,N
525840,N
526033,N
526478,N
526810,N
527118,N
527384,N
527666,N
527881,N
528290,N
528637,N
528960,N
529255,N
529534,N
529848,N
530189,N
530425,N
530748,|
531366,|
531696,|
532011,N
532149,|
532488,|
532855,N
532970,N
533292,N
533470,N
533866,N
534037,N
534492,N
534822,N
535036,N
535477,N
535785,N
536049,N
536387,N
536774,N
537119,N
537441,N
537749,N
538049,N
538246,N
538691,N
539083,N
539425,N
539716,N
540082,N
540397,N
540732,N
540929,|
541156,N
541418,N
541728,N
541945,N
542042,N
542134,N
542210,|
542540,N
542948,N
543269,N
543632,N
543969,N
544271,N
544539,N
544857,N
545157,N
545489,N
545826,N
546133,N
546425,N
546722,N
547026,N
547332,N
547648,N
547875,|
548559,N
548771,N
548847,N
549161,N
549456,N
549744,N
550080,N
550405,N
550711,N
550895,N
551285,N
551582,N
551771,N
552214,N
552547,N
552838,N
553117,N
553412,N
553680,N
553879,N
554355,N
554671,N
554973,N
555254,N
555556,N
555863,N
556193,N
556504,N
556838,N
557047,N
557457,N
557725,N
558075,N
558416,N
558753,N
558942,N
559397,N
559571,N
559981,N
560303,N
560661,N
561033,N
561354,N
561656,N
561953,N
562272,N
562612,N
562981,N
563344,N
563639,N
563832,N
564234,N
564581,N
564921,N
565245,N
565481,N
565885,N
566185,N
566486,N
566821,N
567024,N
567467,N
567806,N
568104,N
568382,N
568670,N
569000,N
569326,N
569647,N
569966,N
570253,N
570534,N
570843,N
571183,N
571509,N
571815,N
572125,N
572397,N
572707,N
573011,N
573352,N
573663,N
573981,N
574317,N
574620,N
574896,N
575182,N
575502,N
575700,N
576140,N
576471,N
576766,N
577048,N
577351,N
577630,N
577863,N
578350,N
578537,N
578966,N
579149,N
579578,N
579907,N
580260,N
580582,N
580910,N
581098,N
581499,N
581679,N
582134,N
582335,N
582795,N
583006,N
583419,N
583595,N
584042,N
584258,N
584761,N
585082,N
585383,N
585667,N
585962,N
586159,N
586613,N
586830,N
587245,N
587533,N
587853,N
588155,N
588334,N
588761,N
589087,N
589393,N
589697,N
589981,N
590255,N
590560,N
590815,N
591222,N
591536,N
591823,N
591988,N
592387,N
592566,N
593005,N
593326,N
593634,N
593915,N
594207,N
594507,N
594691,N
595110,N
595427,N
595737,N
596020,N
596326,N
596611,N
596907,N
597207,N
597390,N
597872,N
598054,N
598447,N
598736,N
599030,N
599341,N
599550,N
600005,N
600201,N
600594,N
600899,N
601226,N
601557,N
601788,N
602178,N
602410,N
602806,N
603108,N
603415,N
603737,N
603929,N
604392,N
604614,N
605020,N
605195,N
605635,N
605966,N
606288,N
606643,N
606951,N
607229,N
607520,N
607847,N
608177,N
608456,N
608819,N
609120,N
609411,N
609713,N
610049,N
610243,N
610675,N
610865,N
611315,N
611492,N
611921,N
612107,N
612553,N
612737,N
613187,N
613391,N
613783,N
614079,N
614402,N
614748,N
615066,N
615367,N
615548,N
615944,N
616257,N
616581,N
616909,N
617221,N
617527,N
617723,N
618130,N
618435,N
618738,N
619046,N
619358,N
619667,N
619983,N
620258,N
620552,N
620736,N
621190,N
621510,N
621828,N
622133,N
622418,N
622588,N
623040,N
623393,N
623719,N
624034,N
624352,N
624656,N
624843,N
625311,N
625635,N
625954,N
626250,N
626579,N
626877,N
627206,N
627551,N
627896,N
628227,N
628537,N
628832,N
629127,N
629433,N
629758,N
630098,N
630408,N
630700,N
631001,N
631315,N
631505,N
631973,N
632186,N
632601,N
632856,N
633181,N
633486,N
633679,N
634103,N
634415,N
634746,N
635040,N
635332,N
635613,N
635921,N
636234,N
636551,N
636869,N
637147,N
637439,N
637628,N
638061,N
638392,N
638712,N
639003,N
639199,N
639577,N
639753,N
640169,N
640467,N
640788,N
641101,N
641405,N
641585,N
641974,N
642149,N
642580,N
642777,N
643203,N
643509,N
643795,N
644086,N
644391,N
644731,N
644944,N
645375,N
645676,N
645965,N
646263,N
646572,N
646903,N
647101,N
647508,N
647839,N
648055,N
648456,N
648769,N
649100,N
649308,N
649754,N
