66,N
340,N
608,N
871,N
1129,N
1392,N
1656,N
1917,N
2189,N
2455,N
2716,N
2974,N
3231,N
3491,N
3751,N
4015,N
4288,N
4559,N
4828,N
5105,N
5377,N
5652,N
5917,N
6185,N
6450,N
6723,N
6997,N
7253,N
7515,N
7766,N
8016,N
8264,N
8515,N
8772,N
9043,N
9320,N
9588,N
9861,N
10145,N
10427,N
10706,N
10979,N
11251,N
11523,N
11796,N
12070,N
12349,N
12635,N
12914,N
13198,N
13488,N
13769,N
14044,N
14321,N
14600,N
14865,N
15142,N
15425,N
15699,N
15974,N
16260,N
16561,N
16860,N
17155,N
17443,N
17721,N
18000,N
18271,N
18552,N
18842,N
19126,N
19405,N
19683,N
19971,N
20262,N
20553,N
20825,N
21102,N
21387,N
21681,N
21989,N
22291,N
22588,N
22887,N
23193,N
23485,N
23770,N
24049,N
24340,N
24641,N
24938,N
25236,N
25536,N
25819,N
26080,N
26345,N
26614,N
26876,N
27151,N
27439,N
27732,N
28025,N
28322,N
28624,N
28914,N
29203,N
29487,N
29775,N
30074,N
30374,N
30662,N
30943,N
31213,N
31488,N
31781,N
32072,N
32368,N
32664,N
32972,N
33281,N
33575,N
33862,N
34147,N
34432,N
34674,N
34913,N
35001,N
35302,N
35611,N
35938,N
36252,N
36567,N
36883,N
37175,N
37467,N
37754,N
38048,N
38346,N
38658,N
38968,N
39259,N
39544,N
39828,N
40114,N
40393,N
40674,N
40956,N
41233,N
41521,N
41818,N
42126,N
42428,N
42738,N
43055,N
43364,N
43661,N
43936,N
44209,N
44477,N
44748,N
45022,N
45288,N
45556,N
45829,N
46103,N
46381,N
46655,N
46940,N
47265,N
47589,N
47920,N
48239,N
48537,N
48829,N
49126,N
49415,N
49700,N
49984,N
50260,N
50541,N
50829,N
51119,N
51411,N
51708,N
51994,N
52284,N
52584,N
52880,N
53166,N
53447,N
53722,N
53999,N
54266,N
54537,N
54811,N
55084,N
55365,N
55660,N
55948,N
56225,N
56496,N
56762,N
57024,N
57286,N
57555,N
57830,N
58103,N
58379,N
58650,N
58933,N
59224,N
59512,N
59783,N
60036,N
60286,N
60528,N
60767,N
61006,N
61253,N
61495,N
61743,N
61991,N
62245,N
62506,N
62752,N
63009,N
63253,N
63495,N
63747,N
63988,N
64237,N
64485,N
64722,N
64958,N
65195,N
65426,N
65663,N
65892,N
66119,N
66336,N
66554,N
66773,N
67006,N
67247,N
67506,N
67785,N
68066,N
68341,N
68597,N
68851,N
69097,N
69326,N
69559,N
69782,N
70010,N
70242,N
70481,N
70726,N
70988,N
71250,N
71512,N
71772,N
72046,N
72315,N
72572,N
72832,N
73083,N
73333,N
73585,N
73836,N
74098,N
74372,N
74634,N
74894,N
75155,N
75419,N
75684,N
75943,N
76206,N
76471,N
76728,N
76980,N
77230,N
77476,N
77720,N
77954,N
78186,N
78417,N
78650,N
78893,N
79137,N
79389,N
79635,N
79888,N
80148,N
80408,N
80663,N
80921,N
81168,N
81419,N
81662,N
81904,N
82151,N
82387,N
82619,N
82845,N
83079,N
83328,N
83579,N
83837,N
84096,N
84354,N
84600,N
84840,N
85088,N
85337,N
85575,N
85820,N
86063,N
86325,N
86593,N
86842,N
87093,N
87342,N
87591,N
87839,N
88080,N
88327,N
88577,N
88822,N
89070,N
89316,N
89578,N
89852,N
90109,N
90377,N
90654,N
90909,N
91162,N
91413,N
91672,N
91947,N
92219,N
92478,N
92732,N
92989,N
93247,N
93515,N
93784,N
94046,N
94300,N
94549,N
94815,N
95113,N
95420,N
95731,N
96038,N
96330,N
96598,N
96867,N
97125,N
97371,N
97577,N
97861,N
98101,N
98345,N
98582,N
98824,N
99062,N
99311,N
99562,N
99805,N
100056,N
100297,N
100548,N
100812,N
101074,N
101350,N
101615,N
101863,N
102122,N
102393,N
102678,N
102977,N
103317,N
103635,N
103962,N
104301,N
104651,N
105013,N
105336,N
105638,N
105951,N
106281,N
106633,N
106996,N
107348,N
107696,N
108039,N
108380,N
108711,N
109040,N
109384,N
109741,N
110074,N
110399,N
110740,N
111069,N
111406,N
111756,N
112081,N
112392,N
112738,N
113089,N
113427,N
113770,N
114074,N
114378,N
114700,N
115021,N
115344,N
115684,N
116028,N
116378,N
116718,N
117059,N
117410,N
117750,N
118074,N
118407,N
118752,N
119117,N
119483,N
119827,N
120162,N
120512,N
120853,N
121199,N
121548,N
121889,N
122243,N
122596,N
122903,N
123211,N
123528,N
123873,N
124213,N
124524,N
124835,N
125142,N
125457,N
125793,N
126137,N
126455,N
126756,N
127057,N
127380,N
127727,N
128081,N
128432,N
128778,N
129095,N
129391,N
129673,N
129960,N
130251,N
130562,N
130910,N
131257,N
131607,N
131924,N
132241,N
132532,N
132821,N
133128,N
133456,N
133788,N
134152,N
134526,N
134882,N
135232,N
135582,N
135917,N
136251,N
136568,N
136898,N
137248,N
137580,N
137916,N
138254,N
138609,N
138960,N
139311,N
139651,N
139969,N
140275,N
140580,N
140891,N
141214,N
141551,N
141888,N
142240,N
142596,N
142933,N
143268,N
143616,N
143988,N
144357,N
144693,N
145035,N
145395,N
145735,N
146085,N
146435,N
146792,N
147158,N
147491,N
147813,N
148136,N
148467,N
148818,N
149145,N
149462,N
149780,N
150114,N
150448,N
150768,N
151089,N
151422,N
151770,N
152116,N
152437,N
152754,N
153085,N
153393,N
153727,N
154087,N
154452,N
154824,N
155148,N
155475,N
155804,N
156128,N
156429,N
156718,N
157028,N
157347,N
157677,N
158013,N
158364,N
158705,N
159047,N
159350,N
159653,N
159958,N
160281,N
160603,N
160926,N
161221,N
161506,N
161784,N
162075,N
162389,N
162696,N
163022,N
163346,N
163688,N
163983,N
164269,N
164556,N
164835,N
165122,N
165424,N
165748,N
166080,N
166386,N
166709,N
167030,N
167334,N
167640,N
167947,N
168258,N
168579,N
168905,N
169204,N
169511,N
169825,N
170155,N
170479,N
170784,N
171085,N
171399,N
171727,N
172060,N
172378,N
172704,N
173036,N
173383,N
173727,N
174057,N
174380,N
174692,N
174992,N
175298,N
175622,N
175954,N
176296,N
176655,N
177016,N
177345,N
177647,N
177960,N
178276,N
178633,N
178976,N
179317,N
179630,N
179955,N
180265,N
180590,N
180904,N
181243,N
181594,N
181914,N
182232,N
182556,N
182886,N
183231,N
183570,N
183912,N
184241,N
184568,N
184899,N
185207,N
185508,N
185792,N
186068,N
186368,N
186682,N
187010,N
187341,N
187687,N
187999,N
188319,N
188650,N
188963,N
189272,N
189589,N
189919,N
190247,N
190574,N
190922,N
191233,N
191566,N
191904,N
192241,N
192596,N
192924,N
193254,N
193585,N
193920,N
194265,N
194594,N
194920,N
195255,N
195592,N
195944,N
196298,N
196625,N
196950,N
197284,N
197617,N
197940,N
198265,N
198590,N
198900,N
199207,N
199521,N
199822,N
200137,N
200458,N
200795,N
201103,N
201426,N
201748,N
202059,N
202369,N
202692,N
203021,N
203351,N
203665,N
203975,N
204278,N
204569,N
204850,N
205108,N
205358,N
205606,N
205857,N
206104,N
206346,N
206608,N
206935,N
207282,N
207622,N
207975,N
208325,N
208659,N
208992,N
209318,N
209632,N
209948,N
210269,N
210606,N
210943,N
211284,N
211612,N
211936,N
212269,N
212607,N
212930,N
213254,N
213564,N
213859,N
214138,N
214417,N
214718,N
215054,N
215395,N
215742,N
216068,N
216390,N
216707,N
217043,N
217384,N
217721,N
218052,N
218386,N
218714,N
219044,N
219374,N
219705,N
220033,N
220366,N
220683,N
221008,N
221337,N
221645,N
221943,N
222258,N
222582,N
222909,N
223220,N
223534,N
223847,N
224165,N
224480,N
224787,N
225102,N
225418,N
225734,N
226056,N
226381,N
226701,N
227033,N
227357,N
227691,N
228027,N
228354,N
228671,N
229000,N
229329,N
229650,N
229968,N
230292,N
230623,N
230947,N
231238,N
231525,N
231818,N
232140,N
232475,N
232796,N
233112,N
233431,N
233748,N
234059,N
234366,N
234678,N
235004,N
235342,N
235678,N
236015,N
236343,N
236683,N
236997,N
237313,N
237639,N
237959,N
238274,N
238617,N
238959,N
239282,N
239602,N
239933,N
240244,N
240545,N
240854,N
241168,N
241495,N
241818,N
242126,N
242434,N
242745,N
243063,N
243367,N
243665,N
243971,N
244270,N
244561,N
244855,N
245161,N
245471,N
245789,N
246105,N
246416,N
246708,N
247003,N
247301,N
247592,N
247892,N
248216,N
248558,N
248888,N
249204,N
249558,N
249896,N
250230,N
250561,N
250874,N
251184,N
251512,N
251857,N
252200,N
252550,N
252903,N
253230,N
253549,N
253865,N
254167,N
254472,N
254779,N
255095,N
255414,N
255737,N
256059,N
256368,N
256681,N
257003,N
257318,N
257616,N
257921,N
258238,N
258538,N
258843,N
259158,N
259481,N
259811,N
260122,N
260418,N
260709,N
260990,N
261300,N
261634,N
261952,N
262254,N
262567,N
262882,N
263196,N
263513,N
263822,N
264136,N
264432,N
264730,N
265032,N
265342,N
265653,N
265968,N
266250,N
266537,N
266829,N
267117,N
267402,N
267687,N
267975,N
268272,N
268579,N
268887,N
269201,N
269496,N
269800,N
270098,N
270390,N
270685,N
270992,N
271318,N
271653,N
271993,N
272333,N
272667,N
272974,N
273272,N
273573,N
273878,N
274199,N
274540,N
274874,N
275204,N
275521,N
275839,N
276152,N
276450,N
276749,N
277057,N
277374,N
277707,N
278032,N
278359,N
278679,N
279003,N
279304,N
279608,N
279924,N
280243,N
280560,N
280876,N
281199,N
281521,N
281838,N
282151,N
282469,N
282799,N
283128,N
283428,N
283732,N
284043,N
284377,N
284697,N
285006,N
285323,N
285641,N
285970,N
286296,N
286596,N
286890,N
287175,N
287484,N
287798,N
288125,N
288464,N
288778,N
289097,N
289430,N
289760,N
290074,N
290389,N
290714,N
291044,N
291365,N
291678,N
291967,N
292248,N
292536,N
292841,N
293161,N
293492,N
293810,N
294129,N
294445,N
294764,N
295091,N
295426,N
295763,N
296078,N
296379,N
296669,N
296977,N
297301,N
297622,N
297920,N
298204,N
298485,N
298768,N
299064,N
299353,N
299641,N
299949,N
300257,N
300574,N
300879,N
301190,N
301503,N
301791,N
302079,N
302374,N
302681,N
302993,N
303307,N
303610,N
303918,N
304217,N
304520,N
304829,N
305129,N
305412,N
305695,N
305984,N
306285,N
306577,N
306888,N
307223,N
307529,N
307833,N
308143,N
308458,N
308762,N
309047,N
309321,N
309594,N
309866,N
310157,N
310470,N
310795,N
311122,N
311460,N
311796,N
312133,N
312467,N
312767,N
313072,N
313377,N
313678,N
313991,N
314316,N
314643,N
314987,N
315304,N
315624,N
315956,N
316244,N
316525,N
316816,N
317117,N
317419,N
317737,N
318059,N
318368,N
318689,N
319013,N
319326,N
319614,N
319918,N
320234,N
320545,N
320861,N
321163,N
321453,N
321733,N
322020,N
322315,N
322600,N
322891,N
323192,N
323512,N
323847,N
324176,N
324514,N
324847,N
325178,N
325515,N
325829,N
326131,N
326434,N
326740,N
327047,N
327364,N
327666,N
327973,N
328287,N
328598,N
328920,N
329214,N
329499,N
329795,N
330097,N
330402,N
330731,N
331042,N
331348,N
331678,N
331996,N
332325,N
332657,N
332993,N
333336,N
333670,N
334011,N
334335,N
334644,N
334960,N
335285,N
335616,N
335952,N
336298,N
336633,N
336951,N
337252,N
337550,N
337838,N
338139,N
338462,N
338793,N
339117,N
339448,N
339782,N
340121,N
340446,N
340782,N
341099,N
341417,N
341732,N
342027,N
342305,N
342583,N
342873,N
343174,N
343502,N
343830,N
344150,N
344470,N
344798,N
345139,N
345463,N
345779,N
346080,N
346373,N
346656,N
346932,N
347219,N
347528,N
347856,N
348179,N
348503,N
348814,N
349118,N
349438,N
349743,N
350052,N
350355,N
350650,N
350935,N
351217,N
351494,N
351755,N
352014,N
352270,N
352534,N
352824,N
353137,N
353431,N
353735,N
354040,N
354339,N
354624,N
354904,N
355186,N
355463,N
355749,N
356047,N
356351,N
356666,N
356977,N
357288,N
357597,N
357909,N
358230,N
358554,N
358857,N
359153,N
359438,N
359716,N
359981,N
360255,N
360554,N
360877,N
361187,N
361492,N
361801,N
362101,N
362411,N
362699,N
362985,N
363266,N
363544,N
363839,N
364130,N
364414,N
364680,N
364942,N
365198,N
365465,N
365747,N
366034,N
366320,N
366614,N
366915,N
367197,N
367481,N
367757,N
368029,N
368312,N
368601,N
368898,N
369186,N
369461,N
369733,N
370012,N
370293,N
370581,N
370863,N
371144,N
371421,N
371697,N
371988,N
372293,N
372612,N
372936,N
373267,N
373571,N
373864,N
374161,N
374459,N
374753,N
375036,N
375327,N
375620,N
375919,N
376223,N
376530,N
376847,N
377155,N
377473,N
377788,N
378089,N
378374,N
378652,N
378929,N
379221,N
379521,N
379833,N
380150,N
380480,N
380811,N
381118,N
381417,N
381720,N
382036,N
382349,N
382661,N
382987,N
383315,N
383655,N
383975,N
384270,N
384564,N
384852,N
385158,N
385456,N
385779,N
386096,N
386402,N
386703,N
387017,N
387341,N
387668,N
387989,N
388331,N
388653,N
388976,N
389295,N
389624,N
389949,N
390275,N
390597,N
390914,N
391198,N
391477,N
391758,N
392014,N
392279,N
392554,N
392852,N
393165,N
393470,N
393761,N
394042,N
394325,N
394593,N
394864,N
395123,|
395382,N
395627,N
395869,N
396111,N
396354,N
396596,N
396835,N
397079,N
397310,N
397544,N
397770,N
398000,N
398228,N
398449,N
398670,N
398884,N
399105,N
399328,N
399563,N
399800,N
400042,N
400298,N
400545,N
400800,N
401052,N
401315,N
401590,N
401864,N
402130,N
402388,N
402640,N
402900,N
403168,N
403425,N
403675,N
403920,N
404153,N
404389,N
404636,N
404891,N
405153,N
405416,N
405688,N
405966,N
406236,N
406508,N
406774,N
407020,N
407262,N
407488,N
407717,N
407942,N
408168,N
408397,N
408637,N
408887,N
409143,N
409402,N
409687,N
409968,N
410236,N
410505,N
410764,N
411025,N
411286,N
411538,N
411792,N
412043,N
412298,N
412560,N
412824,N
413088,N
413359,N
413627,N
413892,N
414158,N
414420,N
414667,N
414924,N
415162,N
415411,N
415657,N
415904,N
416153,N
416398,N
416642,N
416889,N
417136,N
417384,N
417649,N
417911,N
418169,N
418424,N
418670,N
418912,N
419155,N
419404,N
419648,N
419892,N
420143,N
420396,N
420651,N
420909,N
421165,N
421430,N
421677,N
421936,N
422186,N
422428,N
422683,N
422925,N
423161,N
423396,N
423629,N
423865,N
424104,N
424354,N
424601,N
424846,N
425094,N
425346,N
425599,N
425860,N
426138,N
426416,N
426694,N
426967,N
427239,N
427520,N
427788,N
428062,N
428345,N
428619,N
428890,N
429172,N
429444,N
429716,N
429988,N
430248,N
430520,N
430798,N
431067,N
431349,N
431613,N
431879,N
432151,N
432423,N
432704,N
432988,N
433270,N
433554,N
433852,N
434133,N
434413,N
434701,N
435002,N
435308,N
435622,N
435927,N
436221,N
436519,N
436801,N
437086,N
437378,N
437675,N
437973,N
438273,N
438585,N
438898,N
439200,N
439502,N
439811,N
440104,N
440405,N
440708,N
441010,N
441304,N
441599,N
441897,N
442189,N
442473,N
442750,N
443017,N
443290,N
443568,N
443853,N
444133,N
444421,N
444720,N
445020,N
445324,N
445620,N
445919,N
446201,N
446479,N
446757,N
447036,N
447319,N
447611,N
447908,N
448213,N
448520,N
448821,N
449123,N
449411,N
449696,N
449987,N
450292,N
450585,N
450883,N
451188,N
451503,N
451819,N
452141,N
452465,N
452779,N
453082,N
453394,N
453704,N
453993,N
454278,N
454575,N
454850,N
455126,N
455407,N
455681,N
455934,N
456179,N
456428,N
456690,N
456967,N
457253,N
457538,N
457828,N
458123,N
458414,N
458690,N
458951,N
459213,N
459475,N
459744,N
460017,N
460277,N
460552,N
460817,N
461094,N
461382,N
461674,N
461971,N
462257,N
462537,N
462817,N
463111,N
463402,N
463692,N
463982,N
464283,N
464568,N
464854,N
465133,N
465401,N
465661,N
465921,N
466197,N
466487,N
466773,N
467073,N
467381,N
467677,N
467970,N
468264,N
468541,N
468812,N
469080,N
469341,N
469614,N
469895,N
470180,N
470451,N
470736,N
471024,N
471303,N
471593,N
471889,N
472185,N
472471,N
472762,N
473054,N
473344,N
473623,N
473907,N
474192,N
474467,N
474735,N
475000,N
475255,N
475521,N
475789,N
476073,N
476368,N
476662,N
476951,N
477230,N
477520,N
477799,N
478079,N
478362,N
478642,N
478920,N
479199,N
479480,N
479759,N
480036,N
480315,N
480601,N
480891,N
481180,N
481468,N
481753,N
482030,N
482299,N
482570,N
482844,N
483107,N
483371,N
483648,N
483941,N
484235,N
484534,N
484839,N
485135,N
485428,N
485706,N
485981,N
486243,N
486510,N
486779,N
487043,N
487310,N
487574,N
487849,N
488136,N
488421,N
488710,N
489001,N
489293,N
489576,N
489855,N
490120,N
490388,N
490657,N
490938,N
491217,N
491496,N
491786,N
492070,N
492356,N
492647,N
492929,N
493209,N
493487,N
493754,N
494024,N
494307,N
494604,N
494883,N
495168,N
495448,N
495737,N
496032,N
496339,N
496632,N
496927,N
497206,N
497488,N
497763,N
498027,N
498300,N
498578,N
498864,N
499160,N
499457,N
499742,N
500041,N
500345,N
500642,N
500937,N
501227,N
501504,N
501777,N
502016,N
502327,N
502584,N
502845,N
503099,N
503351,N
503611,N
503880,N
504157,N
504431,N
504696,N
504955,N
505223,N
505485,N
505741,N
506002,N
506255,N
506504,N
506759,N
507017,N
507275,N
507525,N
507779,N
508031,N
508274,N
508517,N
508756,N
508992,N
509224,N
509460,N
509702,N
509952,N
510199,N
510461,N
510718,N
510965,N
511210,N
511458,N
511708,N
511960,N
512212,N
512467,N
512715,N
512967,N
513233,N
513508,N
513786,N
514063,N
514351,N
514644,N
514932,N
515235,N
515544,N
515854,N
516151,N
516460,N
516766,N
517067,N
517365,N
517664,N
517941,N
518223,N
518505,N
518764,N
519026,N
519280,N
519543,N
519820,N
520111,N
520394,N
520684,N
520980,N
521267,N
521572,N
521895,N
522216,N
522531,N
522841,N
523153,N
523476,N
523774,N
524062,N
524146,N
524344,N
524622,N
524910,N
525188,N
525457,N
525715,N
525972,N
526215,N
526465,N
526722,N
526969,N
527211,N
527471,N
527728,N
527985,N
528258,N
528523,N
528801,N
529079,N
529357,N
529631,N
529897,N
530160,N
530417,N
530679,N
530931,N
531192,N
531469,N
531737,N
532005,N
532266,N
532522,N
532777,N
533049,N
533324,N
533609,N
533884,N
534156,N
534423,N
534694,N
534959,N
535219,N
535476,N
535745,N
536034,N
536334,N
536617,N
536903,N
537198,N
537481,N
537762,N
538044,N
538321,N
538605,N
538883,N
539159,N
539424,N
539698,N
539965,N
540092,N
540228,N
540491,N
540753,N
541022,N
541308,N
541593,N
541873,N
542156,N
542441,N
542714,N
542989,N
543260,N
543524,N
543793,N
544071,N
544368,N
544673,N
544981,N
545278,N
545571,N
545844,N
546111,N
546376,N
546648,N
546928,N
547217,N
547517,N
547826,N
548137,N
548427,N
548715,N
549000,N
549272,N
549537,N
549795,N
550045,N
550293,N
550549,N
550826,N
551107,N
551383,N
551654,N
551928,N
552203,N
552482,N
552771,N
553054,N
553327,N
553602,N
553874,N
554147,N
554413,N
554687,N
554953,N
555221,N
555484,N
555759,N
556042,N
556321,N
556599,N
556884,N
557175,N
557464,N
557754,N
558046,N
558336,N
558635,N
558937,N
559250,N
559549,N
559842,N
560128,N
560421,N
560724,N
561031,N
561347,N
561650,N
561946,N
562219,N
562486,N
562739,N
562977,N
563210,N
563440,N
563676,N
563918,N
564163,N
564418,N
564670,N
564932,N
565196,N
565455,N
565704,N
565947,N
566181,N
566417,N
566654,N
566902,N
567153,N
567408,N
567680,N
567956,N
568244,N
568534,N
568832,N
569131,N
569411,N
569688,N
569974,N
570247,N
570518,N
570783,N
571042,N
571157,N
571288,N
571549,N
571802,N
572066,N
572332,N
572606,N
572878,N
573157,N
573447,N
573733,N
574016,N
574289,N
574559,N
574835,N
575099,N
575362,N
575623,N
575883,N
576141,N
576403,N
576670,N
576943,N
577202,N
577464,N
577716,N
577974,N
578231,N
578483,N
578737,N
578994,N
579249,N
579501,N
579751,N
580008,N
580268,N
580526,N
580784,N
581047,N
581306,N
581563,N
581825,N
581941,N
582080,N
582332,N
582582,N
582827,N
583072,N
583322,N
583572,N
583816,N
584058,N
584300,N
584542,N
584784,N
585033,N
585284,N
585540,N
585791,N
586045,N
586299,N
586552,N
586799,N
587043,N
587281,N
587513,N
587748,N
587997,N
588231,N
588479,N
588741,N
588996,N
589242,N
589484,N
589735,N
589982,N
590226,N
590468,N
590707,N
590956,N
591214,N
591463,N
591719,N
591974,N
592223,N
592474,N
592730,N
592992,N
593251,N
593513,N
593770,N
594030,N
594300,N
594576,N
594863,N
595159,N
595440,N
595711,N
595971,N
596163,N
596231,N
596491,N
596746,N
597001,N
597260,N
597524,N
597780,N
598049,N
598327,N
598569,N
598736,N
598869,N
599113,N
599365,N
599612,N
599852,N
600093,N
600323,N
600559,N
600798,N
601032,N
601275,N
601517,N
601757,N
601991,N
602224,N
602459,N
602696,N
602941,N
603189,N
603444,N
603716,N
603998,N
604290,N
604596,N
604898,N
605190,N
605478,N
605763,N
606053,N
606332,N
606610,N
606885,N
607162,N
607440,N
607719,N
607982,N
608243,N
608511,N
608772,N
609042,N
609323,N
609602,N
609888,N
610157,N
610422,N
610680,N
610937,N
611176,N
611423,N
611657,N
611901,N
612140,N
612386,N
612639,N
612891,N
613145,N
613398,N
613647,N
613896,N
614144,N
614390,N
614638,N
614877,N
615116,N
615357,N
615603,N
615846,N
616080,N
616323,N
616560,N
616804,N
617064,N
617329,N
617600,N
617878,N
618155,N
618427,N
618690,N
618952,N
619209,N
619461,N
619710,N
619966,N
620220,N
620467,N
620722,N
620978,N
621233,N
621494,N
621755,N
622028,N
622312,N
622584,N
622858,N
623128,N
623398,N
623664,N
623923,N
624180,N
624437,N
624689,N
624944,N
625193,N
625452,N
625717,N
625972,N
626229,N
626491,N
626756,N
627019,N
627291,N
627562,N
627827,N
628099,N
628367,N
628631,N
628893,N
629140,N
629317,N
629594,N
629827,N
630069,N
630302,N
630546,N
630796,N
631043,N
631293,N
631549,N
631807,N
632100,N
632388,N
632690,N
632974,N
633253,N
633532,N
633817,N
634108,N
634382,N
634653,N
634926,N
635204,N
635481,N
635767,N
636031,N
636290,N
636549,N
636800,N
637065,N
637335,N
637595,N
637858,N
638112,N
638374,N
638647,N
638915,N
639076,|
639425,N
639521,N
639681,N
639942,N
640158,N
640447,N
640695,N
640932,N
641190,N
641447,N
641719,N
641991,N
642267,N
642544,N
642830,N
643130,N
643428,N
643723,N
644001,N
644282,N
644561,N
644831,N
645104,N
645371,N
645640,N
645905,N
646181,N
646459,N
646737,N
647027,N
647303,N
647575,N
647850,N
648111,N
648301,|
648618,N
648863,N
649096,N
649328,N
649562,N
649797,N
